{
    "_id": "AdPVz7rbaVSRxHFg",
    "data": {
        "active": true,
        "alsoApplies": {
            "linked": [],
            "unlinked": []
        },
        "base": "Fascinated",
        "description": {
            "chat": "",
            "unidentified": "",
            "value": "<p>You are compelled to focus your attention on something, distracting you from whatever else is going on around you. You take a -2 status penalty to Perception and skill checks, and you can't use actions with the concentrate trait unless they or their intended consequences are related to the subject of your fascination (as determined by the GM). For instance, you might be able to @Compendium[pf2e.actionspf2e.Seek]{Seek} and @Compendium[pf2e.actionspf2e.Recall Knowledge (Lore)]{Recall Knowledge} about the subject, but you likely couldn't cast a spell targeting a different creature. This condition ends if a creature uses hostile actions against you or any of your allies.</p>"
        },
        "duration": {
            "perpetual": true,
            "text": "",
            "value": 0
        },
        "group": "",
        "hud": {
            "img": {
                "useStatusName": true,
                "value": "systems/pf2e/icons/conditions-2/fascinated.webp"
            },
            "selectable": true,
            "statusName": "fascinated"
        },
        "modifiers": [
            {
                "group": "skill-check",
                "type": "status",
                "value": -2
            },
            {
                "group": "perception",
                "type": "status",
                "value": -2
            }
        ],
        "overrides": [],
        "references": {
            "children": [],
            "immunityFrom": [],
            "overriddenBy": [],
            "overrides": []
        },
        "removable": true,
        "rules": [],
        "source": {
            "value": ""
        },
        "sources": {
            "hud": false
        },
        "traits": {
            "custom": "",
            "rarity": {
                "value": "common"
            },
            "value": []
        },
        "value": {
            "immutable": false,
            "isValued": false,
            "modifiers": [],
            "value": 1
        }
    },
    "effects": [],
    "flags": {
        "pf2e": {
            "condition": true
        }
    },
    "img": "systems/pf2e/icons/conditions/fascinated.webp",
    "name": "Fascinated",
    "permission": {
        "default": 0
    },
    "type": "condition"
}
