{
    "_id": "qY4IUwVWIKPSFskP",
    "data": {
        "boosts": {
            "0": {
                "value": [
                    "cha",
                    "dex"
                ]
            },
            "1": {
                "value": [
                    "cha",
                    "con",
                    "dex",
                    "int",
                    "str",
                    "wis"
                ]
            }
        },
        "description": {
            "chat": "",
            "unidentified": "",
            "value": "<p>Experienced with trapezes, aerial silks, and hoops, your skill is in performing death-defying stunts high above the ground. The Celestial Menagerie skimped on safety devices such as nets and quality ropes, so you also learned to take a fall better than most. After a harrowing near-death experience involving a cracked trapeze bar, you decided to take your expertise elsewhere.</p>\n<p>Choose two ability boosts. One must be to <strong>Dexterity</strong> or <strong>Charisma</strong>, and one is a free ability boost.</p>\n<p>You're trained in the Acrobatics skill and the Rope Lore skill. You gain the @Compendium[pf2e.feats-srd.Cat Fall]{Cat Fall} skill feat.</p>"
        },
        "items": {
            "htrdu": {
                "id": "LQw0yIMDUJJkq1nD",
                "img": "systems/pf2e/icons/features/feats/feats.webp",
                "level": "1",
                "name": "Cat Fall",
                "pack": "pf2e.feats-srd"
            }
        },
        "rules": [],
        "source": {
            "value": ""
        },
        "trainedLore": "Rope Lore",
        "trainedSkills": {
            "value": [
                "acr"
            ]
        },
        "traits": {
            "custom": "",
            "rarity": {
                "value": "common"
            },
            "value": []
        }
    },
    "effects": [],
    "flags": {},
    "img": "systems/pf2e/icons/default-icons/mystery-man.svg",
    "name": "Aerialist",
    "permission": {
        "default": 0
    },
    "type": "background"
}
