{
    "_id": "Phvnfdmz4bB7jrI3",
    "data": {
        "boosts": {
            "0": {
                "value": [
                    "cha",
                    "int"
                ]
            },
            "1": {
                "value": [
                    "cha",
                    "con",
                    "dex",
                    "int",
                    "str",
                    "wis"
                ]
            }
        },
        "description": {
            "chat": "",
            "unidentified": "",
            "value": "<p>Piles of legal manuals, stern teachers, and experience in the courtroom have instructed you in legal matters. You're capable of mounting a prosecution or defense in court, and you tend to keep abreast of local laws, as you never can tell when you might need to know them on short notice.</p>\n<p>Choose two ability boosts. One must be to <strong>Intelligence</strong> or <strong>Charisma</strong>, and one is a free ability boost.</p>\n<p>You're trained in the Diplomacy skill and the Legal Lore skill. You gain the @Compendium[pf2e.feats-srd.Group Impression]{Group Impression} skill feat.</p>"
        },
        "items": {
            "d4ikn": {
                "id": "KpFetnUqTiweypZk",
                "img": "systems/pf2e/icons/features/feats/feats.webp",
                "level": "1",
                "name": "Group Impression",
                "pack": "pf2e.feats-srd"
            }
        },
        "rules": [],
        "source": {
            "value": ""
        },
        "trainedLore": "Legal Lore",
        "trainedSkills": {
            "value": [
                "dip"
            ]
        },
        "traits": {
            "custom": "",
            "rarity": {
                "value": "common"
            },
            "value": []
        },
        "usage": {
            "value": "held-in-one-hand"
        }
    },
    "effects": [],
    "flags": {},
    "img": "systems/pf2e/icons/default-icons/mystery-man.svg",
    "name": "Barrister",
    "permission": {
        "default": 0
    },
    "type": "background"
}
