{
    "_id": "sR3S7Xn15drU6rOF",
    "data": {
        "boosts": {
            "0": {
                "value": [
                    "con",
                    "int"
                ]
            },
            "1": {
                "value": [
                    "cha",
                    "con",
                    "dex",
                    "int",
                    "str",
                    "wis"
                ]
            }
        },
        "description": {
            "chat": "",
            "unidentified": "",
            "value": "<p>You're one of Wrin Sivinxi's closest confidantes. You've spent many long nights with her under the stars, learning the tales associated with the Cosmic Caravan and how the heavens can predict the future. You know that Wrin has paralyzing claustrophobia; she sees menace in angles and danger in confined spaces, which is why her shop is an all domed canvas that opens to the sky. If Wrin thinks there's trouble, you'll be the first to offer to help.</p>\n<p>Choose two ability boosts. One must be to <strong>Constitution</strong> or <strong>Intelligence</strong>, and one is a free ability boost.</p>\n<p>You're trained in the Occultism skill and the Astrology Lore skill. You gain the @Compendium[pf2e.feats-srd.Dubious Knowledge]{Dubious Knowledge} skill feat.</p>"
        },
        "items": {
            "az6xy": {
                "id": "1Bt7uCW2WI4sM84P",
                "img": "systems/pf2e/icons/features/feats/feats.webp",
                "level": "1",
                "name": "Dubious Knowledge",
                "pack": "pf2e.feats-srd"
            }
        },
        "rules": [],
        "source": {
            "value": ""
        },
        "trainedLore": "Astrology Lore",
        "trainedSkills": {
            "value": [
                "occ"
            ]
        },
        "traits": {
            "custom": "",
            "rarity": {
                "value": "common"
            },
            "value": []
        }
    },
    "effects": [],
    "flags": {},
    "img": "systems/pf2e/icons/default-icons/mystery-man.svg",
    "name": "Starwatcher",
    "permission": {
        "default": 0
    },
    "type": "background"
}
