{
    "_id": "PhqUBXLLkVXb6oUE",
    "data": {
        "boosts": {
            "0": {
                "value": [
                    "cha",
                    "con"
                ]
            },
            "1": {
                "value": [
                    "cha",
                    "con",
                    "dex",
                    "int",
                    "str",
                    "wis"
                ]
            }
        },
        "description": {
            "chat": "",
            "unidentified": "",
            "value": "<p><strong>Prerequisite</strong>: Region - Shining Kingdoms</p>\n<hr />\n<p>Whether willing or unwilling, you have been involved in the many cutthroat political intrigues within Taldor. You might have been born into it as a member of the aristocracy, or you might have taken an active role in the recent events of the War for the Crown.</p>\n<p>Choose two ability boosts. One must be to <strong>Charisma</strong> or <strong>Constitution</strong>, and one is a free ability boost.</p>\n<p>You're trained in the Diplomacy skill and the Politics Lore skill. You gain the @Compendium[pf2e.feats-srd.Hobnobber]{Hobnobber} skill feat.</p>"
        },
        "items": {
            "eup60": {
                "id": "4RjDxgvNXNl5GG9d",
                "img": "systems/pf2e/icons/features/feats/feats.webp",
                "level": "1",
                "name": "Hobnobber",
                "pack": "pf2e.feats-srd"
            }
        },
        "rules": [],
        "source": {
            "value": ""
        },
        "trainedLore": "Politics Lore",
        "trainedSkills": {
            "value": [
                "dip"
            ]
        },
        "traits": {
            "custom": "",
            "rarity": {
                "value": "common"
            },
            "value": []
        }
    },
    "effects": [],
    "flags": {},
    "img": "systems/pf2e/icons/default-icons/mystery-man.svg",
    "name": "Taldan Schemer",
    "permission": {
        "default": 0
    },
    "type": "background"
}
