{
    "_id": "TC7jpN5EA4UBIYep",
    "data": {
        "boosts": {
            "0": {
                "value": [
                    "str",
                    "wis"
                ]
            },
            "1": {
                "value": [
                    "cha",
                    "con",
                    "dex",
                    "int",
                    "str",
                    "wis"
                ]
            }
        },
        "description": {
            "chat": "",
            "unidentified": "",
            "value": "<p>Whether you are a local or from out of town, you've heard rumors that Breachill's past contains a hidden secret. Perhaps you've heard strange rumors that the town's founder, Lamond Breachton, was not the hero everyone touts, or maybe your grandmother heard stories from her own grandmother that contradict the town's accepted narrative of its establishment. In the pursuit of the truth, you've learned to navigate the tangles of politics, and to never take anyone's word at face value.</p>\n<p>You plan to join the Call for Heroes so that you can make yourself known to the council, or perhaps even ingratiating yourself to them, so you can seek the truth and eventually uncover Breachill's secrets!</p>\n<p>Choose two ability boosts. One must be to <strong>Strength</strong> or <strong>Wisdom</strong>, and one is a free ability boost.</p>\n<p>You're trained in the Deception skill and the Politics Lore skill. You gain the @Compendium[pf2e.feats-srd.Lie To Me]{Lie To Me} skill feat.</p>"
        },
        "items": {
            "llxv2": {
                "id": "Dvz54d6aPhjsmUux",
                "img": "systems/pf2e/icons/features/feats/feats.webp",
                "level": "1",
                "name": "Lie To Me",
                "pack": "pf2e.feats-srd"
            }
        },
        "rules": [],
        "source": {
            "value": ""
        },
        "trainedLore": "Politics Lore",
        "trainedSkills": {
            "value": [
                "dec"
            ]
        },
        "traits": {
            "custom": "",
            "rarity": {
                "value": "common"
            },
            "value": []
        }
    },
    "effects": [],
    "flags": {},
    "img": "systems/pf2e/icons/default-icons/mystery-man.svg",
    "name": "Truth Seeker",
    "permission": {
        "default": 0
    },
    "type": "background"
}
