{
    "_id": "uNhdcyhiog7YvXPT",
    "data": {
        "boosts": {
            "0": {
                "value": [
                    "cha",
                    "dex"
                ]
            },
            "1": {
                "value": [
                    "cha",
                    "con",
                    "dex",
                    "int",
                    "str",
                    "wis"
                ]
            }
        },
        "description": {
            "chat": "",
            "unidentified": "",
            "value": "<p><strong>Prerequisite</strong>: Region - Saga Lands</p>\n<hr />\n<p>You have spent your youth wandering the lands of Varisia and beyond among the brightly painted wagons of a Varisian caravan. You have heard endless tales of your people's history and lore, and have learned many songs and stories from the disparate people you have met.</p>\n<p>Choose two ability boosts. One must be to <strong>Dexterity</strong> or <strong>Charisma</strong>, and one is a free ability boost.</p>\n<p>You're trained in the Performance skill and the Circus Lore skill. You gain the @Compendium[pf2e.feats-srd.Fascinating Performance]{Fascinating Performance} skill feat.</p>"
        },
        "items": {
            "29ij0": {
                "id": "7LB00jkh6JaJr3vS",
                "img": "systems/pf2e/icons/features/feats/feats.webp",
                "level": "1",
                "name": "Fascinating Performance",
                "pack": "pf2e.feats-srd"
            }
        },
        "rules": [],
        "source": {
            "value": ""
        },
        "trainedLore": "Circus Lore",
        "trainedSkills": {
            "value": [
                "prf"
            ]
        },
        "traits": {
            "custom": "",
            "rarity": {
                "value": "common"
            },
            "value": []
        }
    },
    "effects": [],
    "flags": {},
    "img": "systems/pf2e/icons/default-icons/mystery-man.svg",
    "name": "Varisian Wanderer",
    "permission": {
        "default": 0
    },
    "type": "background"
}
