{
    "_id": "Zo5MZWVBKssVPEcv",
    "data": {
        "baseItem": null,
        "brokenThreshold": {
            "value": 0
        },
        "bulkCapacity": {
            "value": ""
        },
        "collapsed": {
            "value": false
        },
        "containerId": {
            "value": ""
        },
        "description": {
            "chat": "",
            "unidentified": "",
            "value": "<p><span>Mined from rocks that fell from the heavens, adamantine is one of the hardest metals known. It has a shiny, black appearance, and it is prized for its amazing resiliency and ability to hold an incredibly sharp edge. </span></p><h2>Adamantine Items</h2>\n<table style=\"width: 381px; user-select: text; color: #191813; font-size: 13px; height: 197px;\" border=\"1\">\n<tbody style=\"box-sizing: border-box; user-select: text;\">\n<tr style=\"box-sizing: border-box; user-select: text; height: 17px;\">\n<td style=\"box-sizing: border-box; user-select: text; color: white; height: 32px; width: 220px; background-color: #522e2c; text-align: center;\">\n<h3><span><strong>Adamantine Items</strong></span></h3>\n</td>\n<td style=\"box-sizing: border-box; user-select: text; color: white; width: 74px; text-align: center; background-color: #522e2c; height: 32px;\">\n<h3><strong style=\"box-sizing: border-box; user-select: text;\"><strong>Hardness</strong></strong> </h3>\n</td>\n<td style=\"box-sizing: border-box; user-select: text; color: white; width: 41px; text-align: center; background-color: #522e2c; height: 32px;\">\n<h3>HP</h3>\n</td>\n<td style=\"box-sizing: border-box; user-select: text; color: white; width: 45px; text-align: center; background-color: #522e2c; height: 32px;\">\n<h3>BT</h3>\n</td>\n</tr>\n<tr style=\"box-sizing: border-box; user-select: text; height: 17px;\">\n<td style=\"box-sizing: border-box; user-select: text; height: 25px; width: 220px; text-align: center; background-color: #f6f1e1;\"><strong>Thin Items</strong></td>\n<td style=\"box-sizing: border-box; user-select: text; width: 74px; text-align: center; background-color: #f6f1e1; height: 25px;\"> </td>\n<td style=\"box-sizing: border-box; user-select: text; width: 41px; text-align: center; background-color: #f6f1e1; height: 25px;\"> </td>\n<td style=\"box-sizing: border-box; user-select: text; width: 45px; text-align: center; background-color: #f6f1e1; height: 25px;\"> </td>\n</tr>\n<tr style=\"box-sizing: border-box; user-select: text; height: 17px;\">\n<td style=\"box-sizing: border-box; user-select: text; height: 25px; width: 220px; background-color: #eee5c8; text-align: center;\">Standard-grade</td>\n<td style=\"box-sizing: border-box; user-select: text; width: 74px; text-align: center; background-color: #eee5c8; height: 25px;\">10<span id=\"ctl00_MainContent_DetailedOutput\" style=\"box-sizing: border-box; user-select: text; display: block;\"></span></td>\n<td style=\"box-sizing: border-box; user-select: text; width: 41px; text-align: center; background-color: #eee5c8; height: 25px;\">40</td>\n<td style=\"box-sizing: border-box; user-select: text; width: 45px; text-align: center; background-color: #eee5c8; height: 25px;\">20</td>\n</tr>\n<tr style=\"box-sizing: border-box; user-select: text; height: 17px;\">\n<td style=\"box-sizing: border-box; user-select: text; height: 25px; width: 220px; text-align: center; background-color: #f6f1e1;\">High-grade</td>\n<td style=\"box-sizing: border-box; user-select: text; width: 74px; text-align: center; background-color: #f6f1e1; height: 25px;\">13</td>\n<td style=\"box-sizing: border-box; user-select: text; width: 41px; text-align: center; background-color: #f6f1e1; height: 25px;\">52</td>\n<td style=\"box-sizing: border-box; user-select: text; width: 45px; text-align: center; background-color: #f6f1e1; height: 25px;\">26</td>\n</tr>\n<tr style=\"box-sizing: border-box; user-select: text; height: 19px;\">\n<td style=\"box-sizing: border-box; user-select: text; height: 25px; width: 220px; text-align: center; background-color: #eee5c8;\"><strong>Items</strong></td>\n<td style=\"box-sizing: border-box; user-select: text; width: 74px; text-align: center; background-color: #eee5c8; height: 25px;\"> </td>\n<td style=\"box-sizing: border-box; user-select: text; width: 41px; text-align: center; background-color: #eee5c8; height: 25px;\"> </td>\n<td style=\"box-sizing: border-box; user-select: text; width: 45px; text-align: center; background-color: #eee5c8; height: 25px;\"> </td>\n</tr>\n<tr style=\"height: 19px;\">\n<td style=\"box-sizing: border-box; user-select: text; width: 220px; text-align: center; background-color: #f6f1e1; height: 25px;\">Standard-grade<strong><br /></strong></td>\n<td style=\"box-sizing: border-box; user-select: text; width: 74px; text-align: center; background-color: #f6f1e1; height: 25px;\">14</td>\n<td style=\"box-sizing: border-box; user-select: text; width: 41px; text-align: center; background-color: #f6f1e1; height: 25px;\">56</td>\n<td style=\"box-sizing: border-box; user-select: text; width: 45px; text-align: center; background-color: #f6f1e1; height: 25px;\">28</td>\n</tr>\n<tr style=\"height: 19px;\">\n<td style=\"box-sizing: border-box; user-select: text; width: 220px; text-align: center; background-color: #eee5c8; height: 25px;\">High-grade<strong><br /></strong></td>\n<td style=\"box-sizing: border-box; user-select: text; width: 74px; text-align: center; background-color: #eee5c8; height: 25px;\">17</td>\n<td style=\"box-sizing: border-box; user-select: text; width: 41px; text-align: center; background-color: #eee5c8; height: 25px;\">68</td>\n<td style=\"box-sizing: border-box; user-select: text; width: 45px; text-align: center; background-color: #eee5c8; height: 25px;\">34</td>\n</tr>\n<tr style=\"height: 19px;\">\n<td style=\"box-sizing: border-box; user-select: text; width: 220px; text-align: center; background-color: #f6f1e1; height: 25px;\"><strong>Structure</strong></td>\n<td style=\"box-sizing: border-box; user-select: text; width: 74px; text-align: center; background-color: #f6f1e1; height: 25px;\"> </td>\n<td style=\"box-sizing: border-box; user-select: text; width: 41px; text-align: center; background-color: #f6f1e1; height: 25px;\"> </td>\n<td style=\"box-sizing: border-box; user-select: text; width: 45px; text-align: center; background-color: #f6f1e1; height: 25px;\"> </td>\n</tr>\n<tr style=\"height: 19px;\">\n<td style=\"box-sizing: border-box; user-select: text; width: 220px; text-align: center; background-color: #eee5c8; height: 25px;\">Standard-grade<strong><br /></strong></td>\n<td style=\"box-sizing: border-box; user-select: text; width: 74px; text-align: center; background-color: #eee5c8; height: 25px;\">28</td>\n<td style=\"box-sizing: border-box; user-select: text; width: 41px; text-align: center; background-color: #eee5c8; height: 25px;\">112</td>\n<td style=\"box-sizing: border-box; user-select: text; width: 45px; text-align: center; background-color: #eee5c8; height: 25px;\">56</td>\n</tr>\n<tr style=\"height: 19px;\">\n<td style=\"box-sizing: border-box; user-select: text; width: 220px; text-align: center; background-color: #f6f1e1; height: 25px;\">High-grade<strong><br /></strong></td>\n<td style=\"box-sizing: border-box; user-select: text; width: 74px; text-align: center; background-color: #f6f1e1; height: 25px;\">34</td>\n<td style=\"box-sizing: border-box; user-select: text; width: 41px; text-align: center; background-color: #f6f1e1; height: 25px;\">136</td>\n<td style=\"box-sizing: border-box; user-select: text; width: 45px; text-align: center; background-color: #f6f1e1; height: 25px;\">68</td>\n</tr>\n</tbody>\n</table>"
        },
        "equipped": {
            "value": false
        },
        "equippedBulk": {
            "value": ""
        },
        "hardness": {
            "value": 0
        },
        "hp": {
            "value": 0
        },
        "identification": {
            "misidentified": {},
            "status": "identified",
            "unidentified": {
                "data": {
                    "description": {
                        "value": ""
                    }
                },
                "img": "",
                "name": ""
            }
        },
        "invested": {
            "value": false
        },
        "level": {
            "value": "0"
        },
        "maxHp": {
            "value": 0
        },
        "negateBulk": {
            "value": "0"
        },
        "preciousMaterial": {
            "value": ""
        },
        "preciousMaterialGrade": {
            "value": ""
        },
        "price": {
            "value": "500 gp"
        },
        "quantity": {
            "value": "1"
        },
        "rules": [],
        "size": {
            "value": "med"
        },
        "source": {
            "value": ""
        },
        "stackGroup": {
            "value": ""
        },
        "traits": {
            "custom": "",
            "rarity": {
                "value": "uncommon"
            },
            "usage": {
                "value": "held-in-one-hand"
            },
            "value": [
                "precious"
            ]
        },
        "usage": {
            "value": "held-in-one-hand"
        },
        "weight": {
            "value": "L"
        }
    },
    "effects": [],
    "flags": {},
    "img": "systems/pf2e/icons/equipment/materials/adamantine-chunk.webp",
    "name": "Adamantine Chunk",
    "permission": {
        "default": 0
    },
    "type": "equipment"
}
