{
    "_id": "QlFJyxBTYFSN2EA7",
    "data": {
        "baseItem": null,
        "brokenThreshold": {
            "value": 0
        },
        "bulkCapacity": {
            "value": ""
        },
        "collapsed": {
            "value": false
        },
        "containerId": {
            "value": ""
        },
        "description": {
            "chat": "",
            "unidentified": "",
            "value": "<p>Rarely found outside of major metropolises, fingerprinting kits are a state-of-the-art, non-magical means of linking suspects to the scene of a crime.</p>\n<p>The kit consists of two parts. The first, a delicate brush and a jar of extremely fine dust, is used to reveal fingerprints left behind by most humanoid creatures. The dust sticks to the natural oils left behind on smooth surfaces. When you use the kit to determine whether or not creatures left behind a fingerprint at a crime scene, the GM rolls a secret Thievery check against the Thievery DC of every creature capable of leaving prints that has interacted with the scene. On a success, you locate a clear print from that creature and carefully transfer it to a special sheet of sticky paper. (Note that fingerprints can last for days, and prints collected in this manner often include those of victims, witnesses, and unrelated passersby.) At the GM's discretion, the print-leaving creature might get a bonus to its Thievery DC for taking special precautions. In other cases, finding a print might be impossible (such as if the creature was wearing gloves or if the location has been significantly compromised).</p>\n<p>The second part of the kit is a small sheaf of paper and a pad soaked in ink. By forcing a humanoid creature with fingerprints to roll a finger across the pad and then press it to the paper, you can obtain an image of the unique whorls in that creature's fingerprints. These can then be compared to any prints found at a crime scene. Successfully determining whether or not two prints match requires a DC 15 Perception check-the GM should roll this check secretly as well, since a failed check may result in false information.</p>"
        },
        "equipped": {
            "value": false
        },
        "equippedBulk": {
            "value": ""
        },
        "hardness": {
            "value": 0
        },
        "hp": {
            "value": 0
        },
        "identification": {
            "misidentified": {},
            "status": "identified",
            "unidentified": {
                "data": {
                    "description": {
                        "value": ""
                    }
                },
                "img": "",
                "name": ""
            }
        },
        "invested": {
            "value": false
        },
        "level": {
            "value": "3"
        },
        "maxHp": {
            "value": 0
        },
        "negateBulk": {
            "value": "0"
        },
        "preciousMaterial": {
            "value": ""
        },
        "preciousMaterialGrade": {
            "value": ""
        },
        "price": {
            "value": "30 gp"
        },
        "quantity": {
            "value": "1"
        },
        "rules": [],
        "size": {
            "value": "med"
        },
        "source": {
            "value": ""
        },
        "stackGroup": {
            "value": ""
        },
        "traits": {
            "custom": "",
            "rarity": {
                "value": "uncommon"
            },
            "usage": {
                "value": "held-in-two-hands"
            },
            "value": []
        },
        "usage": {
            "value": "held-in-one-hand"
        },
        "weight": {
            "value": "L"
        }
    },
    "effects": [],
    "flags": {},
    "img": "systems/pf2e/icons/equipment/adventuring-gear/fingerprinting-kit.webp",
    "name": "Fingerprint Kit",
    "permission": {
        "default": 0
    },
    "type": "equipment"
}
