{
    "_id": "tLNsmY90aN668PMG",
    "data": {
        "armor": {
            "value": 6
        },
        "armorType": {
            "value": "heavy"
        },
        "baseItem": "full-plate",
        "brokenThreshold": {
            "value": null
        },
        "bulkCapacity": {
            "value": ""
        },
        "check": {
            "value": -3
        },
        "collapsed": {
            "value": false
        },
        "containerId": {
            "value": ""
        },
        "description": {
            "chat": "",
            "unidentified": "",
            "value": "<p>This elegant full plate is embossed with heraldic imagery and never tarnishes or loses its shine. <em>Glorious plate</em> is <em>+2 resilient full plate</em>.</p>\n<p>In battle, <em>glorious plate</em> sheds bright light in a 10-foot radius, which enemies see as a blinding halo that obscures creatures other than the wearer. When an enemy looks at the wearer, it must attempt a DC 33 Will saving throw. The enemy is then temporarily immune for 1 minute.</p>\n<p><strong>Success</strong> The enemy is unaffected.<br /><strong>Failure</strong> For 1 minute, the wearer's allies within the glorious plate's 10-foot radius of light are concealed to the enemy. Allies are concealed only while they remain within the light; if allies enter the light later, they are concealed as well.<br /><strong>Critical Failure</strong> As failure, except the wearer's allies are hidden to the enemy instead of concealed.</p>\n<p><strong>Activate</strong> <span class=\"pf2-icon\">D</span> command, Interact</p>\n<p><strong>Effect</strong> The armor casts @Compendium[pf2e.spells-srd.Sanctuary]{Sanctuary} on you.</p>"
        },
        "dex": {
            "value": 0
        },
        "equipped": {
            "value": false
        },
        "equippedBulk": {
            "value": "4"
        },
        "group": {
            "value": "plate"
        },
        "hardness": {
            "value": null
        },
        "hp": {
            "value": null
        },
        "identification": {
            "misidentified": {},
            "status": "identified",
            "unidentified": {
                "data": {
                    "description": {
                        "value": ""
                    }
                },
                "img": "",
                "name": ""
            }
        },
        "invested": {
            "value": false
        },
        "level": {
            "value": 14
        },
        "maxHp": {
            "value": null
        },
        "negateBulk": {
            "value": "0"
        },
        "potency": {},
        "potencyRune": {
            "value": 2
        },
        "preciousMaterial": {
            "value": ""
        },
        "preciousMaterialGrade": {
            "value": ""
        },
        "price": {
            "value": "4,500 gp"
        },
        "propertyRune1": {
            "value": ""
        },
        "propertyRune2": {
            "value": ""
        },
        "propertyRune3": {
            "value": ""
        },
        "propertyRune4": {
            "value": ""
        },
        "quantity": {
            "value": 1
        },
        "resiliencyRune": {
            "value": "resilient"
        },
        "resilient": {},
        "rules": [
            {
                "key": "PF2E.RuleElement.FlatModifier",
                "predicate": {
                    "not": [
                        "unburdened-iron"
                    ]
                },
                "roll-options": [
                    "all"
                ],
                "selector": "speed",
                "type": "untyped",
                "value": {
                    "brackets": [
                        {
                            "end": 17,
                            "value": -10
                        },
                        {
                            "start": 18,
                            "value": -5
                        }
                    ],
                    "field": "actor|data.abilities.str.value"
                }
            },
            {
                "key": "PF2E.RuleElement.FlatModifier",
                "label": "Bulwark",
                "predicate": {
                    "all": [
                        "damaging-effect"
                    ]
                },
                "selector": "reflex",
                "type": "ability",
                "value": 3
            }
        ],
        "size": {
            "value": "med"
        },
        "source": {
            "value": ""
        },
        "speed": {
            "value": "-10 ft"
        },
        "stackGroup": {
            "value": ""
        },
        "strength": {
            "value": 18
        },
        "traits": {
            "custom": "",
            "rarity": {
                "value": "rare"
            },
            "value": [
                "bulwark",
                "evocation",
                "good",
                "light",
                "magical"
            ]
        },
        "usage": {
            "value": "wornarmor"
        },
        "weight": {
            "value": "5"
        }
    },
    "effects": [],
    "flags": {},
    "img": "systems/pf2e/icons/equipment/armor/specific-magic-armor/glorious-plate.webp",
    "name": "Glorious Plate",
    "permission": {
        "default": 0
    },
    "type": "armor"
}
