{
    "_id": "ngz7dYysC1NkBBRK",
    "data": {
        "baseItem": null,
        "brokenThreshold": {
            "value": 0
        },
        "bulkCapacity": {
            "value": "1"
        },
        "collapsed": {
            "value": false
        },
        "containerId": {
            "value": ""
        },
        "description": {
            "chat": "",
            "unidentified": "",
            "value": "<p>An item can be stored inside these supple leather gloves, held in an extradimensional space. When an item is inside the glove, an image of the item appears as a simple, stitched pattern on the back of each glove. Many <em>gloves of storing</em> are found with an item already inside.</p>\n<hr />\n<p><strong>Activate</strong> <span class=\"pf2-icon\">A</span> Interact</p>\n<p><strong>Requirements</strong> No item is stored in the gloves</p>\n<p><strong>Effect</strong> One item you're holding with a Bulk of 1 or less vanishes into the gloves' extradimensional space.</p>\n<hr />\n<p><strong>Activate</strong> <span class=\"pf2-icon\">F</span> Interact</p>\n<p><strong>Requirements</strong> An item is stored in the gloves, and you have a free hand</p>\n<p><strong>Effect</strong> The item stored in the gloves appears in your hand. The gloves can't be activated again for 1 minute.</p>"
        },
        "equipped": {
            "value": false
        },
        "equippedBulk": {
            "value": ""
        },
        "hardness": {
            "value": 0
        },
        "hp": {
            "value": 0
        },
        "identification": {
            "misidentified": {},
            "status": "identified",
            "unidentified": {
                "data": {
                    "description": {
                        "value": ""
                    }
                },
                "img": "",
                "name": ""
            }
        },
        "invested": {
            "value": false
        },
        "level": {
            "value": "7"
        },
        "maxHp": {
            "value": 0
        },
        "negateBulk": {
            "value": ""
        },
        "preciousMaterial": {
            "value": ""
        },
        "preciousMaterialGrade": {
            "value": ""
        },
        "price": {
            "value": "340 gp"
        },
        "quantity": {
            "value": "1"
        },
        "rules": [],
        "size": {
            "value": "med"
        },
        "source": {
            "value": ""
        },
        "stackGroup": {
            "value": ""
        },
        "traits": {
            "custom": "",
            "rarity": {
                "value": "uncommon"
            },
            "value": [
                "extradimensional",
                "invested",
                "magical",
                "transmutation"
            ]
        },
        "usage": {
            "value": "worngloves"
        },
        "weight": {
            "value": "-"
        }
    },
    "effects": [],
    "flags": {},
    "img": "systems/pf2e/icons/equipment/cursed-items/gloves-of-carelessness.webp",
    "name": "Gloves of Storing",
    "permission": {
        "default": 0
    },
    "type": "equipment"
}
