{
    "_id": "dJoYIbM6GF6wgX0b",
    "data": {
        "baseItem": null,
        "brokenThreshold": {
            "value": 0
        },
        "bulkCapacity": {
            "value": ""
        },
        "collapsed": {
            "value": false
        },
        "containerId": {
            "value": ""
        },
        "description": {
            "chat": "",
            "unidentified": "",
            "value": "<p>This dried gourd seems entirely nondescript, as it is hollow and has a sturdy cord wrapped around its neck for easy carrying. Closer inspection reveals the gourd has grown in the rough shape of a hut or similar small dwelling.</p>\n<hr />\n<p><strong>Activate</strong> (1 minute) Interact</p>\n<p><strong>Effect</strong> You place the <em>gourd home</em> on the ground (in an open area large enough to contain it) and cause it to expand in size to a 30-foot-square structure with one door. The interior of the gourd is a single large room that can hold 10 Small or Medium creatures with moderate comfort.</p>\n<hr />\n<p><strong>Activate</strong> <span class=\"pf2-icon\">A</span> Interact</p>\n<p><strong>Frequency</strong> once per day</p>\n<p><strong>Requirements</strong> The gourd home must be expanded into its house form atop earth or soil.</p>\n<p><strong>Effect</strong> By rapping on the door from either outside or inside, you cause the <em>gourd home</em> to shrink back into its normal size and appear to be a non-magical gourd sitting on the ground. For the following 8 hours, the interior of the gourd home becomes an extradimensional space whose size appears unchanged to those within.</p>\n<p>If anyone outside picks up or damages the gourd, or if anyone inside the <em>gourd home</em> attempts to exit, all creatures within the <em>gourd home</em> immediately reappear in the area surrounding the gourd, and the <em>gourd home</em> becomes inactive for 24 hours.</p>"
        },
        "equipped": {
            "value": false
        },
        "equippedBulk": {
            "value": ""
        },
        "hardness": {
            "value": 0
        },
        "hp": {
            "value": 0
        },
        "identification": {
            "misidentified": {},
            "status": "identified",
            "unidentified": {
                "data": {
                    "description": {
                        "value": ""
                    }
                },
                "img": "",
                "name": ""
            }
        },
        "invested": {
            "value": false
        },
        "level": {
            "value": "9"
        },
        "maxHp": {
            "value": 0
        },
        "negateBulk": {
            "value": ""
        },
        "preciousMaterial": {
            "value": ""
        },
        "preciousMaterialGrade": {
            "value": ""
        },
        "price": {
            "value": "650 gp"
        },
        "quantity": {
            "value": "1"
        },
        "rules": [],
        "size": {
            "value": "med"
        },
        "source": {
            "value": ""
        },
        "stackGroup": {
            "value": ""
        },
        "traits": {
            "custom": "",
            "rarity": {
                "value": "rare"
            },
            "usage": {
                "value": "held-in-one-hand"
            },
            "value": [
                "conjuration",
                "extradimensional",
                "magical",
                "structure"
            ]
        },
        "usage": {
            "value": "held-in-one-hand"
        },
        "weight": {
            "value": "L"
        }
    },
    "effects": [],
    "flags": {},
    "img": "systems/pf2e/icons/equipment/structures/gourd-home.webp",
    "name": "Gourd Home",
    "permission": {
        "default": 0
    },
    "type": "equipment"
}
