{
    "_id": "TGCzwDIrAqo3HUhr",
    "data": {
        "baseItem": null,
        "brokenThreshold": {
            "value": 0
        },
        "bulkCapacity": {
            "value": ""
        },
        "collapsed": {
            "value": false
        },
        "containerId": {
            "value": ""
        },
        "description": {
            "chat": "",
            "unidentified": "",
            "value": "<p>This magical chisel evokes the holy symbol of the elven goddess of art and architecture, Findeladlara. The <em>Guiding Chisel's</em> original function was as a portal key to Duskgate, but as Alseta's Ring faded from the collective memories of the elves, the chisel became known and used exclusively for its other abilities. Eventually, elven emissaries gave it to the dwarves of Saggorak as a gesture of friendship.</p>\n<p>You gain a +3 item bonus to Crafting checks related to stonemasonry.</p>\n<p>In addition, it takes you only 1 day to Craft items using the <em>Guiding Chisel</em> instead of 4 days, and you quadruple the discount you get for spending additional days Crafting items with the <em>Guiding Chisel</em>. If it's unclear whether you could use the <em>Guiding Chisel</em> to Craft an item, the GM decides.</p>\n<hr />\n<p>Automatically applied effects:</p>\n<ul>\n<li>+3 item bonus to Crafting checks related to stonemasonry</li>\n</ul>"
        },
        "equipped": {
            "value": false
        },
        "equippedBulk": {
            "value": ""
        },
        "hardness": {
            "value": 0
        },
        "hp": {
            "value": 0
        },
        "identification": {
            "misidentified": {},
            "status": "identified",
            "unidentified": {
                "data": {
                    "description": {
                        "value": ""
                    }
                },
                "img": "",
                "name": ""
            }
        },
        "invested": {
            "value": false
        },
        "level": {
            "value": "16"
        },
        "maxHp": {
            "value": 0
        },
        "negateBulk": {
            "value": "0"
        },
        "preciousMaterial": {
            "value": ""
        },
        "preciousMaterialGrade": {
            "value": ""
        },
        "price": {
            "value": "10,000 gp"
        },
        "quantity": {
            "value": "1"
        },
        "rules": [
            {
                "key": "PF2E.RuleElement.FlatModifier",
                "label": "Guiding Chisel (stonemasonry)",
                "predicate": {
                    "all": [
                        "stonemasonry"
                    ]
                },
                "selector": "crafting",
                "type": "item",
                "value": 3
            }
        ],
        "size": {
            "value": "med"
        },
        "source": {
            "value": ""
        },
        "stackGroup": {
            "value": ""
        },
        "traits": {
            "custom": "",
            "rarity": {
                "value": "unique"
            },
            "usage": {
                "value": "held-in-one-hand"
            },
            "value": [
                "conjuration",
                "elf",
                "magical"
            ]
        },
        "usage": {
            "value": "held-in-one-hand"
        },
        "weight": {
            "value": "1"
        }
    },
    "effects": [],
    "flags": {},
    "img": "systems/pf2e/icons/equipment/held-items/guiding-chisel.webp",
    "name": "Guiding Chisel",
    "permission": {
        "default": 0
    },
    "type": "equipment"
}
