{
    "_id": "ACa9QlFqdmW4s2Th",
    "data": {
        "baseItem": null,
        "brokenThreshold": {
            "value": 0
        },
        "bulkCapacity": {
            "value": ""
        },
        "collapsed": {
            "value": false
        },
        "containerId": {
            "value": ""
        },
        "description": {
            "value": "<p>This item appears to be an ordinary semiprecious stone and is typically mounted on a brooch or ring, but the stone is, in fact, an eyeball. This illusion can be seen through with true seeing or similar magic, and anyone who interacts with the item feels its wet and sticky surface, allowing them to attempt to disbelieve the illusion (DC 19). Many hags claim a hag eye is more effective if plucked from a living, awake creature, but this is likely just a convenient excuse for sadism.</p>\n<p>The hag eye produces no direct benefit for the wearer, but allows the hag who created it, or any member of her coven, can peer through the eye using the Seek action. This has no range limit, provided the hag is on the same plane.</p>\n<p>Any damage dealt to the eye destroys it. If this happens while a hag is looking through it, the hag is @Compendium[pf2e.conditionitems.Blinded]{Blinded} for 1 hour.</p>\n<hr />\n<p><strong>Craft Requirements</strong> You must be a hag.</p>"
        },
        "equipped": {
            "value": false
        },
        "equippedBulk": {
            "value": ""
        },
        "hardness": {
            "value": 0
        },
        "hp": {
            "value": 0
        },
        "identification": {
            "misidentified": {},
            "status": "identified",
            "unidentified": {
                "data": {
                    "description": {
                        "value": ""
                    }
                },
                "img": "",
                "name": ""
            }
        },
        "invested": {
            "value": false
        },
        "level": {
            "value": 3
        },
        "maxHp": {
            "value": 0
        },
        "negateBulk": {
            "value": "0"
        },
        "preciousMaterial": {
            "value": ""
        },
        "preciousMaterialGrade": {
            "value": ""
        },
        "price": {
            "value": 50
        },
        "quantity": {
            "value": 1
        },
        "rules": [],
        "size": {
            "value": "med"
        },
        "source": {
            "value": ""
        },
        "stackGroup": {
            "value": ""
        },
        "traits": {
            "custom": "",
            "rarity": {
                "value": "rare"
            },
            "usage": {
                "value": "held-in-one-hand"
            },
            "value": [
                "divination",
                "invested",
                "occult",
                "scrying"
            ]
        },
        "usage": {
            "value": ""
        },
        "weight": {
            "value": "-"
        }
    },
    "effects": [],
    "flags": {},
    "img": "systems/pf2e/icons/equipment/worn-items/other-worn-items/hag-eye.webp",
    "name": "Hag Eye",
    "permission": {
        "default": 0
    },
    "type": "equipment"
}
