{
    "_id": "pRoikbRo5HFW6YUB",
    "data": {
        "armor": {
            "value": 5
        },
        "armorType": {
            "value": "heavy"
        },
        "baseItem": "half-plate",
        "brokenThreshold": {
            "value": null
        },
        "bulkCapacity": {
            "value": ""
        },
        "check": {
            "value": "-3"
        },
        "collapsed": {
            "value": false
        },
        "containerId": {
            "value": ""
        },
        "description": {
            "chat": "",
            "unidentified": "",
            "value": "<p>Half plate consists of most of the upper body plates used in full plate, with lighter or sparser steel plate protection for the arms and legs. This provides some of the protection of full plate with greater flexibility and speed. A suit of this armor comes with an undercoat of padded armor and a pair of gauntlets.</p>"
        },
        "dex": {
            "value": "1"
        },
        "equipped": {
            "value": false
        },
        "equippedBulk": {
            "value": "3"
        },
        "group": {
            "value": "plate"
        },
        "hardness": {
            "value": null
        },
        "hp": {
            "value": null
        },
        "identification": {
            "misidentified": {},
            "status": "identified",
            "unidentified": {
                "data": {
                    "description": {
                        "value": ""
                    }
                },
                "img": "",
                "name": ""
            }
        },
        "invested": {
            "value": false
        },
        "level": {
            "value": 1
        },
        "maxHp": {
            "value": null
        },
        "negateBulk": {
            "value": "0"
        },
        "potency": {},
        "potencyRune": {
            "value": 0
        },
        "preciousMaterial": {
            "value": ""
        },
        "preciousMaterialGrade": {
            "value": ""
        },
        "price": {
            "value": "18 gp"
        },
        "propertyRune1": {
            "value": ""
        },
        "propertyRune2": {
            "value": ""
        },
        "propertyRune3": {
            "value": ""
        },
        "propertyRune4": {
            "value": ""
        },
        "quantity": {
            "value": 1
        },
        "resiliencyRune": {
            "value": ""
        },
        "resilient": {},
        "rules": [
            {
                "key": "PF2E.RuleElement.FlatModifier",
                "predicate": {
                    "not": [
                        "unburdened-iron"
                    ]
                },
                "roll-options": [
                    "all"
                ],
                "selector": "speed",
                "type": "untyped",
                "value": {
                    "brackets": [
                        {
                            "end": 15,
                            "value": -10
                        },
                        {
                            "start": 16,
                            "value": -5
                        }
                    ],
                    "field": "actor|data.abilities.str.value"
                }
            }
        ],
        "size": {
            "value": "med"
        },
        "source": {
            "value": ""
        },
        "speed": {
            "value": "-10 ft"
        },
        "stackGroup": {
            "value": ""
        },
        "strength": {
            "value": "16"
        },
        "traits": {
            "custom": "",
            "rarity": {
                "value": "common"
            },
            "value": []
        },
        "usage": {
            "value": "wornarmor"
        },
        "weight": {
            "value": "4"
        }
    },
    "effects": [],
    "flags": {},
    "img": "systems/pf2e/icons/equipment/armor/halfplate.webp",
    "name": "Half Plate",
    "permission": {
        "default": 0
    },
    "type": "armor"
}
