{
    "_id": "AHkmoVr1NSFytJwp",
    "data": {
        "baseItem": null,
        "brokenThreshold": {
            "value": 0
        },
        "bulkCapacity": {
            "value": ""
        },
        "collapsed": {
            "value": false
        },
        "containerId": {
            "value": ""
        },
        "description": {
            "chat": "",
            "unidentified": "",
            "value": "<p>The band of this ring is made from blue-colored iron and has two sharp, decorative protrusions on each side of the red-stone inlay. It feels quite heavy and reliable. Wearing this ring grants you a +2 item bonus to Deception and Diplomacy checks, but only if the associated checks involve haggling or bargaining over a purchase or trade.</p>\n<p><strong>Activate</strong> <span class=\"pf2-icon\">T</span> envision, interact</p>\n<p><strong>Effect</strong> You can determine if an item is magical simply by handling it. You detect no other indication of its power, only whether or not it is magical, granting the effects of a 1st-level @Compendium[pf2e.spells-srd.Detect Magic]{Detect Magic} spell that affects only the object.</p>\n<hr />\n<p>Automatically applied effects:</p>\n<ul>\n<li>+2 item bonus to Deception and Diplomacy checks to haggle or bargain</li>\n</ul>"
        },
        "equipped": {
            "value": false
        },
        "equippedBulk": {
            "value": ""
        },
        "hardness": {
            "value": 0
        },
        "hp": {
            "value": 0
        },
        "identification": {
            "misidentified": {},
            "status": "identified",
            "unidentified": {
                "data": {
                    "description": {
                        "value": ""
                    }
                },
                "img": "",
                "name": ""
            }
        },
        "invested": {
            "value": false
        },
        "level": {
            "value": "5"
        },
        "maxHp": {
            "value": 0
        },
        "negateBulk": {
            "value": ""
        },
        "preciousMaterial": {
            "value": ""
        },
        "preciousMaterialGrade": {
            "value": ""
        },
        "price": {
            "value": "160 gp"
        },
        "quantity": {
            "value": "1"
        },
        "rules": [
            {
                "key": "PF2E.RuleElement.FlatModifier",
                "label": "Merchant's Guile (haggling or bargaining)",
                "predicate": {
                    "all": [
                        "haggle"
                    ]
                },
                "selector": "deception",
                "type": "item",
                "value": 2
            },
            {
                "key": "PF2E.RuleElement.FlatModifier",
                "label": "Merchant's Guile (haggling or bargaining)",
                "predicate": {
                    "all": [
                        "haggle"
                    ]
                },
                "selector": "diplomacy",
                "type": "item",
                "value": 2
            }
        ],
        "size": {
            "value": "med"
        },
        "source": {
            "value": ""
        },
        "stackGroup": {
            "value": ""
        },
        "traits": {
            "custom": "",
            "rarity": {
                "value": "uncommon"
            },
            "value": [
                "enchantment",
                "invested"
            ]
        },
        "usage": {
            "value": "worn"
        },
        "weight": {
            "value": "-"
        }
    },
    "effects": [],
    "flags": {},
    "img": "systems/pf2e/icons/equipment/worn-items/other-worn-items/merchants-guile.webp",
    "name": "Merchant's Guile",
    "permission": {
        "default": 0
    },
    "type": "equipment"
}
