{
    "_id": "QWiXrqhSCkvdHbsi",
    "data": {
        "baseItem": null,
        "brokenThreshold": {
            "value": 0
        },
        "bulkCapacity": {
            "value": ""
        },
        "collapsed": {
            "value": false
        },
        "containerId": {
            "value": ""
        },
        "description": {
            "chat": "",
            "unidentified": "",
            "value": "<p>This dried, gnarled hand is clenched in a fist, waiting for a creature to pick it up. When you pick up the monkey's paw, the hand opens, revealing three withered fingers. The monkey's paw grants you three wishes, curling one finger after every one. Once you pick up the monkey's paw, you cannot discard the hand until it returns to a clenched fist by casting its three wishes. Any attempts to discard the hand, even with the effects of a miracle or wish spell, are unsuccessful as the monkey's paw reappears among your possessions within 1d4 hours; it doesn't work for any other creature in the intervening time. The hand returns even if another creature steals it from you. Once you make all three wishes, the monkey's paw uses plane shift to travel to a random point in the multiverse.</p>\n<p>Whenever the monkey's paw hears you utter a statement that sounds like a wish, even if you don't use the words \"I wish,\" it activates and grants a twisted, horrifying version of your wish, producing any effect within the possibility of alter reality, miracle, primal phenomenon, or wish, and potentially a greater effect at the GM's discretion.</p>"
        },
        "equipped": {
            "value": false
        },
        "equippedBulk": {
            "value": ""
        },
        "hardness": {
            "value": 0
        },
        "hp": {
            "value": 0
        },
        "identification": {
            "misidentified": {},
            "status": "identified",
            "unidentified": {
                "data": {
                    "description": {
                        "value": ""
                    }
                },
                "img": "",
                "name": ""
            }
        },
        "invested": {
            "value": false
        },
        "level": {
            "value": "20"
        },
        "maxHp": {
            "value": 0
        },
        "negateBulk": {
            "value": ""
        },
        "preciousMaterial": {
            "value": ""
        },
        "preciousMaterialGrade": {
            "value": ""
        },
        "price": {
            "value": ""
        },
        "quantity": {
            "value": "1"
        },
        "rules": [],
        "size": {
            "value": "med"
        },
        "source": {
            "value": ""
        },
        "stackGroup": {
            "value": ""
        },
        "traits": {
            "custom": "",
            "rarity": {
                "value": "rare"
            },
            "usage": {
                "value": "held-in-one-hand"
            },
            "value": [
                "cursed",
                "magical",
                "misfortune",
                "necromancy"
            ]
        },
        "usage": {
            "value": "held-in-one-hand"
        },
        "weight": {
            "value": "L"
        }
    },
    "effects": [],
    "flags": {},
    "img": "systems/pf2e/icons/equipment/cursed-items/monkeys-paw.webp",
    "name": "Monkey's Paw",
    "permission": {
        "default": 0
    },
    "type": "equipment"
}
