{
    "_id": "GAu6v14pCSgLJh2D",
    "data": {
        "armor": {
            "value": 1
        },
        "armorType": {
            "value": "light"
        },
        "baseItem": "padded-armor",
        "brokenThreshold": {
            "value": null
        },
        "bulkCapacity": {
            "value": ""
        },
        "check": {
            "value": ""
        },
        "collapsed": {
            "value": false
        },
        "containerId": {
            "value": ""
        },
        "description": {
            "chat": "",
            "unidentified": "",
            "value": "<p>This +2 resilient padded armor is woven from many strands of gut cord strung with dried organs and preserved xulgath scent glands. When worn, it infuses your body with a ghastly and nauseating flavor.</p>\n<p><strong>Activate</strong> <span class=\"pf2-icon\">F</span> envision</p>\n<p><strong>Trigger</strong> You are grabbed or are hit by an unarmed attack</p>\n<p><strong>Effect</strong> Your attacker must attempt a DC 28 Fortitude saving throw. Creatures with a stench aura, such as otyughs and xulgaths, are immune to this effect.</p>\n<p><strong>Success</strong> The creature is unaffected and is immune to the effects of the noxious jerkin for 1 minute.<br /><strong>Failure</strong> The creature is sickened 1.<br /><strong>Critical Failure</strong> The creature is sickened 1 and is slowed 1 for 1 round.</p>"
        },
        "dex": {
            "value": "3"
        },
        "equipped": {
            "value": false
        },
        "equippedBulk": {
            "value": "L"
        },
        "group": {
            "value": ""
        },
        "hardness": {
            "value": null
        },
        "hp": {
            "value": null
        },
        "identification": {
            "misidentified": {},
            "status": "identified",
            "unidentified": {
                "data": {
                    "description": {
                        "value": ""
                    }
                },
                "img": "",
                "name": ""
            }
        },
        "invested": {
            "value": false
        },
        "level": {
            "value": 13
        },
        "maxHp": {
            "value": null
        },
        "negateBulk": {
            "value": "0"
        },
        "potency": {},
        "potencyRune": {
            "value": 2
        },
        "preciousMaterial": {
            "value": ""
        },
        "preciousMaterialGrade": {
            "value": ""
        },
        "price": {
            "value": "2,800 gp"
        },
        "propertyRune1": {
            "value": ""
        },
        "propertyRune2": {
            "value": ""
        },
        "propertyRune3": {
            "value": ""
        },
        "propertyRune4": {
            "value": ""
        },
        "quantity": {
            "value": 1
        },
        "resiliencyRune": {
            "value": "resilient"
        },
        "resilient": {},
        "rules": [],
        "size": {
            "value": "med"
        },
        "source": {
            "value": ""
        },
        "speed": {
            "value": ""
        },
        "stackGroup": {
            "value": ""
        },
        "strength": {
            "value": "10"
        },
        "traits": {
            "custom": "",
            "rarity": {
                "value": "rare"
            },
            "value": [
                "comfort",
                "evocation",
                "magical"
            ]
        },
        "usage": {
            "value": "wornarmor"
        },
        "weight": {
            "value": "1"
        }
    },
    "effects": [],
    "flags": {},
    "img": "systems/pf2e/icons/equipment/armor/specific-magic-armor/noxious-jerkin.webp",
    "name": "Noxious Jerkin",
    "permission": {
        "default": 0
    },
    "type": "armor"
}
