{
    "_id": "h2aVryWbNP24gC05",
    "data": {
        "baseItem": null,
        "brokenThreshold": {
            "value": 0
        },
        "bulkCapacity": {
            "value": ""
        },
        "collapsed": {
            "value": false
        },
        "containerId": {
            "value": ""
        },
        "description": {
            "chat": "",
            "unidentified": "",
            "value": "<p>By twisting and twirling this ordinary-looking leather ribbon, you can temporarily bend a rift in space.</p>\n<hr />\n<p><strong>Activate</strong> 1 minute (command, envision, Interact)</p>\n<p><strong>Effect</strong> The ribbon spins and swirls, creating a circular loop in the air through which you can spy on a creature on another plane.</p>\n<p>This has the effects of a @Compendium[pf2e.spells-srd.Scrying]{Scrying} spell (DC 40) against the creature but functions more as a mundane -albeit interplanar-window; a similar loop appears before the target, and for the duration, both sides can clearly see and hear each other through the created portal, but nothing can pass through.</p>\n<p>You can Sustain the Activation to gain the effects of Sustaining the Spell. This activation has the scrying trait.</p>\n<hr />\n<p><strong>Activate</strong> <span class=\"pf2-icon\">1</span> Interact</p>\n<p><strong>Frequency</strong> once per round</p>\n<p><strong>Effect</strong> You extend the ribbon to brush against a foe up to 60 feet away. If that creature fails a DC 42 Reflex save, you exchange positions with the target and all of that creature's allies are flat-footed to you until the end of your turn. This activation has the teleportation trait.</p>"
        },
        "equipped": {
            "value": false
        },
        "equippedBulk": {
            "value": ""
        },
        "hardness": {
            "value": 0
        },
        "hp": {
            "value": 0
        },
        "identification": {
            "misidentified": {},
            "status": "identified",
            "unidentified": {
                "data": {
                    "description": {
                        "value": ""
                    }
                },
                "img": "",
                "name": ""
            }
        },
        "invested": {
            "value": false
        },
        "level": {
            "value": "20"
        },
        "maxHp": {
            "value": 0
        },
        "negateBulk": {
            "value": "0"
        },
        "preciousMaterial": {
            "value": ""
        },
        "preciousMaterialGrade": {
            "value": ""
        },
        "price": {
            "value": "60,000 gp"
        },
        "quantity": {
            "value": "1"
        },
        "rules": [],
        "size": {
            "value": "med"
        },
        "source": {
            "value": ""
        },
        "stackGroup": {
            "value": ""
        },
        "traits": {
            "custom": "",
            "rarity": {
                "value": "unique"
            },
            "usage": {
                "value": "held-in-one-hand"
            },
            "value": [
                "conjuration",
                "occult"
            ]
        },
        "usage": {
            "value": "held-in-one-hand"
        },
        "weight": {
            "value": "L"
        }
    },
    "effects": [],
    "flags": {},
    "img": "systems/pf2e/icons/equipment/held-items/planar-ribbon.webp",
    "name": "Planar Ribbon",
    "permission": {
        "default": 0
    },
    "type": "equipment"
}
