{
    "_id": "WS78LUHzlpeONMRo",
    "data": {
        "MAP": {
            "value": ""
        },
        "ability": {
            "value": "str"
        },
        "baseItem": "staff",
        "bonus": {
            "value": 0
        },
        "bonusDamage": {
            "value": 0
        },
        "brokenThreshold": {
            "value": 0
        },
        "bulkCapacity": {
            "value": ""
        },
        "collapsed": {
            "value": false
        },
        "containerId": {
            "value": ""
        },
        "damage": {
            "damageType": "bludgeoning",
            "dice": 1,
            "die": "d4",
            "value": ""
        },
        "description": {
            "chat": "",
            "unidentified": "",
            "value": "<p><span>A band of pliant wood encircles the head of this slender mahogany staff. The Magaambya created the first <em>scrollstaves</em> millennia ago, and even the few <em>scrollstaves</em> found beyond the organization often incorporate Magaambyan iconography as an homage to their source.<br /></span></p>\n<p><span>A <em>scrollstaff</em> serves as a weapon just like an ordinary staff and can be improved via runes like any other staff. In addition, if you are capable of creating magical scrolls, you can inscribe a single scroll onto the staff's head for the same cost as normal for Crafting the scroll. If necessary, you can embed a required material focus into the staff as part of the same Craft activity. As long as you are holding the staff, you can cast the spell from the staff's head. Casting the written spell works just like casting from a scroll, but you can perform the necessary material component with the staff, even if you don't have a free hand. Once you cast the inscribed spell, any material focus remains embedded in the staff until removed as an Interact action.<br /></span></p>\n<p><span>The staff can hold only a single scroll at a time. If you inscribe a new scroll before casting the previous spell, you replace the existing spell and remove any previous material focus as part of the Craft activity to write the new scroll.</span></p>"
        },
        "equipped": {
            "value": false
        },
        "equippedBulk": {
            "value": ""
        },
        "group": {
            "value": "club"
        },
        "hands": {
            "value": ""
        },
        "hardness": {
            "value": 0
        },
        "hp": {
            "value": 0
        },
        "identification": {
            "misidentified": {},
            "status": "identified",
            "unidentified": {
                "data": {
                    "description": {
                        "value": ""
                    }
                },
                "img": "",
                "name": ""
            }
        },
        "invested": {
            "value": false
        },
        "level": {
            "value": 1
        },
        "maxHp": {
            "value": 0
        },
        "negateBulk": {
            "value": "0"
        },
        "potencyRune": {
            "value": 0
        },
        "preciousMaterial": {
            "value": ""
        },
        "preciousMaterialGrade": {
            "value": ""
        },
        "price": {
            "value": "12 gp"
        },
        "property1": {
            "critDamage": "",
            "critDamageType": "",
            "critDice": null,
            "critDie": "",
            "criticalConditionType": "",
            "criticalConditionValue": null,
            "damageType": "",
            "dice": null,
            "die": "",
            "strikeConditionType": "",
            "strikeConditionValue": null,
            "value": ""
        },
        "propertyRune1": {
            "value": ""
        },
        "propertyRune2": {
            "value": ""
        },
        "propertyRune3": {
            "value": ""
        },
        "propertyRune4": {
            "value": ""
        },
        "quantity": {
            "value": 1
        },
        "range": {
            "value": "melee"
        },
        "reload": {
            "value": ""
        },
        "rules": [],
        "size": {
            "value": "med"
        },
        "source": {
            "value": ""
        },
        "splashDamage": {
            "value": null
        },
        "stackGroup": {
            "value": ""
        },
        "strikingRune": {
            "value": ""
        },
        "traits": {
            "custom": "",
            "rarity": {
                "value": "uncommon"
            },
            "value": [
                "magical",
                "transmutation",
                "two-hand-d8"
            ]
        },
        "usage": {
            "value": "held-in-one-hand"
        },
        "weaponType": {
            "value": "simple"
        },
        "weight": {
            "value": "1"
        }
    },
    "effects": [],
    "flags": {},
    "img": "systems/pf2e/icons/equipment/weapons/specific-magic-weapons/scrollstaff.webp",
    "name": "Scrollstaff",
    "permission": {
        "default": 0
    },
    "type": "weapon"
}
