{
    "_id": "aneZJVb3sbpG2fN7",
    "data": {
        "baseItem": null,
        "brokenThreshold": {
            "value": 0
        },
        "bulkCapacity": {
            "value": ""
        },
        "collapsed": {
            "value": false
        },
        "containerId": {
            "value": ""
        },
        "description": {
            "chat": "",
            "unidentified": "",
            "value": "<p>These magically enhanced snowshoes are practically a necessity when traversing the gelid tundra and snow-drenched taiga of the Saga Lands.</p>\n<p>The snowshoes of the long trek allow their wearer to walk across ice and snow with the same surety as dry earth, ignoring the uneven ground and difficult terrain caused by ice and the difficult terrain caused by snow (reducing greater difficult terrain from ice or snow to ordinary difficult terrain).</p>\n<p>In addition, a character wearing snowshoes of the long trek gains a +5-foot status bonus to their Speed while moving across snow or ice and is never at risk of breaking through naturally-occurring loose or soft snow.</p>"
        },
        "equipped": {
            "value": false
        },
        "equippedBulk": {
            "value": ""
        },
        "hardness": {
            "value": 0
        },
        "hp": {
            "value": 0
        },
        "identification": {
            "misidentified": {},
            "status": "identified",
            "unidentified": {
                "data": {
                    "description": {
                        "value": ""
                    }
                },
                "img": "",
                "name": ""
            }
        },
        "invested": {
            "value": false
        },
        "level": {
            "value": "5"
        },
        "maxHp": {
            "value": 0
        },
        "negateBulk": {
            "value": "0"
        },
        "preciousMaterial": {
            "value": ""
        },
        "preciousMaterialGrade": {
            "value": ""
        },
        "price": {
            "value": "550 gp"
        },
        "quantity": {
            "value": "1"
        },
        "rules": [],
        "size": {
            "value": "med"
        },
        "source": {
            "value": ""
        },
        "stackGroup": {
            "value": ""
        },
        "traits": {
            "custom": "",
            "rarity": {
                "value": "uncommon"
            },
            "value": [
                "magical",
                "transmutation"
            ]
        },
        "usage": {
            "value": "wornshoes"
        },
        "weight": {
            "value": "-"
        }
    },
    "effects": [],
    "flags": {},
    "img": "systems/pf2e/icons/equipment/adventuring-gear/snowshoes.webp",
    "name": "Snowshoes of the Long Trek",
    "permission": {
        "default": 0
    },
    "type": "equipment"
}
