{
    "_id": "Za5Mnae009cDCwuN",
    "data": {
        "MAP": {
            "value": ""
        },
        "ability": {
            "value": "str"
        },
        "baseItem": "rapier",
        "bonus": {
            "value": 2
        },
        "bonusDamage": {
            "value": 0
        },
        "brokenThreshold": {
            "value": 0
        },
        "bulkCapacity": {
            "value": ""
        },
        "collapsed": {
            "value": false
        },
        "containerId": {
            "value": ""
        },
        "damage": {
            "damageType": "piercing",
            "dice": 1,
            "die": "d6",
            "value": ""
        },
        "description": {
            "chat": "",
            "unidentified": "",
            "value": "<p>This +2 greater striking shock rapier has a golden blade, and miniature electric arcs flash across its guard while it's wielded. When out of its sheath under an open sky, the blade causes storm clouds to gather slowly above.</p>\n<hr />\n<p><strong>Activate</strong> <span class=\"pf2-icon\">D</span> command, envision</p>\n<p><strong>Frequency</strong> once per day</p>\n<p><strong>Effect</strong> You cast a 6th-level @Compendium[pf2e.spells-srd.Lightning Bolt]{Lightning Bolt} (DC 33).</p>\n<hr />\n<p><strong>Activate</strong> <span class=\"pf2-icon\">R</span> command</p>\n<p><strong>Frequency</strong> once per 10 minutes</p>\n<p><strong>Trigger</strong> An electricity effect targets you or a creature within 10 feet of you, or has you or a creature within 10 feet of you in its area</p>\n<p><strong>Effect</strong> You try to divert the electricity off course, to be absorbed by <em>storm flash</em>. Choose one eligible creature to protect and roll a melee attack roll against the DC of the electricity effect. If you succeed, the chosen creature takes no electricity damage from the triggering effect.</p>"
        },
        "equipped": {
            "value": false
        },
        "equippedBulk": {
            "value": ""
        },
        "group": {
            "value": "sword"
        },
        "hands": {
            "value": ""
        },
        "hardness": {
            "value": 0
        },
        "hp": {
            "value": 0
        },
        "identification": {
            "misidentified": {},
            "status": "identified",
            "unidentified": {
                "data": {
                    "description": {
                        "value": ""
                    }
                },
                "img": "",
                "name": ""
            }
        },
        "invested": {
            "value": false
        },
        "level": {
            "value": 14
        },
        "maxHp": {
            "value": 0
        },
        "negateBulk": {
            "value": "0"
        },
        "potencyRune": {
            "value": 2
        },
        "preciousMaterial": {
            "value": ""
        },
        "preciousMaterialGrade": {
            "value": ""
        },
        "price": {
            "value": "4,000 gp"
        },
        "property1": {
            "critDamage": "",
            "critDamageType": "",
            "critDice": null,
            "critDie": "",
            "criticalConditionType": "",
            "criticalConditionValue": null,
            "damageType": "",
            "dice": null,
            "die": "",
            "strikeConditionType": "",
            "strikeConditionValue": null,
            "value": ""
        },
        "propertyRune1": {
            "value": "shock"
        },
        "propertyRune2": {
            "value": ""
        },
        "propertyRune3": {
            "value": ""
        },
        "propertyRune4": {
            "value": ""
        },
        "quantity": {
            "value": 1
        },
        "range": {
            "value": "melee"
        },
        "reload": {
            "value": ""
        },
        "rules": [],
        "size": {
            "value": "med"
        },
        "source": {
            "value": ""
        },
        "splashDamage": {
            "value": 0
        },
        "stackGroup": {
            "value": ""
        },
        "strikingRune": {
            "value": "greaterStriking"
        },
        "traits": {
            "custom": "",
            "rarity": {
                "value": "common"
            },
            "value": [
                "deadly-d8",
                "disarm",
                "electricity",
                "evocation",
                "finesse",
                "magical"
            ]
        },
        "usage": {
            "value": "held-in-one-hand"
        },
        "weaponType": {
            "value": "martial"
        },
        "weight": {
            "value": "1"
        }
    },
    "effects": [],
    "flags": {},
    "img": "systems/pf2e/icons/equipment/weapons/specific-magic-weapons/storm-flash.webp",
    "name": "Storm Flash",
    "permission": {
        "default": 0
    },
    "type": "weapon"
}
