{
    "_id": "CReWZjAd3szYQ6Mx",
    "data": {
        "activation": {
            "condition": "",
            "cost": 0,
            "type": ""
        },
        "autoDestroy": {
            "_deprecated": true,
            "value": true
        },
        "autoUse": {
            "_deprecated": true,
            "value": true
        },
        "baseItem": null,
        "brokenThreshold": {
            "value": 0
        },
        "bulkCapacity": {
            "value": ""
        },
        "charges": {
            "_deprecated": true,
            "max": "1",
            "value": "1"
        },
        "collapsed": {
            "value": false
        },
        "consumableType": {
            "value": "other"
        },
        "consume": {
            "_deprecated": true,
            "value": null
        },
        "containerId": {
            "value": ""
        },
        "description": {
            "chat": "",
            "unidentified": "",
            "value": "<p>Activate <span class=\"pf2-icon\">3</span> Interact</p>\n<hr />\n<p>This specialized cream serves as a repellent to stave off insects.</p>\n<p>The repellent also binds with a number of common insect venoms, dulling the potency and giving the wearer's immune system a boost to resist venoms.</p>\n<p>Once applied to your skin, the repellent grants you a +3 item bonus to Fortitude saving throws against poisons for 4 hours.</p>\n<p>@Compendium[pf2e.consumable-effects.Effect: Vermin Repellent Agent (Greater)]{Effect: Vermin Repellent Agent (Greater)}</p>\n<hr />\n<p>In addition, any arthropods (insects, spiders, scorpions, crabs, and similar invertebrate animals) must attempt a Will save (DC 29) when attempting to attack you with a melee Strike, or with a swarm attack such as the spider swarm's swarming bites. The arthropod then becomes temporarily immune for 1 minute.</p>\n<p><strong>Critical Success</strong> The creature can act normally.</p>\n<p><strong>Success</strong> The creature is @Compendium[pf2e.conditionitems.Frightened]{Frightened} 1.</p>\n<p><strong>Failure</strong> The creature is frightened 2.</p>\n<p><strong>Critical Failure</strong> The creature is frightened 2 and @Compendium[pf2e.conditionitems.Fleeing]{Fleeing}.</p>"
        },
        "duration": {
            "units": "",
            "value": null
        },
        "equipped": {
            "value": false
        },
        "equippedBulk": {
            "value": ""
        },
        "hardness": {
            "value": 0
        },
        "hp": {
            "value": 0
        },
        "identification": {
            "misidentified": {},
            "status": "identified",
            "unidentified": {
                "data": {
                    "description": {
                        "value": ""
                    }
                },
                "img": "",
                "name": ""
            }
        },
        "invested": {
            "value": false
        },
        "level": {
            "value": "12"
        },
        "maxHp": {
            "value": 0
        },
        "negateBulk": {
            "value": "0"
        },
        "preciousMaterial": {
            "value": ""
        },
        "preciousMaterialGrade": {
            "value": ""
        },
        "price": {
            "value": "315 gp"
        },
        "quantity": {
            "value": "1"
        },
        "range": {
            "long": null,
            "units": "",
            "value": null
        },
        "rules": [],
        "size": {
            "value": "med"
        },
        "source": {
            "value": ""
        },
        "spell": {
            "data": null,
            "heightenedLevel": null
        },
        "stackGroup": {
            "value": ""
        },
        "target": {
            "type": "",
            "units": "",
            "value": null
        },
        "traits": {
            "custom": "",
            "rarity": {
                "value": "uncommon"
            },
            "usage": {
                "value": "held-in-two-hands"
            },
            "value": [
                "alchemical",
                "consumable"
            ]
        },
        "usage": {
            "value": "held-in-one-hand"
        },
        "uses": {
            "autoDestroy": true,
            "autoUse": true,
            "max": 0,
            "per": null,
            "value": 0
        },
        "weight": {
            "value": "L"
        }
    },
    "effects": [],
    "flags": {},
    "img": "systems/pf2e/icons/equipment/alchemical-items/alchemical-tools/vermin-repellent-agent.webp",
    "name": "Vermin Repellent Agent (Greater)",
    "permission": {
        "default": 0
    },
    "type": "consumable"
}
