{
    "_id": "xZFbFeJckiQS7smT",
    "data": {
        "baseItem": null,
        "brokenThreshold": {
            "value": 0
        },
        "bulkCapacity": {
            "value": ""
        },
        "collapsed": {
            "value": false
        },
        "containerId": {
            "value": ""
        },
        "description": {
            "chat": "",
            "unidentified": "",
            "value": "<p>This alabaster wand has a clear crystal at the tip.</p>\n<p><strong>Activate</strong> Cast a spell;</p>\n<p><strong>Frequency</strong> Once per day, plus overcharge;</p>\n<p><strong>Effect</strong> You cast @Compendium[pf2e.spells-srd.Heal]{Heal} at 8th level.</p>\n<p>After you cast the spell, at the start of your next turn, excess healing magic wells up from the wand and heals you, as though you cast the 1-action version of heal on yourself at 3rd-level. You gain this benefit only once, even if you cast multiple heal spells from wands of overflowing life in the same turn.</p>\n<p><strong>Craft Requirements</strong> Supply a casting of heal at 8th-level.</p>"
        },
        "equipped": {
            "value": false
        },
        "equippedBulk": {
            "value": ""
        },
        "hardness": {
            "value": 0
        },
        "hp": {
            "value": 0
        },
        "identification": {
            "misidentified": {},
            "status": "identified",
            "unidentified": {
                "data": {
                    "description": {
                        "value": ""
                    }
                },
                "img": "",
                "name": ""
            }
        },
        "invested": {
            "value": false
        },
        "level": {
            "value": "19"
        },
        "maxHp": {
            "value": 0
        },
        "negateBulk": {
            "value": "0"
        },
        "preciousMaterial": {
            "value": ""
        },
        "preciousMaterialGrade": {
            "value": ""
        },
        "price": {
            "value": "40,000 gp"
        },
        "quantity": {
            "value": "1"
        },
        "rules": [],
        "size": {
            "value": "med"
        },
        "source": {
            "value": ""
        },
        "stackGroup": {
            "value": ""
        },
        "traits": {
            "custom": "",
            "rarity": {
                "value": "common"
            },
            "usage": {
                "value": "held-in-one-hand"
            },
            "value": [
                "healing",
                "magical",
                "necromancy",
                "positive",
                "wand"
            ]
        },
        "usage": {
            "value": "held-in-one-hand"
        },
        "weight": {
            "value": "L"
        }
    },
    "effects": [],
    "flags": {},
    "img": "systems/pf2e/icons/equipment/wands/specialty-wands/wand-of-overflowing-life.webp",
    "name": "Wand of Overflowing Life (8th-Level Spell)",
    "permission": {
        "default": 0
    },
    "type": "equipment"
}
