{
    "_id": "DKWuJb2rSgiotOG7",
    "data": {
        "baseItem": null,
        "brokenThreshold": {
            "value": 0
        },
        "bulkCapacity": {
            "value": ""
        },
        "collapsed": {
            "value": false
        },
        "containerId": {
            "value": ""
        },
        "description": {
            "chat": "",
            "unidentified": "",
            "value": "<p><span>Magical enhancements make this weapon strike true. Attack rolls with this weapon gain a +1 item bonus, and the weapon can be etched with one property rune.<br /></span></p>\n<p><span>You can upgrade the <em>weapon potency</em> rune already etched on a weapon to a stronger version, increasing the values of the existing rune to those of the new rune. You must have the formula of the stronger rune to do so, and the Price of the upgrade is the difference between the two runes' Prices.</span></p>\n<p><span><strong>Craft Requirements</strong> You are an expert in Crafting.</span></p>"
        },
        "equipped": {
            "value": false
        },
        "equippedBulk": {
            "value": ""
        },
        "hardness": {
            "value": 0
        },
        "hp": {
            "value": 0
        },
        "identification": {
            "misidentified": {},
            "status": "identified",
            "unidentified": {
                "data": {
                    "description": {
                        "value": ""
                    }
                },
                "img": "",
                "name": ""
            }
        },
        "invested": {
            "value": false
        },
        "level": {
            "value": "2"
        },
        "maxHp": {
            "value": 0
        },
        "negateBulk": {
            "value": "0"
        },
        "preciousMaterial": {
            "value": ""
        },
        "preciousMaterialGrade": {
            "value": ""
        },
        "price": {
            "value": "35 gp"
        },
        "quantity": {
            "value": "1"
        },
        "rules": [],
        "size": {
            "value": "med"
        },
        "source": {
            "value": ""
        },
        "stackGroup": {
            "value": ""
        },
        "traits": {
            "custom": "",
            "rarity": {
                "value": "common"
            },
            "usage": {
                "value": "etched-onto-a-weapon"
            },
            "value": [
                "evocation",
                "magical"
            ]
        },
        "usage": {
            "value": "held-in-one-hand"
        },
        "weight": {
            "value": "-"
        }
    },
    "effects": [],
    "flags": {},
    "img": "systems/pf2e/icons/equipment/runes/fundamental-weapon-runes/weapon-potency.webp",
    "name": "Weapon Potency (+1)",
    "permission": {
        "default": 0
    },
    "type": "equipment"
}
