{
    "_id": "AWvNPE4U0kEJSL1T",
    "data": {
        "actionCategory": {
            "value": "offensive"
        },
        "actionType": {
            "value": "passive"
        },
        "actions": {
            "value": ""
        },
        "description": {
            "chat": "",
            "unidentified": "",
            "value": "<p>When the monster Strikes a creature that has the @Compendium[pf2e.conditionitems.Flat-Footed]{Flat-Footed} condition with an agile or finesse melee weapon, an agile or finesse unarmed attack, or a ranged weapon attack, it also deals the listed precision damage. For a ranged attack with a thrown weapon, that weapon must also be an agile or finesse weapon.</p>"
        },
        "requirements": {
            "value": ""
        },
        "rules": [],
        "source": {
            "value": ""
        },
        "traits": {
            "custom": "",
            "rarity": {
                "value": "common"
            },
            "value": []
        },
        "trigger": {
            "value": ""
        },
        "weapon": {
            "value": ""
        }
    },
    "effects": [],
    "flags": {},
    "img": "systems/pf2e/icons/default-icons/action.svg",
    "name": "Sneak Attack",
    "permission": {
        "default": 0
    },
    "type": "action"
}
