{
    "_id": "EUYisYdY3fcGL8zp",
    "data": {
        "attributes": {
            "ac": {
                "value": 0
            },
            "hardness": 0,
            "hasHealth": true,
            "hp": {
                "details": "",
                "max": 10,
                "temp": 0,
                "tempmax": 0,
                "value": 10
            },
            "stealth": {
                "details": "(Legendary)",
                "value": 38
            }
        },
        "creatureType": "",
        "details": {
            "description": "A small-scale version of a dragonstorm-a churning vortex of wind infused with fire, acid, lightning, poison, and ice-fills Alseta's Ring.",
            "disable": "Religion DC 40 (legendary) to call out to a non-evil deity for direct intervention to disperse the lesser dragonstorm (prayers to Apsu allow characters who are masters in Religion to attempt the check as if they were legendary instead), Thievery DC 42 (legendary) to deactivate Vengegate while the manifestation is forcing it open, or a successful dispel magic (10th level; DC 40) to counteract the lesser dragonstorm.",
            "isComplex": true,
            "level": 20,
            "reset": "",
            "routine": "(1 action) On its initiative, the lesser dragonstorm reaches out and blasts all creatures within Alseta's Ring. Affected creatures take 10d8 damage (DC 46 basic Reflex save), evenly split between acid, cold, fire, electricity, and poison. Creatures that fail their save are pulled 20 feet toward the center of Alseta's Ring (or are knocked prone and pulled 30 feet on a critical failure). After 10 rounds, the lesser dragonstorm is destroyed, but a much greater dragonstorm manifests in the surrounding region-see The Dragonstorm on page 7."
        },
        "flavourText": "",
        "recallKnowledgeText": "",
        "saves": {
            "fortitude": {
                "rank": 0,
                "saveDetail": "",
                "value": null
            },
            "reflex": {
                "rank": 0,
                "saveDetail": "",
                "value": null
            },
            "will": {
                "rank": 0,
                "saveDetail": "",
                "value": null
            }
        },
        "schema": {
            "version": {
                "value": ""
            }
        },
        "sidebarText": "",
        "source": {
            "value": ""
        },
        "statusEffects": [],
        "traits": {
            "ci": [],
            "di": {
                "custom": "",
                "selected": {},
                "value": []
            },
            "dr": [],
            "dv": [],
            "rarity": {
                "value": "common"
            },
            "size": {
                "value": "med"
            },
            "traits": {
                "custom": "Rare",
                "value": [
                    "environmental",
                    "magical",
                    "custom"
                ]
            }
        }
    },
    "effects": [],
    "flags": {},
    "img": "systems/pf2e/icons/default-icons/hazard.svg",
    "items": [
        {
            "_id": "iTmWT27s6I0W1gVm",
            "data": {
                "actionCategory": {
                    "value": ""
                },
                "actionType": {
                    "value": "reaction"
                },
                "actions": {
                    "value": ""
                },
                "description": {
                    "chat": "",
                    "unidentified": "",
                    "value": "<p><strong>Trigger</strong>: A creature attempts to activate Vengegate;</p>\n<p><strong>Effect</strong>: The chamber within Alseta's Ring fills with a dragonstorm. Creatures within this area take [[/r 10d8]] damage, equally split between acid, cold, electricity, fire, and poison.</p>"
                },
                "requirements": {
                    "value": ""
                },
                "rules": [],
                "slug": null,
                "source": {
                    "value": ""
                },
                "traits": {
                    "custom": "",
                    "rarity": {
                        "value": "common"
                    },
                    "selected": {},
                    "value": []
                },
                "trigger": {
                    "value": ""
                },
                "usage": {
                    "value": "held-in-one-hand"
                },
                "weapon": {
                    "value": ""
                }
            },
            "effects": [],
            "flags": {},
            "img": "systems/pf2e/icons/actions/Reaction.webp",
            "name": "Manifest Lesser Dragonstorm",
            "sort": 100000,
            "type": "action"
        }
    ],
    "name": "Lesser Dragonstorm",
    "permission": {
        "default": 0
    },
    "token": {
        "actorId": "EUYisYdY3fcGL8zp",
        "actorLink": false,
        "bar1": {
            "attribute": "attributes.hp"
        },
        "bar2": {},
        "brightLight": 0,
        "brightSight": 0,
        "dimLight": 0,
        "dimSight": 0,
        "displayBars": 20,
        "displayName": 20,
        "disposition": 0,
        "flags": {},
        "height": 1,
        "img": "systems/pf2e/icons/default-icons/hazard.svg",
        "lightAlpha": 1,
        "lightAngle": 360,
        "lightAnimation": {
            "intensity": 5,
            "speed": 5
        },
        "lockRotation": false,
        "name": "Lesser Dragonstorm",
        "randomImg": false,
        "rotation": 0,
        "scale": 1,
        "sightAngle": 360,
        "tint": null,
        "vision": false,
        "width": 1
    },
    "type": "hazard"
}
