{
    "_id": "xpsD4DsYHKXCB4ac",
    "data": {
        "actionCategory": {
            "value": ""
        },
        "actionType": {
            "value": "action"
        },
        "actions": {
            "value": "1"
        },
        "description": {
            "value": "<p>You send your roots deeper into the ground, making it harder for you to stumble. Until you move, you gain a +2 circumstance bonus to your Fortitude or Reflex DC against attempts to Shove or Trip you (or a +4 circumstance bonus if you’re a root leshy). This bonus also applies to saving throws against spells or effects that attempt to move you or knock you prone.</p>\n<p>If an effect forces you to move, you move only half the normal distance, as some of the effort goes to tearing out the roots. At the GM’s discretion, this ability might not work on ground that’s more resilient than stone, such as metal flooring or magically-reinforced masonry.</p>"
        },
        "requirements": {
            "value": ""
        },
        "rules": [],
        "source": {
            "value": ""
        },
        "traits": {
            "custom": "",
            "rarity": {
                "value": "common"
            },
            "value": [
                "leshy"
            ]
        },
        "trigger": {
            "value": ""
        },
        "weapon": {
            "value": ""
        }
    },
    "effects": [],
    "flags": {},
    "img": "systems/pf2e/icons/actions/OneAction.webp",
    "name": "Anchor",
    "permission": {
        "default": 0
    },
    "type": "action"
}
