{
    "_id": "IX1VlVCL5sFTptEE",
    "data": {
        "actionCategory": {
            "value": ""
        },
        "actionType": {
            "value": "reaction"
        },
        "actions": {
            "value": ""
        },
        "description": {
            "chat": "",
            "unidentified": "",
            "value": "<p><strong>Trigger</strong> An enemy damages, @Compendium[pf2e.conditionitems.Grabbed]{Grabs}, or @Compendium[pf2e.actionspf2e.Grapple]{Grapples} your ally, and both are within 15 feet of you</p>\n<hr />\n<p>You free an ally from restraint.</p>\n<p>If the trigger was an ally taking damage, the ally gains resistance to all damage against the triggering damage equal to 2 + your level.</p>\n<p>The ally can attempt to break free of effects grabbing, restraining, @Compendium[pf2e.conditionitems.Immobilized]{Immobilizing}, or @Compendium[pf2e.conditionitems.Paralyzed]{Paralyzing} them. They either attempt a new save against one such effect that allows a save, or attempt to @Compendium[pf2e.actionspf2e.Escape]{Escape} from one effect as a free action.</p>\n<p>If they can move, the ally can Step as a free action, even if they didn't need to escape.</p>"
        },
        "requirements": {
            "value": ""
        },
        "rules": [],
        "source": {
            "value": ""
        },
        "traits": {
            "custom": "",
            "rarity": {
                "value": "common"
            },
            "value": [
                "champion"
            ]
        },
        "trigger": {
            "value": ""
        },
        "weapon": {
            "value": ""
        }
    },
    "effects": [],
    "flags": {},
    "img": "systems/pf2e/icons/actions/Reaction.webp",
    "name": "Liberating Step",
    "permission": {
        "default": 0
    },
    "type": "action"
}
