{
    "_id": "I9k9qe4gOT8UVK4e",
    "data": {
        "actionCategory": {
            "value": ""
        },
        "actionType": {
            "value": "reaction"
        },
        "actions": {
            "value": ""
        },
        "description": {
            "value": "<p><strong>Trigger</strong> A creature attempts a flat check to target you because you’re @Compendium[pf2e.conditionitems.Concealed]{Concealed} or @Compendium[pf2e.conditionitems.Hidden]{Hidden} due to fog, haze, mist, or smoke;</p>\n<hr />\n<p><strong>Effect</strong> You shroud yourself in mist, making it harder for your foe to hit you. If you’re concealed, the DC of the flat check increases from 5 to 7; if you’re hidden, it increases from 11 to 13.</p>"
        },
        "requirements": {
            "value": ""
        },
        "rules": [],
        "source": {
            "value": ""
        },
        "traits": {
            "custom": "",
            "rarity": {
                "value": "common"
            },
            "value": [
                "undine"
            ]
        },
        "trigger": {
            "value": ""
        },
        "weapon": {
            "value": ""
        }
    },
    "effects": [],
    "flags": {},
    "img": "systems/pf2e/icons/actions/Reaction.webp",
    "name": "Mist Blending",
    "permission": {
        "default": 0
    },
    "type": "action"
}
