{
    "_id": "enQieRrITuEQZxx2",
    "data": {
        "actionCategory": {
            "value": ""
        },
        "actionType": {
            "value": "reaction"
        },
        "actions": {
            "value": ""
        },
        "description": {
            "chat": "",
            "unidentified": "",
            "value": "<p><strong>Trigger</strong> An enemy within 15 feet damages you</p>\n<hr />\n<p>Your self-interest keeps you safe. You gain resistance against the triggering damage equal to 2 + half your level, regardless of damage type.</p>\n<p>In addition, your @Compendium[pf2e.actionspf2e.Strike]{Strikes} against the triggering creature deal <a class=\"inline-roll roll\" title=\"1\" data-mode=\"roll\" data-flavor=\"\" data-formula=\"1\"> 1</a> extra damage until the end of your next turn. You choose whether this extra damage is evil or negative each time you use this reaction. This extra damage increases to <a class=\"inline-roll roll\" title=\"2\" data-mode=\"roll\" data-flavor=\"\" data-formula=\"2\"> 2</a> at 9th level and <a class=\"inline-roll roll\" title=\"3\" data-mode=\"roll\" data-flavor=\"\" data-formula=\"3\"> 3</a> at 16th level.</p>"
        },
        "requirements": {
            "value": ""
        },
        "rules": [],
        "source": {
            "value": ""
        },
        "traits": {
            "custom": "",
            "rarity": {
                "value": "common"
            },
            "value": [
                "champion"
            ]
        },
        "trigger": {
            "value": ""
        },
        "weapon": {
            "value": ""
        }
    },
    "effects": [],
    "flags": {},
    "img": "systems/pf2e/icons/actions/Reaction.webp",
    "name": "Selfish Shield",
    "permission": {
        "default": 0
    },
    "type": "action"
}
