{
    "_id": "NE7Fm5YnUhD4ySX3",
    "data": {
        "description": {
            "chat": "",
            "unidentified": "",
            "value": "<p>Granted by @Compendium[pf2e.equipment-srd.Earplugs]{Earplugs}</p>\n<hr />\n<p>Automatically applied effects:</p>\n<ul>\n<li>+1 item bonus to saves against effects with the auditory trait</li>\n<li>-2 item penalty to Perception checks involving sound</li>\n</ul>"
        },
        "duration": {
            "expiry": "turn-start",
            "sustained": false,
            "unit": "unlimited",
            "value": -1
        },
        "level": {
            "value": 0
        },
        "rules": [
            {
                "key": "PF2E.RuleElement.FlatModifier",
                "label": "Earplugs (vs. auditory)",
                "predicate": {
                    "all": [
                        "auditory"
                    ]
                },
                "selector": "saving-throw",
                "type": "item",
                "value": 1
            },
            {
                "key": "PF2E.RuleElement.FlatModifier",
                "label": "Earplugs (hearing)",
                "predicate": {
                    "all": [
                        "hearing"
                    ]
                },
                "selector": "perception",
                "type": "item",
                "value": -2
            },
            {
                "key": "PF2E.RuleElement.TokenEffectIcon"
            }
        ],
        "source": {
            "value": ""
        },
        "start": {
            "initiative": null,
            "value": 0
        },
        "traits": {
            "custom": "",
            "rarity": {
                "value": "common"
            },
            "value": []
        }
    },
    "effects": [],
    "flags": {},
    "img": "systems/pf2e/icons/equipment/adventuring-gear/earplugs.webp",
    "name": "Effect: Earplugs",
    "permission": {
        "default": 0
    },
    "type": "effect"
}
