{
    "_id": "0Xrkk46IM43iI1Fv",
    "data": {
        "description": {
            "chat": "",
            "unidentified": "",
            "value": "<p>It gains darkvision.</p>"
        },
        "level": {
            "value": 1
        },
        "rules": [
            {
                "key": "PF2E.RuleElement.Sense",
                "label": "PF2E.SensesDarkvision",
                "selector": "darkvision"
            }
        ],
        "source": {
            "value": ""
        },
        "traits": {
            "custom": "",
            "rarity": {
                "value": "common"
            },
            "value": []
        }
    },
    "effects": [],
    "flags": {},
    "img": "systems/pf2e/icons/default-icons/mystery-man.svg",
    "name": "Darkvision",
    "permission": {
        "default": 0
    },
    "type": "effect"
}
