{
    "_id": "8Z1UkLEWkFWIjOF8",
    "data": {
        "description": {
            "chat": "",
            "unidentified": "",
            "value": "<p>Your homunculus familiar has a reservoir for poison, allowing it to apply an injury poison to an adjacent ally's exposed weapon with a single Interact action. You must supply the poison and instill it into this reservoir using two consecutive Interact actions. You must have a homunculus familiar to select this ability.</p>"
        },
        "level": {
            "value": 1
        },
        "rules": [],
        "source": {
            "value": ""
        },
        "traits": {
            "custom": "",
            "rarity": {
                "value": "common"
            },
            "value": []
        }
    },
    "effects": [],
    "flags": {},
    "img": "systems/pf2e/icons/default-icons/mystery-man.svg",
    "name": "Poison Reservoir",
    "permission": {
        "default": 0
    },
    "type": "effect"
}
