{
    "_id": "TkRuKKYyPHTGPfgf",
    "data": {
        "description": {
            "chat": "",
            "unidentified": "",
            "value": "<p>Granted by @Compendium[pf2e.equipment-srd.Sixfingers Elixir (Greater)]{Sixfingers Elixir (Greater)}</p>\n<hr />\n<p>Auomatically applied effects:</p>\n<ul>\n<li>gain a Climb speed of 20 feet</li>\n</ul>"
        },
        "duration": {
            "expiry": "turn-start",
            "sustained": false,
            "unit": "hours",
            "value": 8
        },
        "level": {
            "value": 17
        },
        "rules": [
            {
                "key": "PF2E.RuleElement.BaseSpeed",
                "selector": "climb",
                "value": 20
            },
            {
                "key": "PF2E.RuleElement.TokenEffectIcon"
            }
        ],
        "source": {
            "value": ""
        },
        "start": {
            "initiative": null,
            "value": 0
        },
        "traits": {
            "custom": "",
            "rarity": {
                "value": "common"
            },
            "value": []
        }
    },
    "effects": [],
    "flags": {},
    "img": "systems/pf2e/icons/equipment/alchemical-items/alchemical-elixirs/sixfingers-elixir.webp",
    "name": "Effect: Sixfingers Elixir (Greater)",
    "permission": {
        "default": 0
    },
    "type": "effect"
}
