{
    "_id": "xtXWw3cUnVB25XSV",
    "data": {
        "actionCategory": {
            "value": ""
        },
        "actionType": {
            "value": "action"
        },
        "actions": {
            "value": "1"
        },
        "description": {
            "chat": "",
            "unidentified": "",
            "value": "<p><strong>Frequency</strong> once per round</p>\n<hr />\n<p>You bring a weapon into metaphysical concordance with your deity's beliefs. When you select this feat, choose chaotic, evil, good, or lawful. Your choice must match one of your deity's alignment components. This action has the trait corresponding to the chosen alignment component.</p>\n<p>When you use this action, you touch a weapon. For 1 round, that weapon deals an additional 1d6 damage of the chosen type to creatures of the opposed alignment. For example, if you chose good, the weapon would deal an extra 1d6 good damage to evil creatures. If you Align an Armament again, any previously aligned armament loses its additional damage.</p>\n<p>@Compendium[pf2e.feat-effects.Effect: Align Armament (Chaotic)]{Effect: Align Armament (Chaotic)}</p>\n<p>@Compendium[pf2e.feat-effects.Effect: Align Armament (Evil)]{Effect: Align Armament (Evil)}</p>\n<p>@Compendium[pf2e.feat-effects.Effect: Align Armament (Good)]{Effect: Align Armament (Good)}</p>\n<p>@Compendium[pf2e.feat-effects.Effect: Align Armament (Lawful)]{Effect: Align Armament (Lawful)}</p>\n<hr />\n<p><strong>Special</strong> You can select this feat a second time, choosing your deity's other alignment component. When you Align an Armament, you can choose either alignment component.</p>"
        },
        "featType": {
            "value": "class"
        },
        "level": {
            "value": 8
        },
        "location": "",
        "prerequisites": {
            "value": [
                {
                    "value": "chaotic, evil, good, or lawful deity"
                }
            ]
        },
        "rules": [],
        "source": {
            "value": ""
        },
        "traits": {
            "custom": "",
            "rarity": {
                "value": "common"
            },
            "value": [
                "cleric",
                "divine",
                "evocation"
            ]
        }
    },
    "effects": [],
    "flags": {},
    "img": "systems/pf2e/icons/features/feats/feats.webp",
    "name": "Align Armament",
    "permission": {
        "default": 0
    },
    "type": "feat"
}
