{
    "_id": "3PHHiZjX16Dwyt65",
    "data": {
        "actionCategory": {
            "value": ""
        },
        "actionType": {
            "value": "action"
        },
        "actions": {
            "value": "1"
        },
        "description": {
            "chat": "",
            "unidentified": "",
            "value": "<p><strong>Requirements</strong> You must have identified a creature with <br />@Compendium[pf2e.actionspf2e.Recall Knowledge (Lore)]{Recall Knowledge}.</p>\n<hr />\n<p>Your knowledge of a creature's physiology and understanding of tactics helps you attack with pinpoint accuracy. You carefully study a creature that you've identified to scope out particularly weak points in its positioning or physical form.</p>\n<p>The next time you deal sneak attack damage to the chosen creature with a @Compendium[pf2e.actionspf2e.Strike]{Strike} before the end of your turn, add an additional 2d6 precision damage.</p>\n<p>At 11th and 17th levels, if your additional damage from sneak attack increases, increase the additional damage from Analyze Weakness to 3d6 at 11th level and 4d6 at 17th level.</p>"
        },
        "featType": {
            "value": "class"
        },
        "level": {
            "value": "6"
        },
        "prerequisites": {
            "value": [
                {
                    "value": "sneak attack 2d6"
                }
            ]
        },
        "rules": [],
        "source": {
            "value": ""
        },
        "traits": {
            "custom": "",
            "rarity": {
                "value": "common"
            },
            "value": [
                "rogue"
            ]
        }
    },
    "effects": [],
    "flags": {},
    "img": "systems/pf2e/icons/features/feats/feats.webp",
    "name": "Analyze Weakness",
    "permission": {
        "default": 0
    },
    "type": "feat"
}
