{
    "_id": "ngNzsvIpnj1iLfSC",
    "data": {
        "actionCategory": {
            "value": ""
        },
        "actionType": {
            "value": "passive"
        },
        "actions": {
            "value": ""
        },
        "description": {
            "chat": "",
            "unidentified": "",
            "value": "<p>The magic in your blood is unpredictable. When you make your daily preparations, roll [[/r 1d12]] twice and consult the following list:</p>\n<ol>\n<li>@Compendium[pf2e.spells-srd.Acid Arrow]{Acid Arrow};</li>\n<li>@Compendium[pf2e.spells-srd.Blur]{Blur};</li>\n<li>@Compendium[pf2e.spells-srd.Hideous Laughter]{Hideous Laughter};</li>\n<li>@Compendium[pf2e.spells-srd.Humanoid Form]{Humanoid Form};</li>\n<li>@Compendium[pf2e.spells-srd.Illusory Object]{Illusory Object};</li>\n<li>@Compendium[pf2e.spells-srd.Mirror Image]{Mirror Image};</li>\n<li>@Compendium[pf2e.spells-srd.Resist Energy]{Resist Energy};</li>\n<li>@Compendium[pf2e.spells-srd.See Invisibility]{See Invisibility};</li>\n<li>@Compendium[pf2e.spells-srd.Shatter]{Shatter};</li>\n<li>@Compendium[pf2e.spells-srd.Sound Burst]{Sound Burst};</li>\n<li>@Compendium[pf2e.spells-srd.Spider Climb]{Spider Climb};</li>\n<li>@Compendium[pf2e.spells-srd.Telekinetic Maneuver]{Telekinetic Maneuver}.</li>\n</ol>\n<p>You can cast each of those two spells once during the following day (or one spell twice if you rolled doubles) as 2nd-level divine innate spells.</p>"
        },
        "featType": {
            "value": "ancestry"
        },
        "level": {
            "value": 9
        },
        "location": "",
        "prerequisites": {
            "value": []
        },
        "rules": [],
        "source": {
            "value": ""
        },
        "traits": {
            "custom": "",
            "rarity": {
                "value": "common"
            },
            "value": [
                "ganzi"
            ]
        },
        "usage": {
            "value": ""
        }
    },
    "effects": [],
    "flags": {},
    "img": "systems/pf2e/icons/features/feats/feats.webp",
    "name": "Anarchic Arcana",
    "permission": {
        "default": 0
    },
    "type": "feat"
}
