{
    "_id": "avCmIwmwJH7d7gri",
    "data": {
        "actionCategory": {
            "value": ""
        },
        "actionType": {
            "value": "passive"
        },
        "actions": {
            "value": ""
        },
        "description": {
            "chat": "",
            "unidentified": "",
            "value": "<p>The magic of your bloodline mixes with that of your ancestry. You gain your blood magic effect when you cast a non-cantrip spell you gained from a heritage or an ancestry feat, in addition to the normal circumstances that trigger your blood magic.</p>"
        },
        "featType": {
            "value": "class"
        },
        "level": {
            "value": "1"
        },
        "prerequisites": {
            "value": []
        },
        "rules": [],
        "source": {
            "value": ""
        },
        "traits": {
            "custom": "",
            "rarity": {
                "value": "common"
            },
            "value": [
                "sorcerer"
            ]
        }
    },
    "effects": [],
    "flags": {},
    "img": "systems/pf2e/icons/features/feats/feats.webp",
    "name": "Ancestral Blood Magic",
    "permission": {
        "default": 0
    },
    "type": "feat"
}
