{
    "_id": "ZPclfDmiHzEqblry",
    "data": {
        "actionCategory": {
            "value": ""
        },
        "actionType": {
            "value": "passive"
        },
        "actions": {
            "value": ""
        },
        "description": {
            "chat": "",
            "unidentified": "",
            "value": "<p>Your proficiency in unarmored defense increases to expert.</p>\n<p>While you are raging and unarmored, your skin transforms into a thick hide. You gain a +2 item bonus to AC (+3 if you have the greater juggernaut class feature). The thickness of your hide gives you a Dexterity modifier cap to your AC of +3. This item bonus to AC is cumulative with armor potency runes on your explorer's clothing, mage armor, and bracers of armor.</p>"
        },
        "featType": {
            "value": "class"
        },
        "level": {
            "value": 6
        },
        "location": "",
        "prerequisites": {
            "value": [
                {
                    "value": "Animal Instinct"
                }
            ]
        },
        "rules": [
            {
                "key": "PF2E.RuleElement.DexterityModifierCap",
                "label": "Animal Skin",
                "value": 3
            },
            {
                "key": "PF2E.RuleElement.FlatModifier",
                "label": "Animal Skin",
                "predicate": {
                    "all": [
                        "rage"
                    ]
                },
                "roll-options": [
                    "ac",
                    "all"
                ],
                "selector": "ac",
                "type": "item",
                "value": {
                    "brackets": [
                        {
                            "end": 12,
                            "value": 1
                        },
                        {
                            "start": 13,
                            "value": 2
                        }
                    ]
                }
            },
            {
                "key": "PF2E.RuleElement.SetProperty",
                "on": {
                    "added": true,
                    "removed": false
                },
                "property": "flags.pf2e.rollOptions.all.animal-skin",
                "retain": true
            }
        ],
        "source": {
            "value": ""
        },
        "traits": {
            "custom": "",
            "rarity": {
                "value": "common"
            },
            "value": [
                "barbarian",
                "morph",
                "primal",
                "transmutation"
            ]
        }
    },
    "effects": [],
    "flags": {},
    "img": "systems/pf2e/icons/features/feats/feats.webp",
    "name": "Animal Skin",
    "permission": {
        "default": 0
    },
    "type": "feat"
}
