{
    "_id": "7QLLwcSKNGPWdOGG",
    "data": {
        "actionCategory": {
            "value": ""
        },
        "actionType": {
            "value": "action"
        },
        "actions": {
            "value": "2"
        },
        "description": {
            "chat": "",
            "unidentified": "",
            "value": "<p>You have learned from the brute destructive power of xulgaths and their kind. You make a melee Strike that ignores any resistances the target has. If you target a solid unattended object or surface with your Strike, you might automatically destroy it without an attack roll. If you target any object or surface with Hardness 20 or less that isn't a magic item or the effect of a spell, you destroy it. If the target object or surface is a magic item or the effect of a spell, you attempt to counteract it using your attack bonus with the Strike for the counteract check. On a successful counteract check, you destroy the object or surface unless it has Hardness greater than 20, is an artifact, or is similarly difficult to destroy. You destroy up to a 5-foot cube of an object or surface larger than Medium.</p>"
        },
        "featType": {
            "value": "class"
        },
        "level": {
            "value": "20"
        },
        "prerequisites": {
            "value": []
        },
        "rules": [],
        "source": {
            "value": ""
        },
        "traits": {
            "custom": "",
            "rarity": {
                "value": "uncommon"
            },
            "selected": {
                "barbarian": "Barbarian"
            },
            "value": [
                "barbarian"
            ]
        }
    },
    "effects": [],
    "flags": {},
    "img": "systems/pf2e/icons/features/feats/feats.webp",
    "name": "Annihilating Swing",
    "permission": {
        "default": 0
    },
    "type": "feat"
}
