{
    "_id": "OmjTt8eR1Q3SmkPp",
    "data": {
        "actionCategory": {
            "value": ""
        },
        "actionType": {
            "value": "passive"
        },
        "actions": {
            "value": ""
        },
        "description": {
            "chat": "",
            "unidentified": "",
            "value": "<p>You've slept many nights in your armor and gotten used to it. You can sleep in armor overnight without being fatigued the next day. If you were already fatigued before sleeping, the armor doesn't prevent you from recovering from being fatigued.</p>"
        },
        "featType": {
            "value": "archetype"
        },
        "level": {
            "value": 10
        },
        "prerequisites": {
            "value": [
                {
                    "value": "Swordmaster Dedication"
                },
                {
                    "value": "trained in light, medium, or heavy armor"
                }
            ]
        },
        "rules": [],
        "source": {
            "value": ""
        },
        "traits": {
            "custom": "",
            "rarity": {
                "value": "common"
            },
            "value": [
                "archetype"
            ]
        }
    },
    "effects": [],
    "flags": {},
    "img": "systems/pf2e/icons/features/feats/feats.webp",
    "name": "Armored Rest",
    "permission": {
        "default": 0
    },
    "type": "feat"
}
