{
    "_id": "iBmqKjsq4iTtoqvl",
    "data": {
        "actionCategory": {
            "value": ""
        },
        "actionType": {
            "value": "passive"
        },
        "actions": {
            "value": ""
        },
        "description": {
            "chat": "",
            "unidentified": "",
            "value": "<p>You've trained to assassinate your foes, and you do so with tenacity and precision. You gain the @Compendium[pf2e.actionspf2e.Mark for Death]{Mark for Death} activity.</p>\n<p><strong>Special</strong> You can't select another dedication feat until you've gained two other feats from the assassin archetype.</p>"
        },
        "featType": {
            "value": "archetype"
        },
        "level": {
            "value": 2
        },
        "prerequisites": {
            "value": [
                {
                    "value": "Alchemical Crafting"
                },
                {
                    "value": "trained in Crafting"
                },
                {
                    "value": "trained in Deception"
                },
                {
                    "value": "trained in Stealth"
                }
            ]
        },
        "rules": [],
        "source": {
            "value": ""
        },
        "traits": {
            "custom": "",
            "rarity": {
                "value": "common"
            },
            "value": [
                "archetype",
                "dedication"
            ]
        }
    },
    "effects": [],
    "flags": {},
    "img": "systems/pf2e/icons/features/feats/feats.webp",
    "name": "Assassin Dedication",
    "permission": {
        "default": 0
    },
    "type": "feat"
}
