{
    "_id": "Wwr8VilSybQgVtin",
    "data": {
        "actionCategory": {
            "value": ""
        },
        "actionType": {
            "value": "passive"
        },
        "actions": {
            "value": ""
        },
        "description": {
            "chat": "",
            "unidentified": "",
            "value": "<p>Surviving in hostile terrain has given you a great talent for mobility. Whenever you roll a success on an Athletics check to @Compendium[pf2e.actionspf2e.Climb]{Climb} or @Compendium[pf2e.actionspf2e.Swim]{Swim}, you get a critical success instead.</p>"
        },
        "featType": {
            "value": "ancestry"
        },
        "level": {
            "value": "5"
        },
        "prerequisites": {
            "value": []
        },
        "rules": [],
        "source": {
            "value": ""
        },
        "traits": {
            "custom": "",
            "rarity": {
                "value": "common"
            },
            "value": [
                "orc"
            ]
        }
    },
    "effects": [],
    "flags": {},
    "img": "systems/pf2e/icons/features/feats/feats.webp",
    "name": "Athletic Might",
    "permission": {
        "default": 0
    },
    "type": "feat"
}
