{
    "_id": "pt4oMtjAVGFQHtVw",
    "data": {
        "actionCategory": {
            "value": ""
        },
        "actionType": {
            "value": "passive"
        },
        "actions": {
            "value": ""
        },
        "description": {
            "chat": "",
            "unidentified": "",
            "value": "<p>You’ve adopted the calming presence of catrinas, the festive dead; you might have even danced with a catrina yourself! So long as you are visibly carrying fresh flowers or colorful ribbons somewhere on your person, you can cast @Compendium[pf2e.spells-srd.Calm Emotions]{Calm Emotions} twice per day as a 2nd-level divine innate spell.</p>"
        },
        "featType": {
            "value": "ancestry"
        },
        "level": {
            "value": 9
        },
        "location": "",
        "prerequisites": {
            "value": []
        },
        "rules": [],
        "source": {
            "value": ""
        },
        "traits": {
            "custom": "",
            "rarity": {
                "value": "common"
            },
            "value": [
                "duskwalker"
            ]
        },
        "usage": {
            "value": ""
        }
    },
    "effects": [],
    "flags": {},
    "img": "systems/pf2e/icons/features/feats/feats.webp",
    "name": "Catrina's Presence",
    "permission": {
        "default": 0
    },
    "type": "feat"
}
