{
    "_id": "Ot1jI91ccnB2ayfk",
    "data": {
        "actionCategory": {
            "value": ""
        },
        "actionType": {
            "value": "passive"
        },
        "actions": {
            "value": ""
        },
        "description": {
            "chat": "",
            "unidentified": "",
            "value": "<p>Your connection to good arms all your attacks against forces of evil. All your weapon and unarmed @Compendium[pf2e.actionspf2e.Strike]{Strikes} deal [[/r 1 #good]] additional good damage and have the good and magical traits.</p>"
        },
        "featType": {
            "value": "ancestry"
        },
        "level": {
            "value": "13"
        },
        "prerequisites": {
            "value": []
        },
        "rules": [],
        "source": {
            "value": ""
        },
        "traits": {
            "custom": "",
            "rarity": {
                "value": "common"
            },
            "value": [
                "aasimar"
            ]
        }
    },
    "effects": [],
    "flags": {},
    "img": "systems/pf2e/icons/features/feats/feats.webp",
    "name": "Celestial Strikes",
    "permission": {
        "default": 0
    },
    "type": "feat"
}
