{
    "_id": "7KT4huf0iPaBGD7R",
    "data": {
        "actionCategory": {
            "value": ""
        },
        "actionType": {
            "value": "passive"
        },
        "actions": {
            "value": ""
        },
        "description": {
            "chat": "",
            "unidentified": "",
            "value": "<p>You combine a series of attacks with a powerful finishing blow. Your finishers' Strikes have a lower multiple attack penalty: -4 (or -3 with an agile weapon) if it's the second attack on your turn, or -8 (or -6 with an agile weapon) if it's the third or subsequent attack on your turn, instead of -5 and -10, respectively.</p>"
        },
        "featType": {
            "value": "class"
        },
        "level": {
            "value": "6"
        },
        "prerequisites": {
            "value": []
        },
        "rules": [],
        "source": {
            "value": ""
        },
        "traits": {
            "custom": "",
            "rarity": {
                "value": "common"
            },
            "value": [
                "swashbuckler"
            ]
        }
    },
    "effects": [],
    "flags": {},
    "img": "systems/pf2e/icons/features/feats/feats.webp",
    "name": "Combination Finisher",
    "permission": {
        "default": 0
    },
    "type": "feat"
}
