{
    "_id": "TORYSZMLMAGgsSEW",
    "data": {
        "actionCategory": {
            "value": ""
        },
        "actionType": {
            "value": "passive"
        },
        "actions": {
            "value": ""
        },
        "description": {
            "chat": "",
            "unidentified": "",
            "value": "<p>You can urge your companion to do its utmost. You can spend 2 actions to @Compendium[pf2e.actionspf2e.Command an Animal]{Command an Animal} instead of 1 when commanding your animal companion. If you do, your animal companion uses an additional action.</p>"
        },
        "featType": {
            "value": "class"
        },
        "level": {
            "value": 4
        },
        "location": "",
        "prerequisites": {
            "value": [
                {
                    "value": "an animal companion"
                }
            ]
        },
        "rules": [],
        "source": {
            "value": ""
        },
        "traits": {
            "custom": "",
            "rarity": {
                "value": "common"
            },
            "value": [
                "ranger"
            ]
        }
    },
    "effects": [],
    "flags": {},
    "img": "systems/pf2e/icons/features/feats/feats.webp",
    "name": "Companion's Cry",
    "permission": {
        "default": 0
    },
    "type": "feat"
}
