{
    "_id": "6DkylvU5RF1O6DTT",
    "data": {
        "actionCategory": {
            "value": ""
        },
        "actionType": {
            "value": "passive"
        },
        "actions": {
            "value": ""
        },
        "description": {
            "chat": "",
            "unidentified": "",
            "value": "<p>If you critically succeed at your Daring Act, you can enter the target's space and remain there until the beginning of your next turn or until the target moves, whichever comes first. You gain a +2 circumstance bonus to AC, and your target is @Compendium[pf2e.conditionitems.Flat-Footed]{Flat-Footed} against your attacks while you are sharing its space in this way. If any creature other than your target hits you with an attack roll while you are sharing your target's space, attempt a DC 15 flat check. On a success, resolve the attack against the target instead of you, using the same attack roll result that hit you.</p>"
        },
        "featType": {
            "value": "class"
        },
        "level": {
            "value": "12"
        },
        "prerequisites": {
            "value": [
                {
                    "value": "Daring Act"
                }
            ]
        },
        "rules": [],
        "source": {
            "value": ""
        },
        "traits": {
            "custom": "",
            "rarity": {
                "value": "common"
            },
            "value": [
                "archetype"
            ]
        }
    },
    "effects": [],
    "flags": {},
    "img": "systems/pf2e/icons/features/feats/feats.webp",
    "name": "Daredevil's Gambit",
    "permission": {
        "default": 0
    },
    "type": "feat"
}
