{
    "_id": "Ar6W97iun6yYI8Df",
    "data": {
        "actionCategory": {
            "value": ""
        },
        "actionType": {
            "value": "reaction"
        },
        "actions": {
            "value": ""
        },
        "description": {
            "chat": "",
            "unidentified": "",
            "value": "<p><strong>Trigger</strong> A trap within your reach is triggered.<br /></p>\n<hr />\n<div>You can jam the workings of a trap to delay its effects. Attempt a Thievery check to Disable a Device on the trap; the DC to do so is increased by 5, and the effects are as follows.<br /><br /><strong>Critical Success</strong> You prevent the trap from being triggered, or you delay the activation until the start or end of your next turn (your choice).<br /><strong>Success</strong> You prevent the trap from being triggered, or you delay the activation until the end of your next turn (whichever is worse for you; GM's choice).<br /><strong>Failure</strong> No effect.<br /><strong>Critical Failure</strong> You're flat-footed until the start of your next turn.</div>"
        },
        "featType": {
            "value": "class"
        },
        "level": {
            "value": "8"
        },
        "prerequisites": {
            "value": []
        },
        "rules": [],
        "source": {
            "value": ""
        },
        "traits": {
            "custom": "",
            "rarity": {
                "value": "common"
            },
            "value": [
                "rogue"
            ]
        }
    },
    "effects": [],
    "flags": {},
    "img": "systems/pf2e/icons/features/feats/feats.webp",
    "name": "Delay Trap",
    "permission": {
        "default": 0
    },
    "type": "feat"
}
