{
    "_id": "K3QkcNWY8qpNEJrk",
    "data": {
        "actionCategory": {
            "value": ""
        },
        "actionType": {
            "value": "passive"
        },
        "actions": {
            "value": ""
        },
        "description": {
            "chat": "",
            "unidentified": "",
            "value": "<p>You've sworn to slay evil dragons. Add the following tenet to your code after the others: \"You must slay evil dragons you encounter as long as you have a reasonable chance of success.</p>\n<p>If you use @Compendium[pf2e.actionspf2e.Liberating Step]{Liberating Step} triggered by an evil dragon, your ally gains a +4 circumstance bonus to checks granted by your Liberating Step, and the ally can Step twice afterward.</p>\n<p>@Compendium[pf2e.feat-effects.Effect: Liberating Step (vs. Dragon)]{Effect: Liberating Step (vs. Dragon)}</p>\n<p>You don't consider evil dragons to be legitimate authorities, even in nations they rule.</p>"
        },
        "featType": {
            "value": "class"
        },
        "level": {
            "value": 2
        },
        "location": "",
        "prerequisites": {
            "value": [
                {
                    "value": "tenets of good"
                },
                {
                    "value": "liberator cause"
                }
            ]
        },
        "rules": [],
        "source": {
            "value": ""
        },
        "traits": {
            "custom": "",
            "rarity": {
                "value": "common"
            },
            "value": [
                "champion",
                "oath"
            ]
        }
    },
    "effects": [],
    "flags": {},
    "img": "systems/pf2e/icons/features/feats/feats.webp",
    "name": "Dragonslayer Oath (Liberator)",
    "permission": {
        "default": 0
    },
    "type": "feat"
}
