{
    "_id": "3uavnVbCsqTvzpgt",
    "data": {
        "actionCategory": {
            "value": ""
        },
        "actionType": {
            "value": "action"
        },
        "actions": {
            "value": "2"
        },
        "description": {
            "chat": "",
            "unidentified": "",
            "value": "<p><strong>Requirements</strong> You haven't used this ability since you last Raged</p>\n<hr />\n<p>You breathe deeply and exhale powerful energy in a 30-foot cone or 60-foot line, dealing [[/r 1d6]] damage per level. The area and damage type match those of your dragon (see @Compendium[pf2e.classfeatures.Dragon Instinct]{Table 3-4}).</p>\n<p>If you used this ability in the last hour, the area and the damage are halved (15-foot cone or 30-foot line; [[/r 1d6]] damage for every 2 levels).</p>\n<p>Each creature in the area must attempt a basic Reflex save.</p>"
        },
        "featType": {
            "value": "class"
        },
        "level": {
            "value": 6
        },
        "location": "",
        "prerequisites": {
            "value": [
                {
                    "value": "dragon instinct"
                }
            ]
        },
        "rules": [],
        "source": {
            "value": ""
        },
        "traits": {
            "custom": "",
            "rarity": {
                "value": "common"
            },
            "value": [
                "arcane",
                "barbarian",
                "concentrate",
                "evocation",
                "rage"
            ]
        }
    },
    "effects": [],
    "flags": {},
    "img": "systems/pf2e/icons/features/feats/feats.webp",
    "name": "Dragon's Rage Breath",
    "permission": {
        "default": 0
    },
    "type": "feat"
}
