{
    "_id": "xSJaOcdhqDF1CBs3",
    "data": {
        "actionCategory": {
            "value": ""
        },
        "actionType": {
            "value": "action"
        },
        "actions": {
            "value": "1"
        },
        "description": {
            "chat": "",
            "unidentified": "",
            "value": "<p>You can pull forth both positive and negative energy simultaneously to harm your enemies and heal your allies.</p>\n<p>If your next action is to cast a 1-action or 2-action @Compendium[pf2e.spells-srd.Heal]{Heal} or @Compendium[pf2e.spells-srd.Harm]{Harm} spell, choose one creature in range that would be harmed by the spell, and choose another creature within range that would be healed by the spell. Your<em> heal</em> or <em>harm </em>targets both creatures.</p>"
        },
        "featType": {
            "value": "class"
        },
        "level": {
            "value": "14"
        },
        "prerequisites": {
            "value": [
                {
                    "value": "Versatile Font"
                }
            ]
        },
        "rules": [],
        "source": {
            "value": ""
        },
        "traits": {
            "custom": "",
            "rarity": {
                "value": "common"
            },
            "value": [
                "cleric",
                "concentrate",
                "metamagic"
            ]
        }
    },
    "effects": [],
    "flags": {},
    "img": "systems/pf2e/icons/features/feats/feats.webp",
    "name": "Ebb And Flow",
    "permission": {
        "default": 0
    },
    "type": "feat"
}
