{
    "_id": "vVyX9IG8flxg81mc",
    "data": {
        "actionCategory": {
            "value": ""
        },
        "actionType": {
            "value": "passive"
        },
        "actions": {
            "value": ""
        },
        "description": {
            "chat": "",
            "unidentified": "",
            "value": "<p>You are able to escape inquisitions involving divine magic, allowing you to blend in well in Mzali but also to avoid unwanted attention in other oppressive theocracies. You gain the @Compendium[pf2e.feats-srd.Slippery Secrets]{Slippery Secrets} skill feat, and its benefits also apply against divination effects that attempt to discern your deity. When using Slippery Secrets against a divine divination, you gain a +2 circumstance bonus, and on a critical success, the divination reveals false information appropriate to your false persona, rather than nothing.</p>"
        },
        "featType": {
            "value": "archetype"
        },
        "level": {
            "value": "8"
        },
        "prerequisites": {
            "value": [
                {
                    "value": "Bright Lion Dedication"
                }
            ]
        },
        "rules": [],
        "source": {
            "value": ""
        },
        "traits": {
            "custom": "",
            "rarity": {
                "value": "common"
            },
            "selected": {
                "archetype": "Archetype"
            },
            "value": [
                "archetype"
            ]
        }
    },
    "effects": [],
    "flags": {},
    "img": "systems/pf2e/icons/features/feats/feats.webp",
    "name": "Elude the Divine",
    "permission": {
        "default": 0
    },
    "type": "feat"
}
