{
    "_id": "4M36jGbeSDfZFM38",
    "data": {
        "actionCategory": {
            "value": ""
        },
        "actionType": {
            "value": "passive"
        },
        "actions": {
            "value": ""
        },
        "description": {
            "chat": "",
            "unidentified": "",
            "value": "<p>Your senses let you react rapidly. You gain a +2 circumstance bonus to Perception checks made as initiative rolls. Additionally, if your initiative roll result is tied with that of an opponent, you go first, regardless of whether you rolled Perception or not.</p>"
        },
        "featType": {
            "value": "ancestry"
        },
        "level": {
            "value": 5
        },
        "prerequisites": {
            "value": []
        },
        "rules": [
            {
                "key": "PF2E.RuleElement.FlatModifier",
                "predicate": {
                    "all": [
                        "perception"
                    ]
                },
                "selector": "initiative",
                "type": "circumstance",
                "value": 2
            }
        ],
        "source": {
            "value": ""
        },
        "traits": {
            "custom": "",
            "rarity": {
                "value": "common"
            },
            "value": [
                "elf"
            ]
        }
    },
    "effects": [],
    "flags": {},
    "img": "systems/pf2e/icons/features/feats/feats.webp",
    "name": "Elven Instincts",
    "permission": {
        "default": 0
    },
    "type": "feat"
}
