{
    "_id": "4NKyZVkmWjDyyIYZ",
    "data": {
        "actionCategory": {
            "value": ""
        },
        "actionType": {
            "value": "passive"
        },
        "actions": {
            "value": ""
        },
        "description": {
            "chat": "",
            "unidentified": "",
            "value": "<p>You favor bows and other elegant weapons. You are trained with longbows, composite longbows, longswords, rapiers, shortbows, and composite shortbows. In addition, you gain access to all uncommon elf weapons. For the purpose of determining your proficiency, martial elf weapons are simple weapons and advanced elf weapons are martial weapons.</p>"
        },
        "featType": {
            "value": "ancestry"
        },
        "level": {
            "value": 1
        },
        "prerequisites": {
            "value": []
        },
        "rules": [],
        "source": {
            "value": ""
        },
        "traits": {
            "custom": "",
            "rarity": {
                "value": "common"
            },
            "value": [
                "elf"
            ]
        }
    },
    "effects": [],
    "flags": {},
    "img": "systems/pf2e/icons/features/feats/feats.webp",
    "name": "Elven Weapon Familiarity",
    "permission": {
        "default": 0
    },
    "type": "feat"
}
