{
    "_id": "6GUl9WG7OKvfVQo4",
    "data": {
        "actionCategory": {
            "value": ""
        },
        "actionType": {
            "value": "passive"
        },
        "actions": {
            "value": ""
        },
        "description": {
            "chat": "",
            "unidentified": "",
            "value": "<p>You transmute your body into an ethereal form. You gain the @Compendium[pf2e.spells-srd.Empty Body]{Empty Body} ki spell (page 401). Increase the number of Focus Points in your focus pool by 1.</p>"
        },
        "featType": {
            "value": "class"
        },
        "level": {
            "value": 18
        },
        "prerequisites": {
            "value": [
                {
                    "value": "ki spells"
                }
            ]
        },
        "rules": [],
        "source": {
            "value": ""
        },
        "traits": {
            "custom": "",
            "rarity": {
                "value": "common"
            },
            "value": [
                "monk"
            ]
        }
    },
    "effects": [],
    "flags": {},
    "img": "systems/pf2e/icons/features/feats/feats.webp",
    "name": "Empty Body",
    "permission": {
        "default": 0
    },
    "type": "feat"
}
