{
    "_id": "B5HiNholWMwYdHTC",
    "data": {
        "actionCategory": {
            "value": ""
        },
        "actionType": {
            "value": "passive"
        },
        "actions": {
            "value": ""
        },
        "description": {
            "chat": "",
            "unidentified": "",
            "value": "<p>Energy runs through your blood more powerfully. When you use @Compendium[pf2e.actionspf2e.Energy Emanation]{Energy Emanation}, you can create an emanation of 5 feet, 10 feet, or 15 feet. The damage increases to 6d6 plus an additional 1d6 for every level you have above 9th, instead of 1d6 plus an additional 1d6 for every 2 levels above 1st.</p>"
        },
        "featType": {
            "value": "ancestry"
        },
        "level": {
            "value": 9
        },
        "location": "",
        "prerequisites": {
            "value": [
                {
                    "value": " elemental heart dwarf heritage"
                }
            ]
        },
        "rules": [],
        "source": {
            "value": ""
        },
        "traits": {
            "custom": "",
            "rarity": {
                "value": "common"
            },
            "value": [
                "dwarf"
            ]
        }
    },
    "effects": [],
    "flags": {},
    "img": "systems/pf2e/icons/features/feats/feats.webp",
    "name": "Energy Blessed",
    "permission": {
        "default": 0
    },
    "type": "feat"
}
