{
    "_id": "AP9PXXaP4a2sMdt2",
    "data": {
        "actionCategory": {
            "value": ""
        },
        "actionType": {
            "value": "passive"
        },
        "actions": {
            "value": ""
        },
        "description": {
            "value": "<p>You never fail to strike down the ever-expanding reaches of chaos. All your weapon and unarmed Strikes deal 1 additional lawful damage and have the lawful and magical traits.</p>"
        },
        "featType": {
            "value": "ancestry"
        },
        "level": {
            "value": 13
        },
        "location": "",
        "prerequisites": {
            "value": [
                {
                    "value": "Lawbringer"
                }
            ]
        },
        "rules": [],
        "source": {
            "value": ""
        },
        "traits": {
            "custom": "",
            "rarity": {
                "value": "common"
            },
            "value": [
                "aasimar"
            ]
        }
    },
    "effects": [],
    "flags": {},
    "img": "systems/pf2e/icons/features/feats/feats.webp",
    "name": "Enforced Order",
    "permission": {
        "default": 0
    },
    "type": "feat"
}
