{
    "_id": "u6tLp3zTBweq7CxO",
    "data": {
        "actionCategory": {
            "value": ""
        },
        "actionType": {
            "value": "passive"
        },
        "actions": {
            "value": ""
        },
        "description": {
            "chat": "",
            "unidentified": "",
            "value": "<p>You rapidly adapt to environments through a combination of skill, meditation, and divine grace. After spending an hour in an environment of severe cold or colder, you are protected from the effects of severe cold until you leave that environment. After spending an hour in an environment of severe heat or hotter, you are protected from the effects of severe heat until you leave that environment.</p>"
        },
        "featType": {
            "value": "skill"
        },
        "level": {
            "value": 7
        },
        "prerequisites": {
            "value": [
                {
                    "value": "master in Survival"
                },
                {
                    "value": "deity who grants the cold, fire, nature, or travel domain"
                }
            ]
        },
        "rules": [],
        "source": {
            "value": ""
        },
        "traits": {
            "custom": "",
            "rarity": {
                "value": "common"
            },
            "value": [
                "general",
                "skill"
            ]
        }
    },
    "effects": [],
    "flags": {},
    "img": "systems/pf2e/icons/features/feats/feats.webp",
    "name": "Environmental Grace",
    "permission": {
        "default": 0
    },
    "type": "feat"
}
