{
    "_id": "8tS5NzytLmgbq5hF",
    "data": {
        "actionCategory": {
            "value": ""
        },
        "actionType": {
            "value": "action"
        },
        "actions": {
            "value": "1"
        },
        "description": {
            "chat": "",
            "unidentified": "",
            "value": "<p>You make a controlled attack, fully accounting for your momentum. Make a Strike. The Strike gains the following failure effect.</p>\n<p><strong>Failure</strong> This attack does not count toward your multiple attack penalty.</p>"
        },
        "featType": {
            "value": "class"
        },
        "level": {
            "value": 1
        },
        "prerequisites": {
            "value": []
        },
        "rules": [],
        "source": {
            "value": ""
        },
        "traits": {
            "custom": "",
            "rarity": {
                "value": "common"
            },
            "value": [
                "fighter",
                "press"
            ]
        }
    },
    "effects": [],
    "flags": {},
    "img": "systems/pf2e/icons/features/feats/feats.webp",
    "name": "Exacting Strike",
    "permission": {
        "default": 0
    },
    "type": "feat"
}
