{
    "_id": "y61mDkTqk2k77b4x",
    "data": {
        "actionCategory": {
            "value": ""
        },
        "actionType": {
            "value": "passive"
        },
        "actions": {
            "value": ""
        },
        "description": {
            "chat": "",
            "unidentified": "",
            "value": "<p>You've learned to maintain your balance even when swinging furiously. When you make a @Compendium[pf2e.feats-srd.Power Attack]{Power Attack} with a melee weapon you're wielding in two hands, it counts as one attack toward your multiple attack penalty instead of two.</p>"
        },
        "featType": {
            "value": "class"
        },
        "level": {
            "value": 6
        },
        "prerequisites": {
            "value": [
                {
                    "value": "Power Attack"
                }
            ]
        },
        "rules": [],
        "source": {
            "value": ""
        },
        "traits": {
            "custom": "",
            "rarity": {
                "value": "common"
            },
            "value": [
                "fighter"
            ]
        }
    },
    "effects": [],
    "flags": {},
    "img": "systems/pf2e/icons/features/feats/feats.webp",
    "name": "Furious Focus",
    "permission": {
        "default": 0
    },
    "type": "feat"
}
