{
    "_id": "QZb0Utg0WFPf2Qg0",
    "data": {
        "actionCategory": {
            "value": ""
        },
        "actionType": {
            "value": "action"
        },
        "actions": {
            "value": ""
        },
        "description": {
            "chat": "",
            "unidentified": "",
            "value": "<p>You sing annoying goblin songs, distracting your foes with silly and repetitive lyrics. Attempt a Performance check against the Will DC of a single enemy within 30 feet. This has all the usual traits and restrictions of a Performance check. You can affect up to two targets within range if you have expert proficiency in Performance, four if you have master proficiency, and eight if you have legendary proficiency.</p>\n<hr />\n<p><strong>Critical Success</strong> The target takes a -1 status penalty to Perception checks and Will saves for 1 minute.</p>\n<p><strong>Success</strong> The target takes a -1 status penalty to Perception checks and Will saves for 1 round.</p>\n<p><strong>Critical Failure</strong> The target is temporarily immune to attempts to use Goblin Song for 1 hour.</p>"
        },
        "featType": {
            "value": "ancestry"
        },
        "level": {
            "value": 1
        },
        "prerequisites": {
            "value": []
        },
        "rules": [],
        "source": {
            "value": ""
        },
        "traits": {
            "custom": "",
            "rarity": {
                "value": "common"
            },
            "value": [
                "goblin"
            ]
        }
    },
    "effects": [],
    "flags": {},
    "img": "systems/pf2e/icons/features/feats/feats.webp",
    "name": "Goblin Song",
    "permission": {
        "default": 0
    },
    "type": "feat"
}
