{
    "_id": "Cn4w9U7uk5m1bb2S",
    "data": {
        "actionCategory": {
            "value": ""
        },
        "actionType": {
            "value": "free"
        },
        "actions": {
            "value": ""
        },
        "description": {
            "chat": "",
            "unidentified": "",
            "value": "<p>You have learned enhanced techniques and alchemical secrets that allow you to expand the range of effects you can impose with your bombs.</p>\n<p>When you use @Compendium[pf2e.feats-srd.Debilitating Bomb]{Debilitating Bomb}, add the following to the list you can choose from: @Compendium[pf2e.conditionitems.Clumsy]{Clumsy} 1, @Compendium[pf2e.conditionitems.Enfeebled]{Enfeebled} 1, @Compendium[pf2e.conditionitems.Stupefied]{Stupefied} 1, or -10-foot status penalty to Speeds.</p>"
        },
        "featType": {
            "value": "class"
        },
        "level": {
            "value": 10
        },
        "location": "",
        "prerequisites": {
            "value": [
                {
                    "value": "Debilitating Bomb"
                }
            ]
        },
        "rules": [
            {
                "key": "PF2E.RuleElement.Note",
                "predicate": {
                    "all": [
                        "alchemical",
                        "bomb",
                        "debilitating-bomb"
                    ]
                },
                "selector": "attack-roll",
                "text": "<p class='compact-text'><strong>{item|name}</strong> If your bomb hits, the target must succed at a Fortitude save against your Class DC, or suffer one of the following @Compendium[pf2e.feats-srd.Greater Debilitating Bomb]{effects}</p>"
            }
        ],
        "source": {
            "value": ""
        },
        "traits": {
            "custom": "",
            "rarity": {
                "value": "common"
            },
            "value": [
                "alchemist"
            ]
        }
    },
    "effects": [],
    "flags": {},
    "img": "systems/pf2e/icons/features/feats/feats.webp",
    "name": "Greater Debilitating Bomb",
    "permission": {
        "default": 0
    },
    "type": "feat"
}
