{
    "_id": "4Ek3Kyle2DsCPQQm",
    "data": {
        "actionCategory": {
            "value": ""
        },
        "actionType": {
            "value": "passive"
        },
        "actions": {
            "value": ""
        },
        "description": {
            "chat": "",
            "unidentified": "",
            "value": "<p>Your bragging is particularly effective. If you succeed at a boast, you can attempt a great boast about that same skill by using your Firebrand Braggart Dedication action about the same action during the duration of your original boast's circumstance bonus; this is an exception to the rule that you can't make another boast about the same action until your next daily preparations. A great boast uses the Firebrand Braggart Dedication action, except that if you succeed, your circumstance bonus increases to +2 and remains for 1 hour. If you fail the great boast, you take a -2 circumstance penalty to attempt the same action for 4 hours. Once you declare a great boast about a particular action, you can't declare a great boast about the same action until the next time you make daily preparations, regardless of whether you succeed or fail at the check. The minimum challenging task for a great boast is one with at least a hard DC for your level.</p>"
        },
        "featType": {
            "value": "archetype"
        },
        "level": {
            "value": 8
        },
        "prerequisites": {
            "value": [
                {
                    "value": "Charisma 16"
                },
                {
                    "value": "Firebrand Braggart Dedication"
                }
            ]
        },
        "rules": [],
        "source": {
            "value": ""
        },
        "traits": {
            "custom": "",
            "rarity": {
                "value": "common"
            },
            "value": [
                "archetype"
            ]
        }
    },
    "effects": [],
    "flags": {},
    "img": "systems/pf2e/icons/features/feats/feats.webp",
    "name": "Great Boaster",
    "permission": {
        "default": 0
    },
    "type": "feat"
}
