{
    "_id": "XswthL1fTc7eWZwG",
    "data": {
        "actionCategory": {
            "value": ""
        },
        "actionType": {
            "value": "action"
        },
        "actions": {
            "value": "1"
        },
        "description": {
            "value": "<p>You batter your foes with a torrent of water siphoned from your surroundings. If the next action you take is an Athletics check to Disarm, Shove, or Trip, that action has a range of 15 feet. You don’t receive any item bonuses to that check or any circumstance bonuses related to your physical body, but if you roll a critical failure on that Athletics check, you get a failure instead.</p>"
        },
        "featType": {
            "value": "ancestry"
        },
        "level": {
            "value": 13
        },
        "location": "",
        "prerequisites": {
            "value": []
        },
        "rules": [],
        "source": {
            "value": ""
        },
        "traits": {
            "custom": "",
            "rarity": {
                "value": "common"
            },
            "value": [
                "azarketi",
                "concentrate",
                "manipulate",
                "primal",
                "transmutation",
                "water"
            ]
        }
    },
    "effects": [],
    "flags": {},
    "img": "systems/pf2e/icons/default-icons/feats.webp",
    "name": "Hydraulic Amneuvers",
    "permission": {
        "default": 0
    },
    "type": "feat"
}
