{
    "_id": "rwTbN2A2ZO7CdKoC",
    "data": {
        "actionCategory": {
            "value": ""
        },
        "actionType": {
            "value": "passive"
        },
        "actions": {
            "value": ""
        },
        "description": {
            "chat": "",
            "unidentified": "",
            "value": "<p>You can create endless shorter-lived snares, protecting your lair or using them against foes.</p>\n<p>Once per minute, you can @Compendium[pf2e.actionspf2e.Craft]{Craft} one of the snares you've prepared for quick deployment without expending the prepared snare. Once deployed, such a snare lasts for 10 minutes before losing its effectiveness.</p>"
        },
        "featType": {
            "value": "class"
        },
        "level": {
            "value": "20"
        },
        "prerequisites": {
            "value": [
                {
                    "value": "Ubiquitous Snares"
                }
            ]
        },
        "rules": [],
        "source": {
            "value": ""
        },
        "traits": {
            "custom": "",
            "rarity": {
                "value": "common"
            },
            "value": [
                "ranger"
            ]
        }
    },
    "effects": [],
    "flags": {},
    "img": "systems/pf2e/icons/features/feats/feats.webp",
    "name": "Impossible Snares",
    "permission": {
        "default": 0
    },
    "type": "feat"
}
