{
    "_id": "CQfxxsRxf1BuUH4o",
    "data": {
        "actionCategory": {
            "value": ""
        },
        "actionType": {
            "value": "passive"
        },
        "actions": {
            "value": ""
        },
        "description": {
            "chat": "",
            "unidentified": "",
            "value": "<p>Thanks to Janatimo's secret techniques, you can weave your knowledge and words into powerful tools to assist your allies in life-threatening situations. When you use Uzunjati Recollection to tell a story and @Compendium[pf2e.actionspf2e.Recall Knowledge (Lore)]{Recall Knowledge} about a creature during a combat encounter, if you succeed at both checks, your story carries deeper meaning. This grants your allies a +1 circumstance bonus to their next attack roll and saving throw against the creature during that encounter, as well as to their AC against that creature's next attack roll during that encounter. If you critically succeed at both checks, the bonuses also apply to all attack rolls, saves, and AC against that creature for 2 rounds.</p>"
        },
        "featType": {
            "value": "archetype"
        },
        "level": {
            "value": "12"
        },
        "prerequisites": {
            "value": [
                {
                    "value": "Uzunjati Recollection"
                }
            ]
        },
        "rules": [],
        "source": {
            "value": ""
        },
        "traits": {
            "custom": "",
            "rarity": {
                "value": "rare"
            },
            "selected": {},
            "value": []
        }
    },
    "effects": [],
    "flags": {},
    "img": "systems/pf2e/icons/features/feats/feats.webp",
    "name": "Janatimo's Secret Lesson",
    "permission": {
        "default": 0
    },
    "type": "feat"
}
