{
    "_id": "wIRZDXOacqWfI670",
    "data": {
        "actionCategory": {
            "value": ""
        },
        "actionType": {
            "value": "free"
        },
        "actions": {
            "value": ""
        },
        "description": {
            "chat": "",
            "unidentified": "",
            "value": "<p><strong>Frequency</strong> once per minute</p>\n<hr />\n<p>You center yourself with the universe and draw upon its vast power. You cast a single action ki spell with the stance trait, without spending a Focus Point.</p>"
        },
        "featType": {
            "value": "class"
        },
        "level": {
            "value": 18
        },
        "prerequisites": {
            "value": [
                {
                    "value": "ki spells"
                },
                {
                    "value": "Master of Many Styles"
                }
            ]
        },
        "rules": [],
        "source": {
            "value": ""
        },
        "traits": {
            "custom": "",
            "rarity": {
                "value": "common"
            },
            "value": [
                "monk"
            ]
        }
    },
    "effects": [],
    "flags": {},
    "img": "systems/pf2e/icons/features/feats/feats.webp",
    "name": "Ki Center",
    "permission": {
        "default": 0
    },
    "type": "feat"
}
