{
    "_id": "oYFsw3LdgsN2QKVs",
    "data": {
        "actionCategory": {
            "value": ""
        },
        "actionType": {
            "value": "passive"
        },
        "actions": {
            "value": ""
        },
        "description": {
            "chat": "",
            "unidentified": "",
            "value": "<p>You have mastered a potent technique for using your ki to reinforce your physical form and propel yourself through the air. You gain the @Compendium[pf2e.spells-srd.Ki Form]{Ki Form} ki spell. Increase the number of Focus Points in your focus pool by 1.</p>"
        },
        "featType": {
            "value": "class"
        },
        "level": {
            "value": "18"
        },
        "prerequisites": {
            "value": [
                {
                    "value": "ki spells"
                }
            ]
        },
        "rules": [],
        "source": {
            "value": ""
        },
        "traits": {
            "custom": "",
            "rarity": {
                "value": "common"
            },
            "value": [
                "monk"
            ]
        }
    },
    "effects": [],
    "flags": {},
    "img": "systems/pf2e/icons/features/feats/feats.webp",
    "name": "Ki Form",
    "permission": {
        "default": 0
    },
    "type": "feat"
}
