{
    "_id": "OZtoTusMmCJymObT",
    "data": {
        "actionCategory": {
            "value": ""
        },
        "actionType": {
            "value": "passive"
        },
        "actions": {
            "value": ""
        },
        "description": {
            "chat": "",
            "unidentified": "",
            "value": "<p>You are trained to capture deserters, or \"leeches.\" If you critically hit a foe with a weapon from the flail weapon group, you can wrap the weapon around the target's legs and then drop it, causing the foe to take a -10-foot circumstance penalty to their Speeds until they or their allies disentangle the weapon, which takes a total of 2 Interact actions.</p>"
        },
        "featType": {
            "value": "ancestry"
        },
        "level": {
            "value": "1"
        },
        "prerequisites": {
            "value": []
        },
        "rules": [],
        "source": {
            "value": ""
        },
        "traits": {
            "custom": "",
            "rarity": {
                "value": "common"
            },
            "value": [
                "hobgoblin"
            ]
        }
    },
    "effects": [],
    "flags": {},
    "img": "systems/pf2e/icons/features/feats/feats.webp",
    "name": "Leech-Clipper",
    "permission": {
        "default": 0
    },
    "type": "feat"
}
