{
    "_id": "XkmrLhyAoxQTLnza",
    "data": {
        "actionCategory": {
            "value": ""
        },
        "actionType": {
            "value": "action"
        },
        "actions": {
            "value": "1"
        },
        "description": {
            "chat": "",
            "unidentified": "",
            "value": "<p><strong>Requirements</strong> You are Juggling a thrown weapon.</p>\n<hr />\n<p>You make a thrown ranged Strike with the required weapon, using the weapon's normal range increment. This attack doesn't trigger reactions, and if the target has never seen you use this feat before, the target is flat-footed against this attack.</p>"
        },
        "featType": {
            "value": "archetype"
        },
        "level": {
            "value": 8
        },
        "location": "",
        "prerequisites": {
            "value": [
                {
                    "value": "master in Performance"
                },
                {
                    "value": "Juggler Dedication"
                }
            ]
        },
        "rules": [],
        "source": {
            "value": ""
        },
        "traits": {
            "custom": "",
            "rarity": {
                "value": "uncommon"
            },
            "value": [
                "archetype"
            ]
        }
    },
    "effects": [],
    "flags": {},
    "img": "systems/pf2e/icons/features/feats/feats.webp",
    "name": "Lobbed Attack",
    "permission": {
        "default": 0
    },
    "type": "feat"
}
