{
    "_id": "COP89tjrNhEucuRW",
    "data": {
        "actionCategory": {
            "value": ""
        },
        "actionType": {
            "value": "passive"
        },
        "actions": {
            "value": ""
        },
        "description": {
            "chat": "",
            "unidentified": "",
            "value": "<p>Your hardiness lets you withstand more punishment than most before going down. Increase your maximum Hit Points by your level. When you have the @Compendium[pf2e.conditionitems.Dying]{Dying} condition, the DC of your recovery checks is equal to 9 + your dying value (instead of 10 + your dying value).</p>\n<p>If you also have the @Compendium[pf2e.feats-srd.Toughness]{Toughness} feat, the Hit Points gained from it and this feat are cumulative, and the DC of your recovery checks is equal to 6 + your dying value.</p>"
        },
        "featType": {
            "value": "ancestry"
        },
        "level": {
            "value": 9
        },
        "location": "",
        "prerequisites": {
            "value": []
        },
        "rules": [
            {
                "key": "PF2E.RuleElement.RecoveryCheckDC"
            }
        ],
        "source": {
            "value": ""
        },
        "traits": {
            "custom": "",
            "rarity": {
                "value": "common"
            },
            "value": [
                "dwarf"
            ]
        }
    },
    "effects": [
        {
            "_id": "rfRPAWLAfdx8qSZz",
            "changes": [
                {
                    "key": "data.attributes.hp.modifiers",
                    "mode": 2,
                    "value": "{ \"modifier\": \"@data.details.level.value * 1\", \"type\": \"untyped\" }"
                }
            ],
            "disabled": false,
            "duration": {
                "rounds": null,
                "seconds": null,
                "startRound": null,
                "startTime": null,
                "startTurn": null,
                "turns": null
            },
            "flags": {},
            "icon": "systems/pf2e/icons/features/feats/feats.webp",
            "label": "Mountain's Stoutness",
            "origin": "",
            "tint": "",
            "transfer": true
        }
    ],
    "flags": {},
    "img": "systems/pf2e/icons/features/feats/feats.webp",
    "name": "Mountain's Stoutness",
    "permission": {
        "default": 0
    },
    "type": "feat"
}
