{
    "_id": "KWXoo738KuddWMOB",
    "data": {
        "actionCategory": {
            "value": ""
        },
        "actionType": {
            "value": "passive"
        },
        "actions": {
            "value": ""
        },
        "description": {
            "chat": "",
            "unidentified": "",
            "value": "<p>You're always investigating what's around you, even as you perform other activities. You can move at full Speed while using the @Compendium[pf2e.actionspf2e.Investigate]{Investigate} exploration activity, and you can use another exploration activity while Investigating.</p>"
        },
        "featType": {
            "value": "class"
        },
        "level": {
            "value": "4"
        },
        "prerequisites": {
            "value": []
        },
        "rules": [],
        "source": {
            "value": ""
        },
        "traits": {
            "custom": "",
            "rarity": {
                "value": "common"
            },
            "value": [
                "investigator"
            ]
        }
    },
    "effects": [],
    "flags": {},
    "img": "systems/pf2e/icons/features/feats/feats.webp",
    "name": "Ongoing Investigation",
    "permission": {
        "default": 0
    },
    "type": "feat"
}
