{
    "_id": "1HsH8hE79MDsi8kK",
    "data": {
        "actionCategory": {
            "value": ""
        },
        "actionType": {
            "value": "passive"
        },
        "actions": {
            "value": ""
        },
        "description": {
            "chat": "",
            "unidentified": "",
            "value": "<p>You paint your face to create a <em>warmask</em>, an invested magic item of negligible Bulk with an item level equal to your level and a usage of worn (mask). It has the divination trait and a magical tradition trait depending on its type. Donning or removing your <em>warmask</em> requires 1 minute of work, though you don’t need to Invest the mask each time. The <em>warmask</em> is unique to you and might signify your hold, your accomplishments, or your faith. While creating your mask, you must choose the source of your <em>warmask</em>’s power from the options below. This source determines the mask’s associated skill as well as magical tradition. Once you select this source, it can’t be changed. You become trained in the associated skill, and you gain the @Compendium[pf2e.feats-srd.Dubious Knowledge]{Dubious Knowledge} skill feat as a bonus feat. You can spend 1 hour performing a ceremony that costs 50 gp to attune yourself more deeply with your <em>warmask</em>. If you do, you gain a +1 item bonus to the associated skill whenever you wear the <em>warmask</em>.</p>\n<hr />\n<ul>\n<li><strong>The Gods</strong> Religion, divine tradition</li>\n<li><strong>The Land</strong> Nature, primal tradition</li>\n<li><strong>Magic</strong> Arcana, arcane tradition</li>\n<li><strong>The Unknown</strong> Occultism, occult tradition</li>\n</ul>"
        },
        "featType": {
            "value": "ancestry"
        },
        "level": {
            "value": 1
        },
        "location": "",
        "prerequisites": {
            "value": []
        },
        "rules": [],
        "source": {
            "value": ""
        },
        "traits": {
            "custom": "",
            "rarity": {
                "value": "common"
            },
            "value": [
                "orc"
            ]
        },
        "usage": {
            "value": ""
        }
    },
    "effects": [],
    "flags": {},
    "img": "systems/pf2e/icons/features/feats/feats.webp",
    "name": "Orc Warmask",
    "permission": {
        "default": 0
    },
    "type": "feat"
}
