{
    "_id": "As8cRK5jVzf62fEd",
    "data": {
        "actionCategory": {
            "value": ""
        },
        "actionType": {
            "value": "passive"
        },
        "actions": {
            "value": ""
        },
        "description": {
            "chat": "",
            "unidentified": "",
            "value": "<p>Your circulatory system contains viscous protoplasmic fluid instead of ordinary blood. You gain a +2 circumstance bonus to saving throws against disease and poison, and resistance to poison damage equal to half your level.</p>\n<p>In addition, your resistance to precision damage from Disturbing Defense increases to an amount equal to 7 + your number of class feats from the oozemorph archetype, and the DC of your flat checks to recover from persistent bleed damage is 8 rather than 13.</p>"
        },
        "featType": {
            "value": "archetype"
        },
        "level": {
            "value": "14"
        },
        "prerequisites": {
            "value": [
                {
                    "value": "Disturbing Defense"
                }
            ]
        },
        "rules": [],
        "source": {
            "value": ""
        },
        "traits": {
            "custom": "",
            "rarity": {
                "value": "common"
            },
            "selected": {
                "archetype": "Archetype"
            },
            "value": [
                "archetype"
            ]
        }
    },
    "effects": [],
    "flags": {},
    "img": "systems/pf2e/icons/features/feats/feats.webp",
    "name": "Peculiar Anatomy",
    "permission": {
        "default": 0
    },
    "type": "feat"
}
