{
    "_id": "ABx8keV4c43gEmeN",
    "data": {
        "actionCategory": {
            "value": ""
        },
        "actionType": {
            "value": "passive"
        },
        "actions": {
            "value": ""
        },
        "description": {
            "chat": "",
            "unidentified": "",
            "value": "<p>You tear the veil between the Material Plane and its shadow. You can cast @Compendium[pf2e.spells-srd.Plane Shift]{Plane Shift}<em> </em>twice per week as an occult innate spell that can only target yourself; you can travel only to the Material or Shadow Planes, and your body serves as the focus component.</p>"
        },
        "featType": {
            "value": "ancestry"
        },
        "level": {
            "value": 17
        },
        "location": "",
        "prerequisites": {
            "value": []
        },
        "rules": [],
        "source": {
            "value": ""
        },
        "traits": {
            "custom": "",
            "rarity": {
                "value": "uncommon"
            },
            "value": [
                "fetchling"
            ]
        },
        "usage": {
            "value": ""
        }
    },
    "effects": [],
    "flags": {},
    "img": "systems/pf2e/icons/features/feats/feats.webp",
    "name": "Pierce The Light",
    "permission": {
        "default": 0
    },
    "type": "feat"
}
