{
    "_id": "RlhvppSmQRqL2RUe",
    "data": {
        "actionCategory": {
            "value": ""
        },
        "actionType": {
            "value": "passive"
        },
        "actions": {
            "value": ""
        },
        "description": {
            "chat": "",
            "unidentified": "",
            "value": "<p>You can attach a talisman using only a bit of glue and some string. You gain the @Compendium[pf2e.feats-srd.Rapid Affixture]{Rapid Affixture} skill feat, even if you don't meet the prerequisites. When you use it, you can affix or remove up to four talismans in 1 minute instead of just one.</p>\n<p>You gain the ability to @Compendium[pf2e.actionspf2e.Affix a Talisman]{Affix a Talisman} as a 3-action activity from that feat at 12th level, regardless of your Crafting proficiency.</p>"
        },
        "featType": {
            "value": "archetype"
        },
        "level": {
            "value": "4"
        },
        "prerequisites": {
            "value": [
                {
                    "value": "Talisman Dabbler Dedication"
                }
            ]
        },
        "rules": [],
        "source": {
            "value": ""
        },
        "traits": {
            "custom": "",
            "rarity": {
                "value": "common"
            },
            "value": [
                "archetype"
            ]
        }
    },
    "effects": [],
    "flags": {},
    "img": "systems/pf2e/icons/features/feats/feats.webp",
    "name": "Quick Fix",
    "permission": {
        "default": 0
    },
    "type": "feat"
}
