{
    "_id": "ecV3Nljvs4FOBS27",
    "data": {
        "actionCategory": {
            "value": ""
        },
        "actionType": {
            "value": "reaction"
        },
        "actions": {
            "value": ""
        },
        "description": {
            "chat": "",
            "unidentified": "",
            "value": "<p><strong>Trigger</strong> You would take sonic damage from a spell.</p>\n<hr />\n<p>You can manipulate the acoustics around you to deflect sonic damage back at its source. Attempt a Performance check against the spell DC of the creature that cast the triggering spell.</p>\n<hr />\n<p><strong>Critical Success</strong> You reduce the triggering damage by an amount up to four times your level. The caster takes sonic damage equal to the amount of damage you reduced in this way.</p>\n<p><strong>Success</strong> As critical success, but you reduce the triggering damage by an amount up to twice your level.</p>\n<p><strong>Critical Failure</strong> You misdirect the sonic waves at yourself, taking twice the triggering damage.</p>"
        },
        "featType": {
            "value": "class"
        },
        "level": {
            "value": "12"
        },
        "prerequisites": {
            "value": []
        },
        "rules": [],
        "source": {
            "value": ""
        },
        "traits": {
            "custom": "",
            "rarity": {
                "value": "common"
            },
            "value": [
                "bard"
            ]
        }
    },
    "effects": [],
    "flags": {},
    "img": "systems/pf2e/icons/features/feats/feats.webp",
    "name": "Reverberate",
    "permission": {
        "default": 0
    },
    "type": "feat"
}
