{
    "_id": "PMRfunXzC9YizHNZ",
    "data": {
        "actionCategory": {
            "value": ""
        },
        "actionType": {
            "value": "passive"
        },
        "actions": {
            "value": ""
        },
        "description": {
            "chat": "",
            "unidentified": "",
            "value": "<p>Long ago, qlippoth marked someone in your lineage, most likely through their ancient runestones that dot Golarion’s surface. Yours is an old lineage, primordial and twisted, and you have a sense for similarly twisted things. You’re trained in Occultism. If you’re already trained in Occultism (from your background or class, for example), you instead become trained in a skill of your choice. You also gain the @Compendium[pf2e.feats-srd.Oddity Identification]{Oddity Identification} skill feat.</p>"
        },
        "featType": {
            "value": "ancestry"
        },
        "level": {
            "value": 1
        },
        "location": "",
        "prerequisites": {
            "value": []
        },
        "rules": [],
        "source": {
            "value": ""
        },
        "traits": {
            "custom": "",
            "rarity": {
                "value": "common"
            },
            "value": [
                "lineage",
                "tiefling"
            ]
        },
        "usage": {
            "value": ""
        }
    },
    "effects": [],
    "flags": {},
    "img": "systems/pf2e/icons/features/feats/feats.webp",
    "name": "Riftmarked",
    "permission": {
        "default": 0
    },
    "type": "feat"
}
