{
    "_id": "wFtJlamwRc6rSQmj",
    "data": {
        "actionCategory": {
            "value": ""
        },
        "actionType": {
            "value": "passive"
        },
        "actions": {
            "value": ""
        },
        "description": {
            "chat": "",
            "unidentified": "",
            "value": "<p>You go into hibernation for 24 hours and perform a ritual dedicated to your ancestors, undergoing a one-time metamorphosis. You permanently gain the effects of @Compendium[pf2e.spells-srd.Enlarge]{Enlarge}, and your maximum Hit Points increase by your level. The ritual transforms most of your gear to the appropriate size for your new body (though powerful items like artifacts or items strongly tied to their original size may not transform, at the GM’s discretion).</p>"
        },
        "featType": {
            "value": "ancestry"
        },
        "level": {
            "value": 17
        },
        "location": "",
        "prerequisites": {
            "value": []
        },
        "rules": [],
        "source": {
            "value": ""
        },
        "traits": {
            "custom": "",
            "rarity": {
                "value": "common"
            },
            "value": [
                "lizardfolk",
                "primal",
                "transmutation"
            ]
        },
        "usage": {
            "value": ""
        }
    },
    "effects": [],
    "flags": {},
    "img": "systems/pf2e/icons/features/feats/feats.webp",
    "name": "Scion Transformation",
    "permission": {
        "default": 0
    },
    "type": "feat"
}
