{
    "_id": "4AezsqaQRFtX024w",
    "data": {
        "actionCategory": {
            "value": ""
        },
        "actionType": {
            "value": "passive"
        },
        "actions": {
            "value": ""
        },
        "description": {
            "chat": "",
            "unidentified": "",
            "value": "<p>You gain the @Compendium[pf2e.spells-srd.Shall not Falter, Shall not Rout]{Shall not Falter, Shall not Rout} focus spell. If you don't already have one, you gain a focus pool of 1 Focus Point, which you can regain using the Refocus activity to recite the Crimson Oath and meditate on its teachings. If you already have a focus pool, increase the number of Focus Points in your focus pool by 1. Your knight reclaimant focus spells are divine spells; when you gain this feat, you become trained in divine spell attacks and spell DCs and your spellcasting ability is Charisma.</p>"
        },
        "featType": {
            "value": "archetype"
        },
        "level": {
            "value": 10
        },
        "location": "",
        "prerequisites": {
            "value": [
                {
                    "value": "Knight Reclaimant Dedication"
                }
            ]
        },
        "rules": [],
        "source": {
            "value": ""
        },
        "traits": {
            "custom": "",
            "rarity": {
                "value": "rare"
            },
            "selected": {
                "archetype": "Archetype"
            },
            "value": [
                "archetype"
            ]
        }
    },
    "effects": [],
    "flags": {},
    "img": "systems/pf2e/icons/features/feats/feats.webp",
    "name": "Shall not Falter, Shall not Rout",
    "permission": {
        "default": 0
    },
    "type": "feat"
}
