{
    "_id": "S7z1LbnSRlBep8rO",
    "data": {
        "actionCategory": {
            "value": ""
        },
        "actionType": {
            "value": "passive"
        },
        "actions": {
            "value": ""
        },
        "description": {
            "chat": "",
            "unidentified": "",
            "value": "<p>Your connection to the Boneyard empowers you to bring death to all forms of life and unlife, exploiting their weaknesses.</p>\n<p>All your weapon and unarmed Strikes are magical and deal <a class=\"inline-roll roll\" data-mode=\"roll\" data-flavor=\"negative\" data-formula=\"1\" title=\"negative\"><i class=\"fas fa-dice-d20\"></i> 1</a> additional negative damage to living creatures and <a class=\"inline-roll roll\" data-mode=\"roll\" data-flavor=\"positive\" data-formula=\"1\" title=\"positive\"><i class=\"fas fa-dice-d20\"></i> 1</a> additional positive damage to undead.</p>"
        },
        "featType": {
            "value": "ancestry"
        },
        "level": {
            "value": "9"
        },
        "prerequisites": {
            "value": []
        },
        "rules": [
            {
                "key": "PF2E.RuleElement.ToggleProperty",
                "label": "Target Undead Creature",
                "property": "flags.pf2e.rollOptions.damage-roll.spirit-strikes-positive"
            },
            {
                "key": "PF2E.RuleElement.ToggleProperty",
                "label": "Target Living Creature",
                "property": "flags.pf2e.rollOptions.damage-roll.spirit-strikes-negative"
            },
            {
                "damageType": "positive",
                "key": "PF2E.RuleElement.FlatModifier",
                "label": "Spirit Strike against Undead",
                "predicate": {
                    "all": [
                        "spirit-strikes-positive"
                    ]
                },
                "selector": "damage",
                "value": 1
            },
            {
                "damageType": "negative",
                "key": "PF2E.RuleElement.FlatModifier",
                "label": "Spirit Strike against Living",
                "predicate": {
                    "all": [
                        "spirit-strikes-negative"
                    ]
                },
                "selector": "damage",
                "value": 1
            },
            {
                "key": "PF2E.RuleElement.DamageDice",
                "selector": "damage",
                "traits": [
                    "magical"
                ]
            },
            {
                "key": "PF2E.RuleElement.DamageDice",
                "predicate": {
                    "all": [
                        "spirit-strikes-negative"
                    ]
                },
                "selector": "damage",
                "traits": [
                    "negative"
                ]
            },
            {
                "key": "PF2E.RuleElement.DamageDice",
                "predicate": {
                    "all": [
                        "spirit-strikes-positive"
                    ]
                },
                "selector": "damage",
                "traits": [
                    "positive"
                ]
            }
        ],
        "source": {
            "value": ""
        },
        "traits": {
            "custom": "",
            "rarity": {
                "value": "common"
            },
            "value": [
                "duskwalker"
            ]
        }
    },
    "effects": [],
    "flags": {},
    "img": "systems/pf2e/icons/features/feats/feats.webp",
    "name": "Spirit Strikes",
    "permission": {
        "default": 0
    },
    "type": "feat"
}
