{
    "_id": "s0OqtQOeYOGkBMYG",
    "data": {
        "actionCategory": {
            "value": ""
        },
        "actionType": {
            "value": "passive"
        },
        "actions": {
            "value": ""
        },
        "description": {
            "chat": "",
            "unidentified": "",
            "value": "<p>Your presence alone is enough to provide your allies with emotional support. You can use the @Compendium[pf2e.actionspf2e.Aid]{Aid} reaction to grant a bonus to another creature's Will saving throw even when you haven't prepared to help.</p>"
        },
        "featType": {
            "value": "ancestry"
        },
        "level": {
            "value": "13"
        },
        "prerequisites": {
            "value": [
                {
                    "value": "Loyal Empath"
                }
            ]
        },
        "rules": [],
        "source": {
            "value": ""
        },
        "traits": {
            "custom": "",
            "rarity": {
                "value": "common"
            },
            "value": [
                "shoony"
            ]
        }
    },
    "effects": [],
    "flags": {},
    "img": "systems/pf2e/icons/features/feats/feats.webp",
    "name": "Steadfast Ally",
    "permission": {
        "default": 0
    },
    "type": "feat"
}
