{
    "_id": "NHheDmNB7L4REmlr",
    "data": {
        "actionCategory": {
            "value": ""
        },
        "actionType": {
            "value": "free"
        },
        "actions": {
            "value": ""
        },
        "description": {
            "chat": "",
            "unidentified": "",
            "value": "<p><strong>Trigger</strong> You are about to roll initiative.</p>\n<hr />\n<p>You swagger readily into any fight-even an ambush. You gain a +2 circumstance bonus to your initiative roll and can @Compendium[pf2e.actionspf2e.Interact]{Interact} to draw a weapon.</p>"
        },
        "featType": {
            "value": "class"
        },
        "level": {
            "value": "4"
        },
        "prerequisites": {
            "value": []
        },
        "rules": [],
        "source": {
            "value": ""
        },
        "traits": {
            "custom": "",
            "rarity": {
                "value": "common"
            },
            "value": [
                "swashbuckler"
            ]
        }
    },
    "effects": [],
    "flags": {},
    "img": "systems/pf2e/icons/features/feats/feats.webp",
    "name": "Swaggering Initiative",
    "permission": {
        "default": 0
    },
    "type": "feat"
}
