{
    "_id": "MhoGCLKI5zxQ4SFD",
    "data": {
        "actionCategory": {
            "value": ""
        },
        "actionType": {
            "value": "free"
        },
        "actions": {
            "value": ""
        },
        "description": {
            "chat": "",
            "unidentified": "",
            "value": "<p><strong>Requirements</strong> You rolled Stealth for initiative in this <br />encounter, and neither you nor any enemies have acted yet <br />in this encounter.</p>\n<hr />\n<p>You @Compendium[pf2e.actionspf2e.Stride]{Stride}. This movement doesn't trigger any reactions.</p>"
        },
        "featType": {
            "value": "class"
        },
        "level": {
            "value": "8"
        },
        "prerequisites": {
            "value": [
                {
                    "value": "master in Stealth"
                }
            ]
        },
        "rules": [],
        "source": {
            "value": ""
        },
        "traits": {
            "custom": "",
            "rarity": {
                "value": "common"
            },
            "value": [
                "rogue"
            ]
        }
    },
    "effects": [],
    "flags": {},
    "img": "systems/pf2e/icons/features/feats/feats.webp",
    "name": "Tactical Entry",
    "permission": {
        "default": 0
    },
    "type": "feat"
}
