{
    "_id": "SY6bU7DOyfs22cJX",
    "data": {
        "actionCategory": {
            "value": ""
        },
        "actionType": {
            "value": "passive"
        },
        "actions": {
            "value": ""
        },
        "description": {
            "chat": "",
            "unidentified": "",
            "value": "<p>During your daily preparations, you can create a batch of two temporary oils or potions using a formula you know. These items follow the normal rules to @Compendium[pf2e.actionspf2e.Craft]{Craft}them, except for the time they take, with some additional restrictions. They must both be the same type of oil or potion, and their level must be 6 or more levels lower than your level. Any items you create this way become inert bottles of liquid the next time you make your daily preparations, and any remaining effects of the temporary items end. A temporary oil or potion has no value.</p>\n<p>If you have master proficiency in your tradition's spell DCs, you can create a batch of three temporary oils or potions during your daily preparations, and if you have legendary proficiency, you can create a batch of four.</p>"
        },
        "featType": {
            "value": "class"
        },
        "level": {
            "value": "10"
        },
        "prerequisites": {
            "value": [
                {
                    "value": "Cauldron"
                }
            ]
        },
        "rules": [],
        "source": {
            "value": ""
        },
        "traits": {
            "custom": "",
            "rarity": {
                "value": "common"
            },
            "value": [
                "witch"
            ]
        }
    },
    "effects": [],
    "flags": {},
    "img": "systems/pf2e/icons/features/feats/feats.webp",
    "name": "Temporary Potions",
    "permission": {
        "default": 0
    },
    "type": "feat"
}
