{
    "_id": "6J2ZSGNsXPKPcJGV",
    "data": {
        "actionCategory": {
            "value": ""
        },
        "actionType": {
            "value": "action"
        },
        "actions": {
            "value": "2"
        },
        "description": {
            "chat": "",
            "unidentified": "",
            "value": "<p><strong>Requirements</strong> You are in @Compendium[pf2e.feats-srd.Tiger Stance]{Tiger Stance}</p>\n<hr />\n<p>You make a fierce swipe with both hands. Make a tiger claw Strike. It deals two extra weapon damage dice (three extra dice if you're 14th level or higher), and you can push the target 5 feet away as if you had successfully @Compendium[pf2e.actionspf2e.Shove]{Shoved} them.</p>\n<p>If the attack is a critical success and deals damage, add your Strength modifier to the persistent bleed damage from your tiger claw.</p>"
        },
        "featType": {
            "value": "class"
        },
        "level": {
            "value": 6
        },
        "location": "",
        "prerequisites": {
            "value": [
                {
                    "value": "Tiger Stance"
                }
            ]
        },
        "rules": [
            {
                "key": "PF2E.RuleElement.ToggleProperty",
                "label": "Tiger Slash",
                "property": "flags.pf2e.rollOptions.all.tiger-slash"
            },
            {
                "key": "PF2E.RuleElement.DamageDice",
                "label": "Tiger Slash",
                "predicate": {
                    "all": [
                        "tiger-slash"
                    ]
                },
                "selector": "tiger-claw-damage",
                "value": {
                    "brackets": [
                        {
                            "end": 13,
                            "value": {
                                "diceNumber": 2
                            }
                        },
                        {
                            "start": 14,
                            "value": {
                                "diceNumber": 3
                            }
                        }
                    ]
                }
            },
            {
                "key": "PF2E.RuleElement.Note",
                "outcome": [
                    "criticalSuccess"
                ],
                "predicate": {
                    "all": [
                        "tiger-slash"
                    ]
                },
                "selector": "tiger-claw-damage",
                "text": "<p class='compact-text'><strong>Tiger Slash</strong> Add your Strength modifier to the persistent bleed damage.</p>"
            }
        ],
        "source": {
            "value": ""
        },
        "traits": {
            "custom": "",
            "rarity": {
                "value": "common"
            },
            "value": [
                "monk"
            ]
        }
    },
    "effects": [],
    "flags": {},
    "img": "systems/pf2e/icons/features/feats/feats.webp",
    "name": "Tiger Slash",
    "permission": {
        "default": 0
    },
    "type": "feat"
}
