{
    "_id": "mGzPR7M9H733j2wN",
    "data": {
        "actionCategory": {
            "value": ""
        },
        "actionType": {
            "value": "action"
        },
        "actions": {
            "value": "2"
        },
        "description": {
            "chat": "",
            "unidentified": "",
            "value": "<p>You transcend the limitations of form. While under the effects of wild shape, you can change into any other form on your wild shape list; if the durations of the forms would vary, use the shorter of the two durations. Once per day, you can transform into a kaiju, with the effects of nature incarnate; if you have Plant Shape, you can instead transform into a green man.</p>"
        },
        "featType": {
            "value": "class"
        },
        "level": {
            "value": 20
        },
        "prerequisites": {
            "value": [
                {
                    "value": "Dragon Shape"
                },
                {
                    "value": "Wild Shape"
                }
            ]
        },
        "rules": [],
        "source": {
            "value": ""
        },
        "traits": {
            "custom": "",
            "rarity": {
                "value": "common"
            },
            "value": [
                "concentrate",
                "druid"
            ]
        }
    },
    "effects": [],
    "flags": {},
    "img": "systems/pf2e/icons/features/feats/feats.webp",
    "name": "True Shapeshifter",
    "permission": {
        "default": 0
    },
    "type": "feat"
}
