{
    "_id": "Bni2NcuQn6Z546RE",
    "data": {
        "actionCategory": {
            "value": ""
        },
        "actionType": {
            "value": "passive"
        },
        "actions": {
            "value": ""
        },
        "description": {
            "chat": "",
            "unidentified": "",
            "value": "<p>You are naturally suspicious and wary of danger, especially when you suspect someone might be leading you into an ambush. You gain a +1 circumstance bonus to AC and saves against hazards, and to all of your initiative rolls.</p>\n<p>If at least one of your opponents is using Deception or Diplomacy to determine their initiative, your bonus to initiative from this feat increases to +4.</p>"
        },
        "featType": {
            "value": "ancestry"
        },
        "level": {
            "value": "1"
        },
        "prerequisites": {
            "value": []
        },
        "rules": [],
        "source": {
            "value": ""
        },
        "traits": {
            "custom": "",
            "rarity": {
                "value": "common"
            },
            "value": [
                "goblin"
            ]
        }
    },
    "effects": [],
    "flags": {},
    "img": "systems/pf2e/icons/features/feats/feats.webp",
    "name": "Twitchy",
    "permission": {
        "default": 0
    },
    "type": "feat"
}
