{
    "_id": "tonJdHGheKZ16tMI",
    "data": {
        "actionCategory": {
            "value": ""
        },
        "actionType": {
            "value": "action"
        },
        "actions": {
            "value": "1"
        },
        "description": {
            "chat": "",
            "unidentified": "",
            "value": "<p>You can translate the emotion and power of a composition to other mediums. If your next action is to cast a composition spell, you can use a different kind of performance than usual for the composition to change any of its somatic components to verbal components or vice versa. As usual for composition spells, this changes whether the composition is auditory or visual.</p>"
        },
        "featType": {
            "value": "class"
        },
        "level": {
            "value": 10
        },
        "prerequisites": {
            "value": [
                {
                    "value": "polymath muse"
                }
            ]
        },
        "rules": [],
        "source": {
            "value": ""
        },
        "traits": {
            "custom": "",
            "rarity": {
                "value": "common"
            },
            "value": [
                "bard",
                "concentrate",
                "manipulate",
                "metamagic"
            ]
        }
    },
    "effects": [],
    "flags": {},
    "img": "systems/pf2e/icons/features/feats/feats.webp",
    "name": "Unusual Composition",
    "permission": {
        "default": 0
    },
    "type": "feat"
}
