{
    "_id": "gZ4VdWKr3ag2BAvF",
    "data": {
        "actionCategory": {
            "value": ""
        },
        "actionType": {
            "value": "passive"
        },
        "actions": {
            "value": ""
        },
        "description": {
            "chat": "",
            "unidentified": "",
            "value": "<p>Your runes provide a warding effect that protects you against a specific school of magic. Choose a school of magic other than divination. You gain a rune on your body corresponding to that school, and you gain a +2 circumstance bonus to all saving throws against effects of that school.</p>"
        },
        "featType": {
            "value": "archetype"
        },
        "level": {
            "value": "6"
        },
        "prerequisites": {
            "value": [
                {
                    "value": "Runescarred Dedication"
                }
            ]
        },
        "rules": [],
        "source": {
            "value": ""
        },
        "traits": {
            "custom": "",
            "rarity": {
                "value": "common"
            },
            "value": [
                "archetype"
            ]
        }
    },
    "effects": [],
    "flags": {},
    "img": "systems/pf2e/icons/features/feats/feats.webp",
    "name": "Warding Rune",
    "permission": {
        "default": 0
    },
    "type": "feat"
}
