{
    "_id": "yTUIiE9LXBZaA7aG",
    "data": {
        "actionCategory": {
            "value": ""
        },
        "actionType": {
            "value": "passive"
        },
        "actions": {
            "value": ""
        },
        "description": {
            "chat": "",
            "unidentified": "",
            "value": "<p><strong>Frequency</strong> once per day</p>\n<hr />\n<p>You carefully consider your case and narrow down some of the details. When you @Compendium[pf2e.actionspf2e.Pursue a Lead]{Pursue a Lead}, you can spend 10 minutes instead of 1 minute to ask two questions of the GM as you complete the activity.</p>\n<p>The GM must answer truthfully with \"yes\" or \"no,\" though if the answer would be misleading or have no practical application to your investigation the GM can answer \"immaterial.\" You can't use Whodunnit? more than once for the same lead, even across different days.</p>\n<p>Your questions must come from the following list, applying to either the creature or the clue you found:</p>\n<ul>\n<li>Was the clue left by a [creature trait]? (Choose a creature trait such as humanoid, undead, or dwarf; this trait must be accurate as of the time the clue was left.)</li>\n<li>Was this clue left within the last hour?</li>\n<li>Was this clue left within the last day?</li>\n<li>Was the creature that left the clue in a heightened emotional state when it left the clue?</li>\n<li>Did the creature attempt to conceal this clue?</li>\n</ul>"
        },
        "featType": {
            "value": "class"
        },
        "level": {
            "value": 8
        },
        "location": "",
        "prerequisites": {
            "value": []
        },
        "rules": [],
        "source": {
            "value": ""
        },
        "traits": {
            "custom": "",
            "rarity": {
                "value": "uncommon"
            },
            "value": [
                "investigator"
            ]
        }
    },
    "effects": [],
    "flags": {},
    "img": "systems/pf2e/icons/features/feats/feats.webp",
    "name": "Whodunnit?",
    "permission": {
        "default": 0
    },
    "type": "feat"
}
