{
    "_id": "u8gmBNHgb880vN3S",
    "data": {
        "actionCategory": {
            "value": ""
        },
        "actionType": {
            "value": "passive"
        },
        "actions": {
            "value": ""
        },
        "description": {
            "chat": "",
            "unidentified": "",
            "value": "<p><strong>Access</strong> Kellid ethnicity<br /></p>\n<hr />\n<p>You and your family have fought long and hard against witches, particularly the winter witches of Irrisen, and you've learned to be wary of their curses and the otherworldly powers their patrons grant. You gain a +1 circumstance bonus to saving throws against curses, and to saving throws against spells cast by a witch or hag. If you roll a success on a saving throw against a curse or a spell cast by a witch or hag, you get a critical success instead.</p>"
        },
        "featType": {
            "value": "ancestry"
        },
        "level": {
            "value": 1
        },
        "location": "",
        "prerequisites": {
            "value": []
        },
        "rules": [],
        "source": {
            "value": ""
        },
        "traits": {
            "custom": "",
            "rarity": {
                "value": "uncommon"
            },
            "value": [
                "human"
            ]
        }
    },
    "effects": [],
    "flags": {},
    "img": "systems/pf2e/icons/features/feats/feats.webp",
    "name": "Witch Warden",
    "permission": {
        "default": 0
    },
    "type": "feat"
}
