{
    "_id": "vfQ7TsScMBTNiznn",
    "data": {
        "actionCategory": {
            "value": ""
        },
        "actionType": {
            "value": "passive"
        },
        "actions": {
            "value": ""
        },
        "description": {
            "chat": "",
            "unidentified": "",
            "value": "<p><strong>Major Boon</strong>: Gozreh has blessed you with their wind in your stride. You gain a +30-foot status bonus to your Speeds, and you gain a @Compendium[pf2e.actionspf2e.Fly]{Fly} Speed equal to your land Speed.</p>"
        },
        "featType": {
            "value": "deityboon"
        },
        "level": {
            "value": "0"
        },
        "prerequisites": {
            "value": []
        },
        "rules": [],
        "source": {
            "value": ""
        },
        "traits": {
            "custom": "",
            "rarity": {
                "value": "common"
            },
            "selected": {},
            "value": []
        }
    },
    "effects": [],
    "flags": {},
    "img": "systems/pf2e/icons/deity/Gozreh.webp",
    "name": "Gozreh - Major Boon",
    "permission": {
        "default": 0
    },
    "type": "feat"
}
