{
    "_id": "zWshZRICuzP7DfFV",
    "data": {
        "actionCategory": {
            "value": ""
        },
        "actionType": {
            "value": "passive"
        },
        "actions": {
            "value": ""
        },
        "description": {
            "chat": "",
            "unidentified": "",
            "value": "<p><strong>Major Curse</strong>: All blades reject your wicked heart.</p>\n<p>Any weapon you wield automatically becomes broken after you Strike with it. This curse can't break artifacts or similarly powerful weapons.</p>"
        },
        "featType": {
            "value": "curse"
        },
        "level": {
            "value": "0"
        },
        "prerequisites": {
            "value": []
        },
        "rules": [],
        "source": {
            "value": ""
        },
        "traits": {
            "custom": "",
            "rarity": {
                "value": "common"
            },
            "selected": {},
            "value": []
        }
    },
    "effects": [],
    "flags": {},
    "img": "systems/pf2e/icons/deity/Iomedae.webp",
    "name": "Iomedae - Major Curse",
    "permission": {
        "default": 0
    },
    "type": "feat"
}
