{
    "_id": "eibN2Uf0dsHCU5rE",
    "data": {
        "actionCategory": {
            "value": ""
        },
        "actionType": {
            "value": "passive"
        },
        "actions": {
            "value": ""
        },
        "description": {
            "chat": "",
            "unidentified": "",
            "value": "<p><strong>Major Boon</strong>: Shadows are deeper around you. @Compendium[pf2e.ancestryfeatures.Darkvision]{Darkvision} and greater darkvision cannot penetrate darkness within 60 feet of you, but you can see through it normally.</p>"
        },
        "featType": {
            "value": "deityboon"
        },
        "level": {
            "value": "0"
        },
        "prerequisites": {
            "value": []
        },
        "rules": [],
        "source": {
            "value": ""
        },
        "traits": {
            "custom": "",
            "rarity": {
                "value": "common"
            },
            "selected": {},
            "value": []
        }
    },
    "effects": [],
    "flags": {},
    "img": "systems/pf2e/icons/deity/Zon-Kuthon.webp",
    "name": "Zon-Kuthon - Major Boon",
    "permission": {
        "default": 0
    },
    "type": "feat"
}
