{
    "_id": "Tdcv2q9zlXZBZRMT",
    "data": {
        "description": {
            "value": "<p>Granted by @Compendium[pf2e.spells-srd.Wild Morph]{Wild Morph}.</p>\n<p>Your hands transform into incredibly sharp claws. These claws are an unarmed attack you're trained in and deal 1d6 slashing damage each (agile, finesse).</p>"
        },
        "duration": {
            "expiry": "turn-start",
            "sustained": false,
            "unit": "minutes",
            "value": 1
        },
        "level": {
            "value": 1
        },
        "rules": [
            {
                "key": "PF2E.RuleElement.TokenEffectIcon"
            },
            {
                "category": "unarmed",
                "damage": {
                    "base": {
                        "damageType": "slashing",
                        "dice": 1,
                        "die": "d6"
                    }
                },
                "group": "brawling",
                "key": "PF2E.RuleElement.Strike",
                "label": "Claws",
                "range": "melee",
                "traits": [
                    "agile",
                    "finesse",
                    "unarmed"
                ]
            },
            {
                "ability": "str",
                "key": "PF2E.RuleElement.FixedProficiency",
                "selector": "attack",
                "value": "2+ @details.level.value"
            }
        ],
        "source": {
            "value": ""
        },
        "start": {
            "initiative": null,
            "value": 0
        },
        "target": null,
        "traits": {
            "custom": "",
            "rarity": {
                "value": "common"
            },
            "value": []
        }
    },
    "effects": [],
    "flags": {},
    "img": "systems/pf2e/icons/spells/wild-morph.webp",
    "name": "Spell Effect: Wild Morph (Wild Claws)",
    "permission": {
        "default": 0
    },
    "type": "effect"
}
