{
    "_id": "s6CwkSsMDGfUmotn",
    "data": {
        "description": {
            "value": "<p>Granted by @Compendium[pf2e.spells-srd.Death Ward]{Death Ward}.</p>\n<p>You are shielded from negative energy, you gain a +4 status bonus to saves against death and negative effects.</p>"
        },
        "duration": {
            "expiry": "turn-start",
            "sustained": false,
            "unit": "minutes",
            "value": 10
        },
        "level": {
            "value": 1
        },
        "rules": [
            {
                "key": "PF2E.RuleElement.TokenEffectIcon"
            },
            {
                "key": "PF2E.RuleElement.FlatModifier",
                "label": "Soothe",
                "predicate": {
                    "any": [
                        "negative",
                        "death"
                    ]
                },
                "selector": "saving-throw",
                "type": "status",
                "value": 4
            }
        ],
        "source": {
            "value": ""
        },
        "start": {
            "initiative": null,
            "value": 0
        },
        "target": null,
        "traits": {
            "custom": "",
            "rarity": {
                "value": "common"
            },
            "value": []
        }
    },
    "effects": [],
    "flags": {},
    "img": "systems/pf2e/icons/spells/death-ward.webp",
    "name": "Spell Effect: Death Ward",
    "permission": {
        "default": 0
    },
    "type": "effect"
}
