{
    "_id": "B6zSwNFJV3TMafHf",
    "data": {
        "description": {
            "value": "<p>Granted by @Compendium[pf2e.spells-srd.Protection]{Protection} when cast against lawful creatures.</p>\n<p>The target gains a +1 status bonus to Armor Class and saving throws against creatures and effects of the chosen alignment.</p>\n<p>This bonus increases to +3 against effects from such creatures that would directly control the target and against attacks made by summoned creatures of the chosen alignment.</p>"
        },
        "duration": {
            "expiry": "turn-start",
            "sustained": false,
            "unit": "minutes",
            "value": 1
        },
        "level": {
            "value": 1
        },
        "rules": [
            {
                "key": "PF2E.RuleElement.TokenEffectIcon"
            },
            {
                "key": "PF2E.RuleElement.ToggleProperty",
                "label": "Protection from Lawful",
                "property": "flags.pf2e.rollOptions.all.protection-lawful"
            },
            {
                "key": "PF2E.RuleElement.ToggleProperty",
                "label": "Protection from Lawful (direct control or summoned)",
                "property": "flags.pf2e.rollOptions.all.protection-lawful-enhanced"
            },
            {
                "key": "PF2E.RuleElement.FlatModifier",
                "label": "Protection from Lawful",
                "predicate": {
                    "any": [
                        "target:lawful",
                        "lawful",
                        "protection-lawful"
                    ]
                },
                "roll-options": [
                    "all"
                ],
                "selector": "ac",
                "type": "status",
                "value": 1
            },
            {
                "key": "PF2E.RuleElement.FlatModifier",
                "label": "Protection from Lawful",
                "predicate": {
                    "any": [
                        "target:lawful",
                        "lawful",
                        "protection-lawful"
                    ]
                },
                "roll-options": [
                    "all"
                ],
                "selector": "saving-throw",
                "type": "status",
                "value": 1
            },
            {
                "key": "PF2E.RuleElement.FlatModifier",
                "label": "Protection from Lawful (direct control or summoned)",
                "predicate": {
                    "any": [
                        "target:lawful",
                        "lawful",
                        "protection-lawful-enhanced"
                    ]
                },
                "roll-options": [
                    "all"
                ],
                "selector": "ac",
                "type": "status",
                "value": 3
            },
            {
                "key": "PF2E.RuleElement.FlatModifier",
                "label": "Protection from Lawful (direct control or summoned)",
                "predicate": {
                    "any": [
                        "target:lawful",
                        "lawful",
                        "protection-lawful-enhanced"
                    ]
                },
                "roll-options": [
                    "all"
                ],
                "selector": "saving-throw",
                "type": "status",
                "value": 3
            }
        ],
        "source": {
            "value": ""
        },
        "start": {
            "initiative": null,
            "value": 0
        },
        "target": null,
        "traits": {
            "custom": "",
            "rarity": {
                "value": "common"
            },
            "value": []
        }
    },
    "effects": [],
    "flags": {},
    "img": "systems/pf2e/icons/spells/protection.webp",
    "name": "Spell Effect: Protection from Lawful",
    "permission": {
        "default": 0
    },
    "type": "effect"
}
