{
    "_id": "542Keo6txtq7uvqe",
    "data": {
        "description": {
            "chat": "",
            "unidentified": "",
            "value": "<p>Granted by casting @Compendium[pf2e.spells-srd.Dinosaur Form]{Dinosaur Form}.</p>\n<p>You channel the primal forces of nature to transform into a Large animal battle form, specifically that of a powerful and terrifying dinosaur. You must have space to expand or the spell is lost.</p>\n<p>You can decide the specific type of animal, but this has no effect on the form's Size or statistics. While in this form, you gain the animal and dinosaur traits. You can Dismiss the spell.</p>\n<p>You gain the following statistics and abilities regardless of which battle form you choose:</p>\n<ul>\n<li>AC = 18 + your level. Ignore your armor's check penalty and Speed reduction.</li>\n<li>15 temporary Hit Points.</li>\n<li>Low-light vision and imprecise scent 30 feet.</li>\n<li>One or more unarmed melee attacks specific to the battle form you choose, which are the only attacks you can use. You're trained with them. Your attack modifier is +16, and your damage bonus is +9. These attacks are Strength based (for the purpose of the @Compendium[pf2e.conditionitems.Enfeebled]{Enfeebled} condition, for example). If your unarmed attack modifier is higher, you can use it instead.</li>\n<li>Athletics modifier of +18, unless your own modifier is higher.</li>\n</ul>\n<p>You also gain specific abilities based on the form you choose:</p>\n<ul>\n<li><strong>Tyrannosaurus</strong>\n<ul>\n<li>Speed 30 feet;</li>\n<li><strong>Melee</strong> <span class=\"pf2-icon\">1</span> jaws (deadly, reach 10 feet), Damage 1d12 piercing;</li>\n<li><strong>Melee</strong> <span class=\"pf2-icon\">1</span> tail (reach 10 feet), Damage 1d10 bludgeoning.</li>\n</ul>\n</li>\n</ul>\n<hr />\n<p><strong>Heightened (5th)</strong> Your battle form is Huge and your attacks have 15-foot reach, or 20-foot reach if they started with 15-foot reach. You instead gain 20 temporary HP, an attack modifier of +18, a damage bonus of +6, double the damage dice, and Athletics +21.</p>\n<p><strong>Heightened (7th)</strong> Your battle form is Gargantuan and your attacks have 20-foot reach, or 25-foot reach if they started with 15-foot reach. You instead gain AC = 21 + your level, 25 temporary HP, an attack modifier of +25, a damage bonus of +15, double the damage dice, and Athletics +25.</p>\n<hr />\n<p><em>Note: To heighten this effect, import it into your Item Directory and edit the level before adding it to the target</em></p>"
        },
        "duration": {
            "expiry": "turn-start",
            "sustained": false,
            "unit": "minutes",
            "value": 1
        },
        "level": {
            "value": 4
        },
        "rules": [
            {
                "key": "PF2E.RuleElement.FixedProficiency",
                "label": "Dinosaur Form",
                "roll-options": [
                    "ac",
                    "all"
                ],
                "selector": "ac",
                "type": "polymorph",
                "value": {
                    "brackets": [
                        {
                            "end": 6,
                            "start": 4,
                            "value": "18 + @details.level.value"
                        },
                        {
                            "start": 7,
                            "value": "21 + @details.level.value"
                        }
                    ],
                    "field": "item|data.level.value"
                }
            },
            {
                "key": "PF2E.RuleElement.TempHP",
                "label": "Dinosaur Form",
                "value": {
                    "brackets": [
                        {
                            "end": 4,
                            "start": 4,
                            "value": 15
                        },
                        {
                            "end": 6,
                            "start": 5,
                            "value": 20
                        },
                        {
                            "start": 7,
                            "value": 25
                        }
                    ],
                    "field": "item|data.level.value"
                }
            },
            {
                "key": "PF2E.RuleElement.Sense",
                "label": "PF2E.SensesLowLightVision",
                "selector": "lowLightVision"
            },
            {
                "acuity": "imprecise",
                "key": "PF2E.RuleElement.Sense",
                "label": "PF2E.SensesScent",
                "range": 30,
                "selector": "scent"
            },
            {
                "ability": "str",
                "key": "PF2E.RuleElement.FixedProficiency",
                "label": "Dinosaur Form",
                "selector": "attack",
                "value": {
                    "brackets": [
                        {
                            "end": 4,
                            "start": 4,
                            "value": 16
                        },
                        {
                            "end": 6,
                            "start": 5,
                            "value": 18
                        },
                        {
                            "start": 7,
                            "value": 25
                        }
                    ],
                    "field": "item|data.level.value"
                }
            },
            {
                "ability": "str",
                "key": "PF2E.RuleElement.FixedProficiency",
                "label": "Dinosaur Form",
                "roll-options": [
                    "all"
                ],
                "selector": "damage",
                "value": {
                    "brackets": [
                        {
                            "end": 4,
                            "start": 4,
                            "value": 9
                        },
                        {
                            "end": 6,
                            "start": 5,
                            "value": 6
                        },
                        {
                            "start": 7,
                            "value": 15
                        }
                    ],
                    "field": "item|data.level.value"
                }
            },
            {
                "key": "PF2E.RuleElement.FixedProficiency",
                "label": "Dinosaur Form",
                "roll-options": [
                    "all"
                ],
                "selector": "athletics",
                "value": {
                    "brackets": [
                        {
                            "end": 4,
                            "start": 4,
                            "value": 18
                        },
                        {
                            "end": 6,
                            "start": 5,
                            "value": 21
                        },
                        {
                            "start": 7,
                            "value": 25
                        }
                    ],
                    "field": "item|data.level.value"
                }
            },
            {
                "key": "PF2E.RuleElement.TokenSize",
                "value": {
                    "brackets": [
                        {
                            "end": 4,
                            "start": 4,
                            "value": 2
                        },
                        {
                            "end": 6,
                            "start": 5,
                            "value": 3
                        },
                        {
                            "start": 7,
                            "value": 4
                        }
                    ],
                    "field": "item|data.level.value"
                }
            },
            {
                "key": "PF2E.RuleElement.BaseSpeed",
                "selector": "land-speed",
                "value": 30
            },
            {
                "category": "unarmed",
                "damage": {
                    "base": {
                        "damageType": "piercing",
                        "dice": 1,
                        "die": "d12"
                    }
                },
                "group": "brawling",
                "key": "PF2E.RuleElement.Strike",
                "label": "Tyrannosaurus Jaws",
                "range": "melee",
                "traits": [
                    "melee",
                    "deadly-d12",
                    "reach-10"
                ]
            },
            {
                "category": "unarmed",
                "damage": {
                    "base": {
                        "damageType": "bludgeoning",
                        "dice": 1,
                        "die": "d10"
                    }
                },
                "group": "brawling",
                "key": "PF2E.RuleElement.Strike",
                "label": "Tyrannosaurus Tail",
                "range": "melee",
                "traits": [
                    "melee",
                    "reach-10"
                ]
            },
            {
                "critical": false,
                "key": "PF2E.RuleElement.DamageDice",
                "label": "Dinosaur Form",
                "selector": "damage",
                "value": {
                    "brackets": [
                        {
                            "start": 5,
                            "value": {
                                "diceNumber": 1
                            }
                        }
                    ],
                    "field": "item|data.level.value"
                }
            },
            {
                "key": "PF2E.RuleElement.TokenEffectIcon"
            },
            {
                "key": "PF2E.RuleElement.SetProperty",
                "on": {
                    "added": true,
                    "removed": false
                },
                "property": "flags.pf2e.rollOptions.all.polymorph",
                "retain": true
            }
        ],
        "source": {
            "value": ""
        },
        "start": {
            "initiative": null,
            "value": 0
        },
        "target": null,
        "traits": {
            "custom": "",
            "rarity": {
                "value": "common"
            },
            "value": []
        }
    },
    "effects": [],
    "flags": {},
    "img": "systems/pf2e/icons/spells/dinosaur-form.webp",
    "name": "Spell Effect: Dinosaur Form (Tyrannosaurus)",
    "permission": {
        "default": 0
    },
    "type": "effect"
}
