{
    "_id": "LXf1Cqi1zyo4DaLv",
    "data": {
        "description": {
            "value": "<p>Granted by @Compendium[pf2e.spells-srd.Shrink]{Shrink}</p>\n<p>You warp space to make a creature smaller. The target shrinks to become Tiny in size. Its equipment shrinks with it but returns to its original size if removed. The creature's reach changes to 0 feet. This spell has no effect on a Tiny creature.</p>"
        },
        "duration": {
            "expiry": "turn-start",
            "sustained": false,
            "unit": "minutes",
            "value": 5
        },
        "level": {
            "value": 2
        },
        "rules": [
            {
                "key": "PF2E.RuleElement.TokenSize",
                "value": "tiny"
            },
            {
                "key": "PF2E.RuleElement.TokenEffectIcon"
            }
        ],
        "source": {
            "value": ""
        },
        "start": {
            "initiative": null,
            "value": 0
        },
        "target": null,
        "traits": {
            "custom": "",
            "rarity": {
                "value": "common"
            },
            "value": []
        }
    },
    "effects": [],
    "flags": {},
    "img": "systems/pf2e/icons/spells/shrink.webp",
    "name": "Spell Effect: Shrink",
    "permission": {
        "default": 0
    },
    "type": "effect"
}
