{
    "_id": "qlz0sJIvqc0FdUdr",
    "data": {
        "description": {
            "value": "<p>Granted by @Compendium[pf2e.spells-srd.Weapon Surge]{Weapon Surge} when applied to a weapon without a major striking rune.</p>\n<p>On your next Strike with that weapon before the start of your next turn, you gain a +1 status bonus to the attack roll and the weapon deals an additional die of damage.</p>\n<p>If the weapon has a striking rune, this instead increases the number of dice from the striking rune by 1 (to a maximum of 3 extra weapon dice).</p>"
        },
        "duration": {
            "expiry": "turn-start",
            "sustained": false,
            "unit": "unlimited",
            "value": -1
        },
        "level": {
            "value": 1
        },
        "rules": [
            {
                "key": "PF2E.RuleElement.TokenEffectIcon"
            },
            {
                "key": "PF2E.RuleElement.EffectTarget",
                "scope": "weapon"
            },
            {
                "key": "PF2E.RuleElement.FlatModifier",
                "selector": "{item|data.target}-attack",
                "type": "status",
                "value": 1
            },
            {
                "diceNumber": 1,
                "key": "PF2E.RuleElement.DamageDice",
                "selector": "{item|data.target}-damage"
            }
        ],
        "source": {
            "value": ""
        },
        "start": {
            "initiative": null,
            "value": 0
        },
        "target": null,
        "traits": {
            "custom": "",
            "rarity": {
                "value": "common"
            },
            "value": []
        }
    },
    "effects": [],
    "flags": {},
    "img": "systems/pf2e/icons/spells/weapon-surge.webp",
    "name": "Spell Effect: Weapon Surge",
    "permission": {
        "default": 0
    },
    "type": "effect"
}
