{
    "_id": "GhNVAYtoF5hK3AlD",
    "data": {
        "description": {
            "value": "<p>Granted by failing the save against @Compendium[pf2e.spells-srd.Touch of Corruption]{Touch of Corruption}.</p>"
        },
        "duration": {
            "expiry": "turn-start",
            "sustained": false,
            "unit": "rounds",
            "value": 1
        },
        "level": {
            "value": 1
        },
        "rules": [
            {
                "key": "PF2E.RuleElement.FlatModifier",
                "label": "Touch of Corruption",
                "selector": "ac",
                "type": "status",
                "value": -2
            },
            {
                "key": "PF2E.RuleElement.TokenEffectIcon"
            }
        ],
        "source": {
            "value": ""
        },
        "start": {
            "initiative": null,
            "value": 0
        },
        "target": null,
        "traits": {
            "custom": "",
            "rarity": {
                "value": "common"
            },
            "value": []
        }
    },
    "effects": [],
    "flags": {},
    "img": "systems/pf2e/icons/spells/touch-of-corruption.webp",
    "name": "Spell Effect: Touch of Corruption",
    "permission": {
        "default": 0
    },
    "type": "effect"
}
