{
    "_id": "PQHP7Oph3BQX1GhF",
    "data": {
        "description": {
            "value": "<p>Granted by @Compendium[pf2e.spells-srd.Longstrider]{Longstrider}</p>\n<p>You gain a +10-foot status bonus to your Speed.</p>"
        },
        "duration": {
            "expiry": "turn-start",
            "sustained": false,
            "unit": "hours",
            "value": 1
        },
        "level": {
            "value": 1
        },
        "rules": [
            {
                "key": "PF2E.RuleElement.FlatModifier",
                "selector": "land-speed",
                "type": "status",
                "value": 10
            },
            {
                "key": "PF2E.RuleElement.TokenEffectIcon"
            }
        ],
        "source": {
            "value": ""
        },
        "start": {
            "initiative": null,
            "value": 0
        },
        "target": null,
        "traits": {
            "custom": "",
            "rarity": {
                "value": "common"
            },
            "value": []
        }
    },
    "effects": [],
    "flags": {},
    "img": "systems/pf2e/icons/spells/longstrider.webp",
    "name": "Spell Effect: Longstrider",
    "permission": {
        "default": 0
    },
    "type": "effect"
}
