{
    "_id": "HXiA7x1jWnB1BqUy",
    "data": {
        "attributes": {
            "ac": {
                "value": 10
            },
            "hardness": 0,
            "hasHealth": false,
            "hp": {
                "details": "",
                "max": 0,
                "temp": 0,
                "tempmax": 0,
                "value": 0
            },
            "stealth": {
                "details": "<p>(trained)</p>",
                "value": 11
            }
        },
        "creatureType": "",
        "details": {
            "description": "<p>A summoning circle inlaid into the room's floor detects living creatures and summons a violent devil.</p>",
            "disable": "<p>DC 18 Perception to notice the trap's magic and avoid stepping on the floor outside the circle, followed by DC 21 Thievery (trained) to break the circle or @Compendium[pf2e.spells-srd.Dispel Magic]{Dispel Magic} (3rd level; counteract DC 23) to counteract the rune</p>",
            "isComplex": true,
            "level": 5,
            "reset": "<p>The trap resets each day at dawn.</p>",
            "routine": ""
        },
        "flavourText": "",
        "recallKnowledgeText": "",
        "saves": {
            "fortitude": {
                "rank": 0,
                "saveDetail": "",
                "value": 0
            },
            "reflex": {
                "rank": 0,
                "saveDetail": "",
                "value": 0
            },
            "will": {
                "rank": 0,
                "saveDetail": "",
                "value": 0
            }
        },
        "schema": {
            "version": {
                "value": ""
            }
        },
        "sidebarText": "",
        "source": {
            "value": ""
        },
        "statusEffects": [],
        "traits": {
            "ci": [],
            "di": {
                "custom": "",
                "selected": {},
                "value": []
            },
            "dr": [],
            "dv": [],
            "rarity": {
                "value": "common"
            },
            "size": {
                "value": "med"
            },
            "traits": {
                "custom": "",
                "value": [
                    "magical",
                    "trap"
                ]
            }
        }
    },
    "effects": [],
    "flags": {},
    "img": "systems/pf2e/icons/default-icons/hazard.svg",
    "items": [
        {
            "_id": "i0POO0dwNFDOcYuV",
            "data": {
                "actionCategory": {
                    "value": ""
                },
                "actionType": {
                    "value": "reaction"
                },
                "actions": {
                    "value": ""
                },
                "description": {
                    "chat": "",
                    "unidentified": "",
                    "value": "<p><strong>Trigger</strong> A living creature steps on any part of the floor not enclosed by the summoning circle;</p>\n<p><strong>Effect</strong> One round after a creature touches the triggering area, the door to the room slams shut and locks (two DC 20 Thievery checks to pick) and a @Compendium[pf2e.pathfinder-bestiary.Barbazu]{Barbazu} devil appears in the summoning circle.</p>\n<p>The devil rolls initiative and remains for [[/br 3d6 #rounds]] rounds, after which the spell ends and the devil disappears. The devil also disappears if someone disables the trap before the duration expires.</p>\n<p>The summoned devil can use 3 actions each round and can use reactions, unlike most summoned creatures.</p>"
                },
                "requirements": {
                    "value": ""
                },
                "rules": [],
                "slug": null,
                "source": {
                    "value": ""
                },
                "traits": {
                    "custom": "",
                    "rarity": {
                        "value": "common"
                    },
                    "value": [
                        "arcane",
                        "conjuration",
                        "summon"
                    ]
                },
                "trigger": {
                    "value": ""
                },
                "usage": {
                    "value": "held-in-one-hand"
                },
                "weapon": {
                    "value": ""
                }
            },
            "effects": [],
            "flags": {},
            "img": "systems/pf2e/icons/actions/Reaction.webp",
            "name": "Summon Devil",
            "sort": 100000,
            "type": "action"
        }
    ],
    "name": "Summoning Rune (Barbazu Devil)",
    "permission": {
        "default": 0
    },
    "token": {
        "actorId": "HXiA7x1jWnB1BqUy",
        "actorLink": false,
        "bar1": {
            "attribute": "attributes.hp"
        },
        "bar2": {},
        "brightLight": 0,
        "brightSight": 0,
        "dimLight": 0,
        "dimSight": 0,
        "displayBars": 20,
        "displayName": 20,
        "disposition": 0,
        "flags": {},
        "height": 1,
        "img": "systems/pf2e/icons/default-icons/hazard.svg",
        "lightAlpha": 1,
        "lightAngle": 360,
        "lightAnimation": {
            "intensity": 5,
            "speed": 5
        },
        "lockRotation": false,
        "name": "Summoning Rune (Barbazu Devil)",
        "randomImg": false,
        "rotation": 0,
        "scale": 1,
        "sightAngle": 360,
        "tint": null,
        "vision": false,
        "width": 1
    },
    "type": "hazard"
}
