{
    "_id": "LACpbwnVT7m2ZqBi",
    "data": {
        "attributes": {
            "ac": {
                "value": 43
            },
            "hardness": 15,
            "hasHealth": true,
            "hp": {
                "details": "",
                "max": 250,
                "temp": 0,
                "tempmax": 0,
                "value": 250
            },
            "stealth": {
                "details": "(master)",
                "value": 31
            }
        },
        "creatureType": "",
        "details": {
            "description": "A large metallic arm, 20 feet long, is set into the floor. It rotates around the room to wind up nearby clockwork creatures.",
            "disable": "DC 50 Thievery (master) to deactivate the system, or DC 40 Athletics (legendary) to jam the gears for 1 round",
            "isComplex": true,
            "level": 19,
            "reset": "The Winder resets as soon as no creatures remain in the room.",
            "routine": "(1, 2, or 4 actions, depending on the encounter's threat level) The Winder uses each of its actions to Wind clockwork assassins in the room, starting with inactive ones."
        },
        "flavourText": "",
        "recallKnowledgeText": "",
        "saves": {
            "fortitude": {
                "rank": 0,
                "saveDetail": "",
                "value": 32
            },
            "reflex": {
                "rank": 0,
                "saveDetail": "",
                "value": 35
            },
            "will": {
                "rank": 0,
                "saveDetail": "",
                "value": 0
            }
        },
        "schema": {
            "version": {
                "value": ""
            }
        },
        "sidebarText": "",
        "source": {
            "value": ""
        },
        "statusEffects": [],
        "traits": {
            "ci": [],
            "di": {
                "custom": "",
                "selected": {},
                "value": [
                    "critical-hits",
                    "object-immunities",
                    "precision"
                ]
            },
            "dr": [],
            "dv": [],
            "rarity": {
                "value": "common"
            },
            "size": {
                "value": "med"
            },
            "traits": {
                "custom": "",
                "value": [
                    "environmental",
                    "mechanical"
                ]
            }
        }
    },
    "effects": [],
    "flags": {},
    "img": "systems/pf2e/icons/default-icons/hazard.svg",
    "items": [
        {
            "_id": "Wc0IrjjTSicQkUfW",
            "data": {
                "actionCategory": {
                    "value": "offensive"
                },
                "actionType": {
                    "value": "reaction"
                },
                "actions": {
                    "value": ""
                },
                "description": {
                    "chat": "",
                    "unidentified": "",
                    "value": "<p><strong>Trigger</strong> A creature other than the Rumormonger enters the room, or the Rumormonger commands the device to activate; <strong>Effect</strong> The Winder rolls initiative.</p>"
                },
                "requirements": {
                    "value": ""
                },
                "rules": [],
                "slug": null,
                "source": {
                    "value": ""
                },
                "traits": {
                    "custom": "",
                    "rarity": {
                        "value": "common"
                    },
                    "value": []
                },
                "trigger": {
                    "value": ""
                },
                "usage": {
                    "value": "held-in-one-hand"
                },
                "weapon": {
                    "value": ""
                }
            },
            "effects": [],
            "flags": {},
            "img": "systems/pf2e/icons/actions/Reaction.webp",
            "name": "Wind Up",
            "sort": 100000,
            "type": "action"
        },
        {
            "_id": "IlMxWLhPQQrxWb4s",
            "data": {
                "actionCategory": {
                    "value": "offensive"
                },
                "actionType": {
                    "value": "action"
                },
                "actions": {
                    "value": "1"
                },
                "description": {
                    "chat": "",
                    "unidentified": "",
                    "value": "<p>The Winder winds a clockwork creature in the room. If the creature is currently inactive, this activates the creature, allowing it to act normally for 1d4 rounds. If already active, this instead increases the number of rounds the clockwork creature remains active by 1d4.</p>"
                },
                "requirements": {
                    "value": ""
                },
                "rules": [],
                "slug": null,
                "source": {
                    "value": ""
                },
                "traits": {
                    "custom": "",
                    "rarity": {
                        "value": "common"
                    },
                    "value": []
                },
                "trigger": {
                    "value": ""
                },
                "usage": {
                    "value": "held-in-one-hand"
                },
                "weapon": {
                    "value": ""
                }
            },
            "effects": [],
            "flags": {},
            "img": "systems/pf2e/icons/actions/OneAction.webp",
            "name": "Wind",
            "sort": 200000,
            "type": "action"
        }
    ],
    "name": "The Winder",
    "permission": {
        "default": 0
    },
    "token": {
        "actorId": "LACpbwnVT7m2ZqBi",
        "actorLink": false,
        "bar1": {
            "attribute": "attributes.hp"
        },
        "bar2": {},
        "brightLight": 0,
        "brightSight": 0,
        "dimLight": 0,
        "dimSight": 0,
        "displayBars": 20,
        "displayName": 20,
        "disposition": 0,
        "flags": {},
        "height": 1,
        "img": "systems/pf2e/icons/default-icons/hazard.svg",
        "lightAlpha": 1,
        "lightAngle": 360,
        "lightAnimation": {
            "intensity": 5,
            "speed": 5
        },
        "lockRotation": false,
        "name": "The Winder",
        "randomImg": false,
        "rotation": 0,
        "scale": 1,
        "sightAngle": 360,
        "tint": null,
        "vision": false,
        "width": 1
    },
    "type": "hazard"
}
