{
    "_id": "z5G0o04uV65zyxDB",
    "data": {
        "actionCategory": {
            "value": ""
        },
        "actionType": {
            "value": "passive"
        },
        "actions": {
            "value": ""
        },
        "description": {
            "chat": "",
            "unidentified": "",
            "value": "<p>You've mastered your arsenal of champion techniques and divine spells. Your proficiency ranks for your champion class DC and for divine spell attack rolls and spell DCs increase to master.</p>"
        },
        "featType": {
            "value": "classfeature"
        },
        "level": {
            "value": 17
        },
        "location": "",
        "prerequisites": {
            "value": []
        },
        "rules": [],
        "source": {
            "value": ""
        },
        "traits": {
            "custom": "",
            "rarity": {
                "value": "common"
            },
            "value": [
                "champion"
            ]
        }
    },
    "effects": [
        {
            "_id": "tyH5EF2wHvUKnrYm",
            "changes": [
                {
                    "key": "data.attributes.classDC.rank",
                    "mode": 4,
                    "value": 3
                }
            ],
            "disabled": false,
            "duration": {
                "rounds": null,
                "seconds": null,
                "startRound": null,
                "startTime": null,
                "startTurn": null,
                "turns": null
            },
            "flags": {},
            "icon": "systems/pf2e/icons/features/classes/champion-mastery.webp",
            "label": "Champion Mastery",
            "origin": "",
            "tint": "",
            "transfer": true
        }
    ],
    "flags": {},
    "img": "systems/pf2e/icons/features/classes/champion-mastery.webp",
    "name": "Champion Mastery",
    "permission": {
        "default": 0
    },
    "type": "feat"
}
