{
    "_id": "70jqXP2eS4tRZ0Ok",
    "data": {
        "actionCategory": {
            "value": ""
        },
        "actionType": {
            "value": "passive"
        },
        "actions": {
            "value": ""
        },
        "description": {
            "chat": "",
            "unidentified": "",
            "value": "<p><strong>Sorcerer</strong>: Magical power has improved your body's resiliency. Your proficiency rank for Fortitude saves increases to expert.</p>\n<hr />\n<p><strong>Witch</strong>: Your patron's power boosts your physical resiliency. Your proficiency rank for Fortitude saves increases to expert.</p>"
        },
        "featType": {
            "value": "classfeature"
        },
        "level": {
            "value": 5
        },
        "location": "",
        "prerequisites": {
            "value": []
        },
        "rules": [],
        "source": {
            "value": ""
        },
        "traits": {
            "custom": "",
            "rarity": {
                "value": "common"
            },
            "value": [
                "sorcerer",
                "witch"
            ]
        }
    },
    "effects": [
        {
            "_id": "X5g3nvp4tKj6mnTF",
            "changes": [
                {
                    "key": "data.saves.fortitude.rank",
                    "mode": 4,
                    "value": 2
                }
            ],
            "disabled": false,
            "duration": {
                "rounds": null,
                "seconds": null,
                "startRound": null,
                "startTime": null,
                "startTurn": null,
                "turns": null
            },
            "flags": {},
            "icon": "systems/pf2e/icons/features/classes/magical-fortitude.webp",
            "label": "Magical Fortitude (Level 5)",
            "origin": "",
            "tint": "",
            "transfer": true
        }
    ],
    "flags": {},
    "img": "systems/pf2e/icons/features/classes/magical-fortitude.webp",
    "name": "Magical Fortitude (Level 5)",
    "permission": {
        "default": 0
    },
    "type": "feat"
}
