{
    "_id": "fzvIe6FwwCuIdnjX",
    "data": {
        "actionCategory": {
            "value": ""
        },
        "actionType": {
            "value": "passive"
        },
        "actions": {
            "value": ""
        },
        "description": {
            "chat": "",
            "unidentified": "",
            "value": "<p>You have learned how to create perpetual alchemical infusions that can provide a near-infinite supply of certain simple items. You gain the ability to create two 1st-level alchemical items using Quick Alchemy without spending a batch of infused reagents. The items you can select depend on your research field and must be in your formula book.</p>\n<hr />\n<p>@Compendium[pf2e.equipment-srd.Antidote (Lesser)]{Lesser Antidote} and @Compendium[pf2e.equipment-srd.Antiplague (Lesser)]{Lesser Antiplague}.</p>"
        },
        "featType": {
            "value": "classfeature"
        },
        "level": {
            "value": 7
        },
        "prerequisites": {
            "value": []
        },
        "rules": [],
        "source": {
            "value": ""
        },
        "traits": {
            "custom": "",
            "rarity": {
                "value": "common"
            },
            "value": [
                "alchemist"
            ]
        }
    },
    "effects": [],
    "flags": {},
    "img": "systems/pf2e/icons/features/classes/perpetual-infusions-chirurgeon.webp",
    "name": "Perpetual Infusions (Chirurgeon)",
    "permission": {
        "default": 0
    },
    "type": "feat"
}
