{
    "_id": "gmnx7e1g08bppbqt",
    "data": {
        "actionCategory": {
            "value": ""
        },
        "actionType": {
            "value": "passive"
        },
        "actions": {
            "value": ""
        },
        "description": {
            "chat": "",
            "unidentified": "",
            "value": "<h2 class=\"title\">Sorcerer Spellcasting</h2>\n<p>Your bloodline provides you with incredible magical power. You can cast spells using the Cast a Spell activity, and you can supply material, somatic, and verbal components when casting spells (see Casting Spells on page 302). Because you're a sorcerer, you can usually replace material components with somatic components, so you don't need to use a spell component pouch.<br /><br />Each day, you can cast up to three 1st-level spells. You must know spells to cast them, and you learn them via the spell repertoire class feature. The number of spells you can cast each day is called your spell slots.<br /><br />As you increase in level as a sorcerer, your number of spells per day increases, as does the highest level of spells you can cast, as shown on Table 3-17: Sorcerer Spells per Day on page 193.<br /><br />Some of your spells require you to attempt a spell attack roll to see how effective they are, or have your enemies roll against your spell DC (typically by attempting a saving throw). Since your key ability is Charisma, your spell attack rolls and spell DCs use your Charisma modifier. Details on calculating these statistics appear on page 447.</p>\n<h3 class=\"title\"><strong>Heightening Spells</strong></h3>\n<p>When you get spell slots of 2nd level and higher, you can fill those slots with stronger versions of lower-level spells. This increases the spell's level to match the spell slot. You must have a spell in your spell repertoire at the level you want to cast in order to heighten it to that level. Many spells have specific improvements when they are heightened to certain levels (page 299). The signature spells class feature lets you heighten certain spells freely.</p>\n<h3 class=\"title\"><strong>Cantrips</strong></h3>\n<p>A cantrip is a special type of spell that doesn't use spell slots. You can cast a cantrip at will, any number of times per day. A cantrip is always automatically heightened to half your level rounded up-this is usually equal to the highest level of spell you can cast as a sorcerer. For example, as a 1st-level sorcerer, your cantrips are 1st-level spells, and as a 5th-level sorcerer, your cantrips are 3rd-level spells.</p>\n<table style=\"box-sizing: border-box; user-select: text; width: 1001px; color: #191813; height: 381px;\" border=\"1\">\n<tbody style=\"box-sizing: border-box; user-select: text;\">\n<tr style=\"box-sizing: border-box; user-select: text; height: 17px;\">\n<td style=\"box-sizing: border-box; user-select: text; color: white; width: 139px; height: 17px; background-color: #522e2c; text-align: center;\"><strong style=\"box-sizing: border-box; user-select: text;\">Your Level</strong></td>\n<td style=\"box-sizing: border-box; user-select: text; color: white; height: 17px; background-color: #522e2c; text-align: center; width: 171px;\"><strong style=\"box-sizing: border-box; user-select: text;\">Cantrips</strong></td>\n<td style=\"box-sizing: border-box; user-select: text; color: white; width: 68px; height: 17px; background-color: #522e2c; text-align: center;\"><strong style=\"box-sizing: border-box; user-select: text;\">1st</strong></td>\n<td style=\"box-sizing: border-box; user-select: text; color: white; width: 69px; height: 17px; background-color: #522e2c; text-align: center;\"><strong style=\"box-sizing: border-box; user-select: text;\">2nd</strong></td>\n<td style=\"box-sizing: border-box; user-select: text; color: white; width: 68px; height: 17px; background-color: #522e2c; text-align: center;\"><strong style=\"box-sizing: border-box; user-select: text;\">3rd</strong></td>\n<td style=\"box-sizing: border-box; user-select: text; color: white; width: 68px; height: 17px; background-color: #522e2c; text-align: center;\"><strong style=\"box-sizing: border-box; user-select: text;\">4th</strong></td>\n<td style=\"box-sizing: border-box; user-select: text; color: white; width: 68px; height: 17px; background-color: #522e2c; text-align: center;\"><strong style=\"box-sizing: border-box; user-select: text;\">5th</strong></td>\n<td style=\"box-sizing: border-box; user-select: text; color: white; width: 68px; height: 17px; background-color: #522e2c; text-align: center;\"><strong style=\"box-sizing: border-box; user-select: text;\">6th</strong></td>\n<td style=\"box-sizing: border-box; user-select: text; color: white; width: 69px; height: 17px; background-color: #522e2c; text-align: center;\"><strong style=\"box-sizing: border-box; user-select: text;\">7th</strong></td>\n<td style=\"box-sizing: border-box; user-select: text; color: white; width: 69px; height: 17px; background-color: #522e2c; text-align: center;\"><strong style=\"box-sizing: border-box; user-select: text;\">8th</strong></td>\n<td style=\"box-sizing: border-box; user-select: text; color: white; width: 69px; height: 17px; background-color: #522e2c; text-align: center;\"><strong style=\"box-sizing: border-box; user-select: text;\">9th</strong></td>\n<td style=\"box-sizing: border-box; user-select: text; color: white; width: 74px; height: 17px; background-color: #522e2c; text-align: center;\"><strong style=\"box-sizing: border-box; user-select: text;\">10th</strong></td>\n</tr>\n<tr style=\"box-sizing: border-box; user-select: text; height: 17px;\">\n<td style=\"box-sizing: border-box; user-select: text; width: 139px; height: 17px; background-color: #f6f1e1; text-align: center;\">1</td>\n<td style=\"box-sizing: border-box; user-select: text; width: 171px; height: 17px; background-color: #f6f1e1; text-align: center;\">5</td>\n<td style=\"box-sizing: border-box; user-select: text; width: 68px; height: 17px; background-color: #f6f1e1; text-align: center;\">3</td>\n<td style=\"box-sizing: border-box; user-select: text; width: 69px; height: 17px; background-color: #f6f1e1; text-align: center;\">-</td>\n<td style=\"box-sizing: border-box; user-select: text; width: 68px; height: 17px; background-color: #f6f1e1; text-align: center;\">-</td>\n<td style=\"box-sizing: border-box; user-select: text; width: 68px; height: 17px; background-color: #f6f1e1; text-align: center;\">-</td>\n<td style=\"box-sizing: border-box; user-select: text; width: 68px; height: 17px; background-color: #f6f1e1; text-align: center;\">-</td>\n<td style=\"box-sizing: border-box; user-select: text; width: 68px; height: 17px; background-color: #f6f1e1; text-align: center;\">-</td>\n<td style=\"box-sizing: border-box; user-select: text; width: 69px; height: 17px; background-color: #f6f1e1; text-align: center;\">-</td>\n<td style=\"box-sizing: border-box; user-select: text; width: 69px; height: 17px; background-color: #f6f1e1; text-align: center;\">-</td>\n<td style=\"box-sizing: border-box; user-select: text; width: 69px; height: 17px; background-color: #f6f1e1; text-align: center;\">-</td>\n<td style=\"box-sizing: border-box; user-select: text; width: 74px; height: 17px; background-color: #f6f1e1; text-align: center;\">-</td>\n</tr>\n<tr style=\"box-sizing: border-box; user-select: text; height: 17px;\">\n<td style=\"box-sizing: border-box; user-select: text; width: 139px; background-color: #eee5c8; height: 17px; text-align: center;\">2</td>\n<td style=\"box-sizing: border-box; user-select: text; width: 171px; background-color: #eee5c8; height: 17px; text-align: center;\">5</td>\n<td style=\"box-sizing: border-box; user-select: text; width: 68px; background-color: #eee5c8; height: 17px; text-align: center;\">4</td>\n<td style=\"box-sizing: border-box; user-select: text; width: 69px; background-color: #eee5c8; height: 17px; text-align: center;\">-</td>\n<td style=\"box-sizing: border-box; user-select: text; width: 68px; background-color: #eee5c8; height: 17px; text-align: center;\">-</td>\n<td style=\"box-sizing: border-box; user-select: text; width: 68px; background-color: #eee5c8; height: 17px; text-align: center;\">-</td>\n<td style=\"box-sizing: border-box; user-select: text; width: 68px; background-color: #eee5c8; height: 17px; text-align: center;\">-</td>\n<td style=\"box-sizing: border-box; user-select: text; width: 68px; background-color: #eee5c8; height: 17px; text-align: center;\">-</td>\n<td style=\"box-sizing: border-box; user-select: text; width: 69px; background-color: #eee5c8; height: 17px; text-align: center;\">-</td>\n<td style=\"box-sizing: border-box; user-select: text; width: 69px; background-color: #eee5c8; height: 17px; text-align: center;\">-</td>\n<td style=\"box-sizing: border-box; user-select: text; width: 69px; background-color: #eee5c8; height: 17px; text-align: center;\">-</td>\n<td style=\"box-sizing: border-box; user-select: text; width: 74px; background-color: #eee5c8; height: 17px; text-align: center;\">-</td>\n</tr>\n<tr style=\"box-sizing: border-box; user-select: text; height: 17px;\">\n<td style=\"box-sizing: border-box; user-select: text; width: 139px; background-color: #f6f1e1; height: 17px; text-align: center;\">3</td>\n<td style=\"box-sizing: border-box; user-select: text; width: 171px; background-color: #f6f1e1; height: 17px; text-align: center;\">5</td>\n<td style=\"box-sizing: border-box; user-select: text; width: 68px; background-color: #f6f1e1; height: 17px; text-align: center;\">4</td>\n<td style=\"box-sizing: border-box; user-select: text; width: 69px; background-color: #f6f1e1; height: 17px; text-align: center;\">3</td>\n<td style=\"box-sizing: border-box; user-select: text; width: 68px; background-color: #f6f1e1; height: 17px; text-align: center;\">-</td>\n<td style=\"box-sizing: border-box; user-select: text; width: 68px; background-color: #f6f1e1; height: 17px; text-align: center;\">-</td>\n<td style=\"box-sizing: border-box; user-select: text; width: 68px; background-color: #f6f1e1; height: 17px; text-align: center;\">-</td>\n<td style=\"box-sizing: border-box; user-select: text; width: 68px; background-color: #f6f1e1; height: 17px; text-align: center;\">-</td>\n<td style=\"box-sizing: border-box; user-select: text; width: 69px; background-color: #f6f1e1; height: 17px; text-align: center;\">-</td>\n<td style=\"box-sizing: border-box; user-select: text; width: 69px; background-color: #f6f1e1; height: 17px; text-align: center;\">-</td>\n<td style=\"box-sizing: border-box; user-select: text; width: 69px; background-color: #f6f1e1; height: 17px; text-align: center;\">-</td>\n<td style=\"box-sizing: border-box; user-select: text; width: 74px; background-color: #f6f1e1; height: 17px; text-align: center;\">-</td>\n</tr>\n<tr style=\"box-sizing: border-box; user-select: text; height: 17px;\">\n<td style=\"box-sizing: border-box; user-select: text; width: 139px; background-color: #eee5c8; height: 17px; text-align: center;\">4</td>\n<td style=\"box-sizing: border-box; user-select: text; width: 171px; background-color: #eee5c8; height: 17px; text-align: center;\">5</td>\n<td style=\"box-sizing: border-box; user-select: text; width: 68px; background-color: #eee5c8; height: 17px; text-align: center;\">4</td>\n<td style=\"box-sizing: border-box; user-select: text; width: 69px; background-color: #eee5c8; height: 17px; text-align: center;\">4</td>\n<td style=\"box-sizing: border-box; user-select: text; width: 68px; background-color: #eee5c8; height: 17px; text-align: center;\">-</td>\n<td style=\"box-sizing: border-box; user-select: text; width: 68px; background-color: #eee5c8; height: 17px; text-align: center;\">-</td>\n<td style=\"box-sizing: border-box; user-select: text; width: 68px; background-color: #eee5c8; height: 17px; text-align: center;\">-</td>\n<td style=\"box-sizing: border-box; user-select: text; width: 68px; background-color: #eee5c8; height: 17px; text-align: center;\">-</td>\n<td style=\"box-sizing: border-box; user-select: text; width: 69px; background-color: #eee5c8; height: 17px; text-align: center;\">-</td>\n<td style=\"box-sizing: border-box; user-select: text; width: 69px; background-color: #eee5c8; height: 17px; text-align: center;\">-</td>\n<td style=\"box-sizing: border-box; user-select: text; width: 69px; background-color: #eee5c8; height: 17px; text-align: center;\">-</td>\n<td style=\"box-sizing: border-box; user-select: text; width: 74px; background-color: #eee5c8; height: 17px; text-align: center;\">-</td>\n</tr>\n<tr style=\"box-sizing: border-box; user-select: text; height: 17px;\">\n<td style=\"box-sizing: border-box; user-select: text; width: 139px; background-color: #f6f1e1; height: 17px; text-align: center;\">5</td>\n<td style=\"box-sizing: border-box; user-select: text; width: 171px; background-color: #f6f1e1; height: 17px; text-align: center;\">5</td>\n<td style=\"box-sizing: border-box; user-select: text; width: 68px; background-color: #f6f1e1; height: 17px; text-align: center;\">4</td>\n<td style=\"box-sizing: border-box; user-select: text; width: 69px; background-color: #f6f1e1; height: 17px; text-align: center;\">4</td>\n<td style=\"box-sizing: border-box; user-select: text; width: 68px; background-color: #f6f1e1; height: 17px; text-align: center;\">3</td>\n<td style=\"box-sizing: border-box; user-select: text; width: 68px; background-color: #f6f1e1; height: 17px; text-align: center;\">-</td>\n<td style=\"box-sizing: border-box; user-select: text; width: 68px; background-color: #f6f1e1; height: 17px; text-align: center;\">-</td>\n<td style=\"box-sizing: border-box; user-select: text; width: 68px; background-color: #f6f1e1; height: 17px; text-align: center;\">-</td>\n<td style=\"box-sizing: border-box; user-select: text; width: 69px; background-color: #f6f1e1; height: 17px; text-align: center;\">-</td>\n<td style=\"box-sizing: border-box; user-select: text; width: 69px; background-color: #f6f1e1; height: 17px; text-align: center;\">-</td>\n<td style=\"box-sizing: border-box; user-select: text; width: 69px; background-color: #f6f1e1; height: 17px; text-align: center;\">-</td>\n<td style=\"box-sizing: border-box; user-select: text; width: 74px; background-color: #f6f1e1; height: 17px; text-align: center;\">-</td>\n</tr>\n<tr style=\"box-sizing: border-box; user-select: text; height: 17px;\">\n<td style=\"box-sizing: border-box; user-select: text; width: 139px; background-color: #eee5c8; height: 17px; text-align: center;\">6</td>\n<td style=\"box-sizing: border-box; user-select: text; width: 171px; background-color: #eee5c8; height: 17px; text-align: center;\">5</td>\n<td style=\"box-sizing: border-box; user-select: text; width: 68px; background-color: #eee5c8; height: 17px; text-align: center;\">4</td>\n<td style=\"box-sizing: border-box; user-select: text; width: 69px; background-color: #eee5c8; height: 17px; text-align: center;\">4</td>\n<td style=\"box-sizing: border-box; user-select: text; width: 68px; background-color: #eee5c8; height: 17px; text-align: center;\">4</td>\n<td style=\"box-sizing: border-box; user-select: text; width: 68px; background-color: #eee5c8; height: 17px; text-align: center;\">-</td>\n<td style=\"box-sizing: border-box; user-select: text; width: 68px; background-color: #eee5c8; height: 17px; text-align: center;\">-</td>\n<td style=\"box-sizing: border-box; user-select: text; width: 68px; background-color: #eee5c8; height: 17px; text-align: center;\">-</td>\n<td style=\"box-sizing: border-box; user-select: text; width: 69px; background-color: #eee5c8; height: 17px; text-align: center;\">-</td>\n<td style=\"box-sizing: border-box; user-select: text; width: 69px; background-color: #eee5c8; height: 17px; text-align: center;\">-</td>\n<td style=\"box-sizing: border-box; user-select: text; width: 69px; background-color: #eee5c8; height: 17px; text-align: center;\">-</td>\n<td style=\"box-sizing: border-box; user-select: text; width: 74px; background-color: #eee5c8; height: 17px; text-align: center;\">-</td>\n</tr>\n<tr style=\"box-sizing: border-box; user-select: text; height: 17px;\">\n<td style=\"box-sizing: border-box; user-select: text; width: 139px; background-color: #f6f1e1; height: 17px; text-align: center;\">7</td>\n<td style=\"box-sizing: border-box; user-select: text; width: 171px; background-color: #f6f1e1; height: 17px; text-align: center;\">5</td>\n<td style=\"box-sizing: border-box; user-select: text; width: 68px; background-color: #f6f1e1; height: 17px; text-align: center;\">4</td>\n<td style=\"box-sizing: border-box; user-select: text; width: 69px; background-color: #f6f1e1; height: 17px; text-align: center;\">4</td>\n<td style=\"box-sizing: border-box; user-select: text; width: 68px; background-color: #f6f1e1; height: 17px; text-align: center;\">4</td>\n<td style=\"box-sizing: border-box; user-select: text; width: 68px; background-color: #f6f1e1; height: 17px; text-align: center;\">3</td>\n<td style=\"box-sizing: border-box; user-select: text; width: 68px; background-color: #f6f1e1; height: 17px; text-align: center;\">-</td>\n<td style=\"box-sizing: border-box; user-select: text; width: 68px; background-color: #f6f1e1; height: 17px; text-align: center;\">-</td>\n<td style=\"box-sizing: border-box; user-select: text; width: 69px; background-color: #f6f1e1; height: 17px; text-align: center;\">-</td>\n<td style=\"box-sizing: border-box; user-select: text; width: 69px; background-color: #f6f1e1; height: 17px; text-align: center;\">-</td>\n<td style=\"box-sizing: border-box; user-select: text; width: 69px; background-color: #f6f1e1; height: 17px; text-align: center;\">-</td>\n<td style=\"box-sizing: border-box; user-select: text; width: 74px; background-color: #f6f1e1; height: 17px; text-align: center;\">-</td>\n</tr>\n<tr style=\"box-sizing: border-box; user-select: text; height: 17px;\">\n<td style=\"box-sizing: border-box; user-select: text; width: 139px; background-color: #eee5c8; height: 17px; text-align: center;\">8</td>\n<td style=\"box-sizing: border-box; user-select: text; width: 171px; background-color: #eee5c8; height: 17px; text-align: center;\">5</td>\n<td style=\"box-sizing: border-box; user-select: text; width: 68px; background-color: #eee5c8; height: 17px; text-align: center;\">4</td>\n<td style=\"box-sizing: border-box; user-select: text; width: 69px; background-color: #eee5c8; height: 17px; text-align: center;\">4</td>\n<td style=\"box-sizing: border-box; user-select: text; width: 68px; background-color: #eee5c8; height: 17px; text-align: center;\">4</td>\n<td style=\"box-sizing: border-box; user-select: text; width: 68px; background-color: #eee5c8; height: 17px; text-align: center;\">4</td>\n<td style=\"box-sizing: border-box; user-select: text; width: 68px; background-color: #eee5c8; height: 17px; text-align: center;\">-</td>\n<td style=\"box-sizing: border-box; user-select: text; width: 68px; background-color: #eee5c8; height: 17px; text-align: center;\">-</td>\n<td style=\"box-sizing: border-box; user-select: text; width: 69px; background-color: #eee5c8; height: 17px; text-align: center;\">-</td>\n<td style=\"box-sizing: border-box; user-select: text; width: 69px; background-color: #eee5c8; height: 17px; text-align: center;\">-</td>\n<td style=\"box-sizing: border-box; user-select: text; width: 69px; background-color: #eee5c8; height: 17px; text-align: center;\">-</td>\n<td style=\"box-sizing: border-box; user-select: text; width: 74px; background-color: #eee5c8; height: 17px; text-align: center;\">-</td>\n</tr>\n<tr style=\"box-sizing: border-box; user-select: text; height: 17px;\">\n<td style=\"box-sizing: border-box; user-select: text; width: 139px; background-color: #f6f1e1; height: 17px; text-align: center;\">9</td>\n<td style=\"box-sizing: border-box; user-select: text; width: 171px; background-color: #f6f1e1; height: 17px; text-align: center;\">5</td>\n<td style=\"box-sizing: border-box; user-select: text; width: 68px; background-color: #f6f1e1; height: 17px; text-align: center;\">4</td>\n<td style=\"box-sizing: border-box; user-select: text; width: 69px; background-color: #f6f1e1; height: 17px; text-align: center;\">4</td>\n<td style=\"box-sizing: border-box; user-select: text; width: 68px; background-color: #f6f1e1; height: 17px; text-align: center;\">4</td>\n<td style=\"box-sizing: border-box; user-select: text; width: 68px; background-color: #f6f1e1; height: 17px; text-align: center;\">4</td>\n<td style=\"box-sizing: border-box; user-select: text; width: 68px; background-color: #f6f1e1; height: 17px; text-align: center;\">3</td>\n<td style=\"box-sizing: border-box; user-select: text; width: 68px; background-color: #f6f1e1; height: 17px; text-align: center;\">-</td>\n<td style=\"box-sizing: border-box; user-select: text; width: 69px; background-color: #f6f1e1; height: 17px; text-align: center;\">-</td>\n<td style=\"box-sizing: border-box; user-select: text; width: 69px; background-color: #f6f1e1; height: 17px; text-align: center;\">-</td>\n<td style=\"box-sizing: border-box; user-select: text; width: 69px; background-color: #f6f1e1; height: 17px; text-align: center;\">-</td>\n<td style=\"box-sizing: border-box; user-select: text; width: 74px; background-color: #f6f1e1; height: 17px; text-align: center;\">-</td>\n</tr>\n<tr style=\"box-sizing: border-box; user-select: text; height: 17px;\">\n<td style=\"box-sizing: border-box; user-select: text; width: 139px; background-color: #eee5c8; height: 17px; text-align: center;\">10</td>\n<td style=\"box-sizing: border-box; user-select: text; width: 171px; background-color: #eee5c8; height: 17px; text-align: center;\">5</td>\n<td style=\"box-sizing: border-box; user-select: text; width: 68px; background-color: #eee5c8; height: 17px; text-align: center;\">4</td>\n<td style=\"box-sizing: border-box; user-select: text; width: 69px; background-color: #eee5c8; height: 17px; text-align: center;\">4</td>\n<td style=\"box-sizing: border-box; user-select: text; width: 68px; background-color: #eee5c8; height: 17px; text-align: center;\">4</td>\n<td style=\"box-sizing: border-box; user-select: text; width: 68px; background-color: #eee5c8; height: 17px; text-align: center;\">4</td>\n<td style=\"box-sizing: border-box; user-select: text; width: 68px; background-color: #eee5c8; height: 17px; text-align: center;\">4</td>\n<td style=\"box-sizing: border-box; user-select: text; width: 68px; background-color: #eee5c8; height: 17px; text-align: center;\">-</td>\n<td style=\"box-sizing: border-box; user-select: text; width: 69px; background-color: #eee5c8; height: 17px; text-align: center;\">-</td>\n<td style=\"box-sizing: border-box; user-select: text; width: 69px; background-color: #eee5c8; height: 17px; text-align: center;\">-</td>\n<td style=\"box-sizing: border-box; user-select: text; width: 69px; background-color: #eee5c8; height: 17px; text-align: center;\">-</td>\n<td style=\"box-sizing: border-box; user-select: text; width: 74px; background-color: #eee5c8; height: 17px; text-align: center;\">-</td>\n</tr>\n<tr style=\"box-sizing: border-box; user-select: text; height: 17px;\">\n<td style=\"box-sizing: border-box; user-select: text; width: 139px; background-color: #f6f1e1; height: 17px; text-align: center;\">11</td>\n<td style=\"box-sizing: border-box; user-select: text; width: 171px; background-color: #f6f1e1; height: 17px; text-align: center;\">5</td>\n<td style=\"box-sizing: border-box; user-select: text; width: 68px; background-color: #f6f1e1; height: 17px; text-align: center;\">4</td>\n<td style=\"box-sizing: border-box; user-select: text; width: 69px; background-color: #f6f1e1; height: 17px; text-align: center;\">4</td>\n<td style=\"box-sizing: border-box; user-select: text; width: 68px; background-color: #f6f1e1; height: 17px; text-align: center;\">4</td>\n<td style=\"box-sizing: border-box; user-select: text; width: 68px; background-color: #f6f1e1; height: 17px; text-align: center;\">4</td>\n<td style=\"box-sizing: border-box; user-select: text; width: 68px; background-color: #f6f1e1; height: 17px; text-align: center;\">4</td>\n<td style=\"box-sizing: border-box; user-select: text; width: 68px; background-color: #f6f1e1; height: 17px; text-align: center;\">3</td>\n<td style=\"box-sizing: border-box; user-select: text; width: 69px; background-color: #f6f1e1; height: 17px; text-align: center;\">-</td>\n<td style=\"box-sizing: border-box; user-select: text; width: 69px; background-color: #f6f1e1; height: 17px; text-align: center;\">-</td>\n<td style=\"box-sizing: border-box; user-select: text; width: 69px; background-color: #f6f1e1; height: 17px; text-align: center;\">-</td>\n<td style=\"box-sizing: border-box; user-select: text; width: 74px; background-color: #f6f1e1; height: 17px; text-align: center;\">-</td>\n</tr>\n<tr style=\"box-sizing: border-box; user-select: text; height: 17px;\">\n<td style=\"box-sizing: border-box; user-select: text; width: 139px; background-color: #eee5c8; height: 17px; text-align: center;\">12</td>\n<td style=\"box-sizing: border-box; user-select: text; width: 171px; background-color: #eee5c8; height: 17px; text-align: center;\">5</td>\n<td style=\"box-sizing: border-box; user-select: text; width: 68px; background-color: #eee5c8; height: 17px; text-align: center;\">4</td>\n<td style=\"box-sizing: border-box; user-select: text; width: 69px; background-color: #eee5c8; height: 17px; text-align: center;\">4</td>\n<td style=\"box-sizing: border-box; user-select: text; width: 68px; background-color: #eee5c8; height: 17px; text-align: center;\">4</td>\n<td style=\"box-sizing: border-box; user-select: text; width: 68px; background-color: #eee5c8; height: 17px; text-align: center;\">4</td>\n<td style=\"box-sizing: border-box; user-select: text; width: 68px; background-color: #eee5c8; height: 17px; text-align: center;\">4</td>\n<td style=\"box-sizing: border-box; user-select: text; width: 68px; background-color: #eee5c8; height: 17px; text-align: center;\">4</td>\n<td style=\"box-sizing: border-box; user-select: text; width: 69px; background-color: #eee5c8; height: 17px; text-align: center;\">-</td>\n<td style=\"box-sizing: border-box; user-select: text; width: 69px; background-color: #eee5c8; height: 17px; text-align: center;\">-</td>\n<td style=\"box-sizing: border-box; user-select: text; width: 69px; background-color: #eee5c8; height: 17px; text-align: center;\">-</td>\n<td style=\"box-sizing: border-box; user-select: text; width: 74px; background-color: #eee5c8; height: 17px; text-align: center;\">-</td>\n</tr>\n<tr style=\"box-sizing: border-box; user-select: text; height: 17px;\">\n<td style=\"box-sizing: border-box; user-select: text; width: 139px; background-color: #f6f1e1; height: 17px; text-align: center;\">13</td>\n<td style=\"box-sizing: border-box; user-select: text; width: 171px; background-color: #f6f1e1; height: 17px; text-align: center;\">5</td>\n<td style=\"box-sizing: border-box; user-select: text; width: 68px; background-color: #f6f1e1; height: 17px; text-align: center;\">4</td>\n<td style=\"box-sizing: border-box; user-select: text; width: 69px; background-color: #f6f1e1; height: 17px; text-align: center;\">4</td>\n<td style=\"box-sizing: border-box; user-select: text; width: 68px; background-color: #f6f1e1; height: 17px; text-align: center;\">4</td>\n<td style=\"box-sizing: border-box; user-select: text; width: 68px; background-color: #f6f1e1; height: 17px; text-align: center;\">4</td>\n<td style=\"box-sizing: border-box; user-select: text; width: 68px; background-color: #f6f1e1; height: 17px; text-align: center;\">4</td>\n<td style=\"box-sizing: border-box; user-select: text; width: 68px; background-color: #f6f1e1; height: 17px; text-align: center;\">4</td>\n<td style=\"box-sizing: border-box; user-select: text; width: 69px; background-color: #f6f1e1; height: 17px; text-align: center;\">3</td>\n<td style=\"box-sizing: border-box; user-select: text; width: 69px; background-color: #f6f1e1; height: 17px; text-align: center;\">-</td>\n<td style=\"box-sizing: border-box; user-select: text; width: 69px; background-color: #f6f1e1; height: 17px; text-align: center;\">-</td>\n<td style=\"box-sizing: border-box; user-select: text; width: 74px; background-color: #f6f1e1; height: 17px; text-align: center;\">-</td>\n</tr>\n<tr style=\"box-sizing: border-box; user-select: text; height: 17px;\">\n<td style=\"box-sizing: border-box; user-select: text; width: 139px; background-color: #eee5c8; height: 17px; text-align: center;\">14</td>\n<td style=\"box-sizing: border-box; user-select: text; width: 171px; background-color: #eee5c8; height: 17px; text-align: center;\">5</td>\n<td style=\"box-sizing: border-box; user-select: text; width: 68px; background-color: #eee5c8; height: 17px; text-align: center;\">4</td>\n<td style=\"box-sizing: border-box; user-select: text; width: 69px; background-color: #eee5c8; height: 17px; text-align: center;\">4</td>\n<td style=\"box-sizing: border-box; user-select: text; width: 68px; background-color: #eee5c8; height: 17px; text-align: center;\">4</td>\n<td style=\"box-sizing: border-box; user-select: text; width: 68px; background-color: #eee5c8; height: 17px; text-align: center;\">4</td>\n<td style=\"box-sizing: border-box; user-select: text; width: 68px; background-color: #eee5c8; height: 17px; text-align: center;\">4</td>\n<td style=\"box-sizing: border-box; user-select: text; width: 68px; background-color: #eee5c8; height: 17px; text-align: center;\">4</td>\n<td style=\"box-sizing: border-box; user-select: text; width: 69px; background-color: #eee5c8; height: 17px; text-align: center;\">4</td>\n<td style=\"box-sizing: border-box; user-select: text; width: 69px; background-color: #eee5c8; height: 17px; text-align: center;\">-</td>\n<td style=\"box-sizing: border-box; user-select: text; width: 69px; background-color: #eee5c8; height: 17px; text-align: center;\">-</td>\n<td style=\"box-sizing: border-box; user-select: text; width: 74px; background-color: #eee5c8; height: 17px; text-align: center;\">-</td>\n</tr>\n<tr style=\"box-sizing: border-box; user-select: text; height: 17px;\">\n<td style=\"box-sizing: border-box; user-select: text; width: 139px; background-color: #f6f1e1; height: 17px; text-align: center;\">15</td>\n<td style=\"box-sizing: border-box; user-select: text; width: 171px; background-color: #f6f1e1; height: 17px; text-align: center;\">5</td>\n<td style=\"box-sizing: border-box; user-select: text; width: 68px; background-color: #f6f1e1; height: 17px; text-align: center;\">4</td>\n<td style=\"box-sizing: border-box; user-select: text; width: 69px; background-color: #f6f1e1; height: 17px; text-align: center;\">4</td>\n<td style=\"box-sizing: border-box; user-select: text; width: 68px; background-color: #f6f1e1; height: 17px; text-align: center;\">4</td>\n<td style=\"box-sizing: border-box; user-select: text; width: 68px; background-color: #f6f1e1; height: 17px; text-align: center;\">4</td>\n<td style=\"box-sizing: border-box; user-select: text; width: 68px; background-color: #f6f1e1; height: 17px; text-align: center;\">4</td>\n<td style=\"box-sizing: border-box; user-select: text; width: 68px; background-color: #f6f1e1; height: 17px; text-align: center;\">4</td>\n<td style=\"box-sizing: border-box; user-select: text; width: 69px; background-color: #f6f1e1; height: 17px; text-align: center;\">4</td>\n<td style=\"box-sizing: border-box; user-select: text; width: 69px; background-color: #f6f1e1; height: 17px; text-align: center;\">3</td>\n<td style=\"box-sizing: border-box; user-select: text; width: 69px; background-color: #f6f1e1; height: 17px; text-align: center;\">-</td>\n<td style=\"box-sizing: border-box; user-select: text; width: 74px; background-color: #f6f1e1; height: 17px; text-align: center;\">-</td>\n</tr>\n<tr style=\"box-sizing: border-box; user-select: text; height: 17px;\">\n<td style=\"box-sizing: border-box; user-select: text; width: 139px; background-color: #eee5c8; height: 17px; text-align: center;\">16</td>\n<td style=\"box-sizing: border-box; user-select: text; width: 171px; background-color: #eee5c8; height: 17px; text-align: center;\">5</td>\n<td style=\"box-sizing: border-box; user-select: text; width: 68px; background-color: #eee5c8; height: 17px; text-align: center;\">4</td>\n<td style=\"box-sizing: border-box; user-select: text; width: 69px; background-color: #eee5c8; height: 17px; text-align: center;\">4</td>\n<td style=\"box-sizing: border-box; user-select: text; width: 68px; background-color: #eee5c8; height: 17px; text-align: center;\">4</td>\n<td style=\"box-sizing: border-box; user-select: text; width: 68px; background-color: #eee5c8; height: 17px; text-align: center;\">4</td>\n<td style=\"box-sizing: border-box; user-select: text; width: 68px; background-color: #eee5c8; height: 17px; text-align: center;\">4</td>\n<td style=\"box-sizing: border-box; user-select: text; width: 68px; background-color: #eee5c8; height: 17px; text-align: center;\">4</td>\n<td style=\"box-sizing: border-box; user-select: text; width: 69px; background-color: #eee5c8; height: 17px; text-align: center;\">4</td>\n<td style=\"box-sizing: border-box; user-select: text; width: 69px; background-color: #eee5c8; height: 17px; text-align: center;\">4</td>\n<td style=\"box-sizing: border-box; user-select: text; width: 69px; background-color: #eee5c8; height: 17px; text-align: center;\">-</td>\n<td style=\"box-sizing: border-box; user-select: text; width: 74px; background-color: #eee5c8; height: 17px; text-align: center;\">-</td>\n</tr>\n<tr style=\"box-sizing: border-box; user-select: text; height: 17px;\">\n<td style=\"box-sizing: border-box; user-select: text; width: 139px; background-color: #f6f1e1; height: 17px; text-align: center;\">17</td>\n<td style=\"box-sizing: border-box; user-select: text; width: 171px; background-color: #f6f1e1; height: 17px; text-align: center;\">5</td>\n<td style=\"box-sizing: border-box; user-select: text; width: 68px; background-color: #f6f1e1; height: 17px; text-align: center;\">4</td>\n<td style=\"box-sizing: border-box; user-select: text; width: 69px; background-color: #f6f1e1; height: 17px; text-align: center;\">4</td>\n<td style=\"box-sizing: border-box; user-select: text; width: 68px; background-color: #f6f1e1; height: 17px; text-align: center;\">4</td>\n<td style=\"box-sizing: border-box; user-select: text; width: 68px; background-color: #f6f1e1; height: 17px; text-align: center;\">4</td>\n<td style=\"box-sizing: border-box; user-select: text; width: 68px; background-color: #f6f1e1; height: 17px; text-align: center;\">4</td>\n<td style=\"box-sizing: border-box; user-select: text; width: 68px; background-color: #f6f1e1; height: 17px; text-align: center;\">4</td>\n<td style=\"box-sizing: border-box; user-select: text; width: 69px; background-color: #f6f1e1; height: 17px; text-align: center;\">4</td>\n<td style=\"box-sizing: border-box; user-select: text; width: 69px; background-color: #f6f1e1; height: 17px; text-align: center;\">4</td>\n<td style=\"box-sizing: border-box; user-select: text; width: 69px; background-color: #f6f1e1; height: 17px; text-align: center;\">3</td>\n<td style=\"box-sizing: border-box; user-select: text; width: 74px; background-color: #f6f1e1; height: 17px; text-align: center;\">-</td>\n</tr>\n<tr style=\"box-sizing: border-box; user-select: text; height: 17px;\">\n<td style=\"box-sizing: border-box; user-select: text; width: 139px; background-color: #eee5c8; height: 17px; text-align: center;\">18</td>\n<td style=\"box-sizing: border-box; user-select: text; width: 171px; background-color: #eee5c8; height: 17px; text-align: center;\">5</td>\n<td style=\"box-sizing: border-box; user-select: text; width: 68px; background-color: #eee5c8; height: 17px; text-align: center;\">4</td>\n<td style=\"box-sizing: border-box; user-select: text; width: 69px; background-color: #eee5c8; height: 17px; text-align: center;\">4</td>\n<td style=\"box-sizing: border-box; user-select: text; width: 68px; background-color: #eee5c8; height: 17px; text-align: center;\">4</td>\n<td style=\"box-sizing: border-box; user-select: text; width: 68px; background-color: #eee5c8; height: 17px; text-align: center;\">4</td>\n<td style=\"box-sizing: border-box; user-select: text; width: 68px; background-color: #eee5c8; height: 17px; text-align: center;\">4</td>\n<td style=\"box-sizing: border-box; user-select: text; width: 68px; background-color: #eee5c8; height: 17px; text-align: center;\">4</td>\n<td style=\"box-sizing: border-box; user-select: text; width: 69px; background-color: #eee5c8; height: 17px; text-align: center;\">4</td>\n<td style=\"box-sizing: border-box; user-select: text; width: 69px; background-color: #eee5c8; height: 17px; text-align: center;\">4</td>\n<td style=\"box-sizing: border-box; user-select: text; width: 69px; background-color: #eee5c8; height: 17px; text-align: center;\">4</td>\n<td style=\"box-sizing: border-box; user-select: text; width: 74px; background-color: #eee5c8; height: 17px; text-align: center;\">-</td>\n</tr>\n<tr style=\"box-sizing: border-box; user-select: text; height: 16px;\">\n<td style=\"box-sizing: border-box; user-select: text; width: 139px; background-color: #f6f1e1; height: 16px; text-align: center;\">19</td>\n<td style=\"box-sizing: border-box; user-select: text; width: 171px; background-color: #f6f1e1; height: 16px; text-align: center;\">5</td>\n<td style=\"box-sizing: border-box; user-select: text; width: 68px; background-color: #f6f1e1; height: 16px; text-align: center;\">4</td>\n<td style=\"box-sizing: border-box; user-select: text; width: 69px; background-color: #f6f1e1; height: 16px; text-align: center;\">4</td>\n<td style=\"box-sizing: border-box; user-select: text; width: 68px; background-color: #f6f1e1; height: 16px; text-align: center;\">4</td>\n<td style=\"box-sizing: border-box; user-select: text; width: 68px; background-color: #f6f1e1; height: 16px; text-align: center;\">4</td>\n<td style=\"box-sizing: border-box; user-select: text; width: 68px; background-color: #f6f1e1; height: 16px; text-align: center;\">4</td>\n<td style=\"box-sizing: border-box; user-select: text; width: 68px; background-color: #f6f1e1; height: 16px; text-align: center;\">4</td>\n<td style=\"box-sizing: border-box; user-select: text; width: 69px; background-color: #f6f1e1; height: 16px; text-align: center;\">4</td>\n<td style=\"box-sizing: border-box; user-select: text; width: 69px; background-color: #f6f1e1; height: 16px; text-align: center;\">4</td>\n<td style=\"box-sizing: border-box; user-select: text; width: 69px; background-color: #f6f1e1; height: 16px; text-align: center;\">4</td>\n<td style=\"box-sizing: border-box; user-select: text; width: 74px; background-color: #f6f1e1; height: 16px; text-align: center;\">1* </td>\n</tr>\n<tr style=\"box-sizing: border-box; user-select: text; height: 17px;\">\n<td style=\"box-sizing: border-box; user-select: text; width: 139px; background-color: #eee5c8; height: 17px; text-align: center;\">20</td>\n<td style=\"box-sizing: border-box; user-select: text; width: 171px; background-color: #eee5c8; height: 17px; text-align: center;\">5</td>\n<td style=\"box-sizing: border-box; user-select: text; width: 68px; background-color: #eee5c8; height: 17px; text-align: center;\">4</td>\n<td style=\"box-sizing: border-box; user-select: text; width: 69px; background-color: #eee5c8; height: 17px; text-align: center;\">4</td>\n<td style=\"box-sizing: border-box; user-select: text; width: 68px; background-color: #eee5c8; height: 17px; text-align: center;\">4</td>\n<td style=\"box-sizing: border-box; user-select: text; width: 68px; background-color: #eee5c8; height: 17px; text-align: center;\">4</td>\n<td style=\"box-sizing: border-box; user-select: text; width: 68px; background-color: #eee5c8; height: 17px; text-align: center;\">4</td>\n<td style=\"box-sizing: border-box; user-select: text; width: 68px; background-color: #eee5c8; height: 17px; text-align: center;\">4</td>\n<td style=\"box-sizing: border-box; user-select: text; width: 69px; background-color: #eee5c8; height: 17px; text-align: center;\">4</td>\n<td style=\"box-sizing: border-box; user-select: text; width: 69px; background-color: #eee5c8; height: 17px; text-align: center;\">4</td>\n<td style=\"box-sizing: border-box; user-select: text; width: 69px; background-color: #eee5c8; height: 17px; text-align: center;\">4</td>\n<td style=\"box-sizing: border-box; user-select: text; width: 74px; background-color: #eee5c8; height: 17px; text-align: center;\">1* </td>\n</tr>\n<tr style=\"box-sizing: border-box; user-select: text; height: 25px;\">\n<td style=\"box-sizing: border-box; user-select: text; color: white; width: 1000px; background-color: #522e2c; height: 25px; text-align: center;\" colspan=\"12\">* The bloodline paragon class feature gives you a 10th-level spell slot that works a bit differently from other spell slots.</td>\n</tr>\n</tbody>\n</table>"
        },
        "featType": {
            "value": "classfeature"
        },
        "level": {
            "value": "1"
        },
        "prerequisites": {
            "value": []
        },
        "rules": [],
        "source": {
            "value": ""
        },
        "traits": {
            "custom": "",
            "rarity": {
                "value": "common"
            },
            "selected": {
                "sorcerer": "Sorcerer"
            },
            "value": [
                "sorcerer"
            ]
        }
    },
    "effects": [],
    "flags": {},
    "img": "systems/pf2e/icons/features/classes/signature-spells-sorcerer.webp",
    "name": "Sorcerer Spellcasting",
    "permission": {
        "default": 0
    },
    "type": "feat"
}
