{
    "_id": "O99eXctsEjEpuBwe",
    "data": {
        "actionCategory": {
            "value": ""
        },
        "actionType": {
            "value": "passive"
        },
        "actions": {
            "value": ""
        },
        "description": {
            "chat": "",
            "unidentified": "",
            "value": "<p><strong>Sorcerer:</strong> Training and magic improved your weapon technique. Your proficiency rank for simple weapons and unarmed attacks increases to expert.</p>\n<hr />\n<p><strong>Oracle</strong>: You've dedicated yourself to learning the intricacies of your weapons. Your proficiency ranks for simple weapons and unarmed attacks increase to expert.</p>\n<hr />\n<p><strong>Witch</strong>: Through sheer experience, you've improved your technique with your weapons. Your proficiency ranks for simple weapons and unarmed attacks increase to expert.</p>"
        },
        "featType": {
            "value": "classfeature"
        },
        "level": {
            "value": 11
        },
        "location": "",
        "prerequisites": {
            "value": []
        },
        "rules": [],
        "source": {
            "value": ""
        },
        "traits": {
            "custom": "",
            "rarity": {
                "value": "common"
            },
            "value": [
                "oracle",
                "sorcerer",
                "witch"
            ]
        }
    },
    "effects": [
        {
            "_id": "tn3ilM9MBOYE9YuK",
            "changes": [
                {
                    "key": "data.martial.simple.rank",
                    "mode": 4,
                    "value": 2
                },
                {
                    "key": "data.martial.unarmed.rank",
                    "mode": 4,
                    "value": 2
                }
            ],
            "disabled": false,
            "duration": {
                "rounds": null,
                "seconds": null,
                "startRound": null,
                "startTime": null,
                "startTurn": null,
                "turns": null
            },
            "flags": {},
            "icon": "systems/pf2e/icons/features/classes/weapon-expertise.webp",
            "label": "Weapon Expertise (Level 11)",
            "origin": "",
            "tint": "",
            "transfer": true
        }
    ],
    "flags": {},
    "img": "systems/pf2e/icons/features/classes/weapon-expertise.webp",
    "name": "Weapon Expertise (Level 11)",
    "permission": {
        "default": 0
    },
    "type": "feat"
}
