{
    "_id": "9XLUh9iMepZesdmc",
    "data": {
        "actionCategory": {
            "value": ""
        },
        "actionType": {
            "value": "passive"
        },
        "actions": {
            "value": ""
        },
        "description": {
            "chat": "",
            "unidentified": "",
            "value": "<p>You've dedicated yourself to learning the intricacies of your weapons. Your proficiency ranks for simple weapons, martial weapons, and unarmed attacks increase to expert.</p>"
        },
        "featType": {
            "value": "classfeature"
        },
        "level": {
            "value": 5
        },
        "location": "",
        "prerequisites": {
            "value": []
        },
        "rules": [],
        "source": {
            "value": ""
        },
        "traits": {
            "custom": "",
            "rarity": {
                "value": "common"
            },
            "value": [
                "champion",
                "investigator"
            ]
        }
    },
    "effects": [
        {
            "_id": "TIkHTYc1FSgFQF1E",
            "changes": [
                {
                    "key": "data.martial.simple.rank",
                    "mode": 4,
                    "value": 2
                },
                {
                    "key": "data.martial.unarmed.rank",
                    "mode": 4,
                    "value": 2
                },
                {
                    "key": "data.martial.martial.rank",
                    "mode": 4,
                    "value": 2
                }
            ],
            "disabled": false,
            "duration": {
                "rounds": null,
                "seconds": null,
                "startRound": null,
                "startTime": null,
                "startTurn": null,
                "turns": null
            },
            "flags": {},
            "icon": "systems/pf2e/icons/features/classes/weapon-expertise.webp",
            "label": "Weapon Expertise (Level 5)",
            "origin": "",
            "tint": "",
            "transfer": true
        }
    ],
    "flags": {},
    "img": "systems/pf2e/icons/features/classes/weapon-expertise.webp",
    "name": "Weapon Expertise (Level 5)",
    "permission": {
        "default": 0
    },
    "type": "feat"
}
