{
    "_id": "Vpohy4XH1DaH95hT",
    "data": {
        "ability": {
            "value": ""
        },
        "area": {
            "areaType": "",
            "value": null
        },
        "areasize": {
            "value": ""
        },
        "category": {
            "value": "ritual"
        },
        "components": {
            "value": ""
        },
        "cost": {
            "value": ""
        },
        "damage": {
            "applyMod": false,
            "value": ""
        },
        "damageType": {
            "value": ""
        },
        "description": {
            "chat": "",
            "unidentified": "",
            "value": "<p>You call upon the powers of Abaddon to grant you the assistance of a daemon. You call upon a daemon whose level can be no more than double <em>daemonic pact's</em> spell level, two daemons whose levels are each at least 2 less than double the spell level, or three daemons whose levels are each at least 3 less than double the spell level.</p>\n<hr />\n<p><strong>Critical Success</strong> You conjure the daemon or daemons, and they require nothing in return for their service.</p>\n<p><strong>Success</strong> You conjure the daemon or daemons, who serve you willingly, but require a sacrifice in the form of spilled blood (either another creature's or your own).</p>\n<p><strong>Failure</strong> You don't conjure any daemons.</p>\n<p><strong>Critical Failure</strong> You don't conjure any daemons, and the self-sacrifice required to perform the ritual leaves you @Compendium[pf2e.conditionitems.Drained]{Drained 1} (or @Compendium[pf2e.conditionitems.Drained]{Drained 2} if the spell level is 5 or higher).</p>"
        },
        "duration": {
            "value": ""
        },
        "hasCounteractCheck": {
            "value": false
        },
        "level": {
            "value": 1
        },
        "location": {
            "value": ""
        },
        "materials": {
            "value": ""
        },
        "prepared": {
            "value": ""
        },
        "primarycheck": {
            "value": "Religion (expert; you must be a daemon or an urdefhan)"
        },
        "range": {
            "value": ""
        },
        "rules": [],
        "save": {
            "basic": "",
            "value": ""
        },
        "scaling": {
            "formula": "",
            "mode": "none"
        },
        "school": {
            "value": "conjuration"
        },
        "secondarycasters": {
            "value": ""
        },
        "secondarycheck": {
            "value": ""
        },
        "source": {
            "value": ""
        },
        "spellType": {
            "value": "utility"
        },
        "sustained": {
            "value": false
        },
        "target": {
            "value": ""
        },
        "time": {
            "value": "1 day"
        },
        "traditions": {
            "custom": "",
            "value": []
        },
        "traits": {
            "custom": "",
            "rarity": {
                "value": "uncommon"
            },
            "value": [
                "conjuration"
            ]
        }
    },
    "effects": [],
    "flags": {},
    "img": "systems/pf2e/icons/spells/daemonic-pact.webp",
    "name": "Daemonic Pact",
    "permission": {
        "default": 0
    },
    "type": "spell"
}
