{
    "_id": "caehfpQz7yp9yNzz",
    "data": {
        "ability": {
            "value": ""
        },
        "area": {
            "areaType": "",
            "value": null
        },
        "areasize": {
            "value": ""
        },
        "category": {
            "value": "focus"
        },
        "components": {
            "value": "somatic, verbal"
        },
        "cost": {
            "value": ""
        },
        "damage": {
            "applyMod": false,
            "value": ""
        },
        "damageType": {
            "value": ""
        },
        "description": {
            "chat": "",
            "unidentified": "",
            "value": "<p>As you challenge an enemy, you take some of its attention away from your allies. The target takes a -1 status penalty to attack rolls, damage rolls, and skill checks against creatures other than you, and you take a -1 status penalty to attack rolls, damage rolls, and skill checks against creatures other than the target.</p>\n<p>Each time a creature other than you uses a hostile action that affects the challenged enemy, the enemy can attempt a Will save. On a success, the enemy no longer takes the penalty against that creature. You can Dismiss the spell, and it ends automatically if you or the target is defeated.</p>\n<hr />\n<p><strong>Heightened (+3)</strong> The status penalties increase by 1.</p>\n<p>@Compendium[pf2e.spell-effects.Spell Effect: Dutiful Challenge]{Spell Effect: Dutiful Challenge}</p>"
        },
        "duration": {
            "value": "1 minute"
        },
        "hasCounteractCheck": {
            "value": false
        },
        "level": {
            "value": 4
        },
        "location": {
            "value": ""
        },
        "materials": {
            "value": ""
        },
        "prepared": {
            "value": ""
        },
        "primarycheck": {
            "value": ""
        },
        "range": {
            "value": "30 feet"
        },
        "rules": [],
        "save": {
            "basic": "",
            "value": "will"
        },
        "scaling": {
            "formula": "",
            "mode": "none"
        },
        "school": {
            "value": "abjuration"
        },
        "secondarycasters": {
            "value": ""
        },
        "secondarycheck": {
            "value": ""
        },
        "source": {
            "value": ""
        },
        "spellType": {
            "value": "save"
        },
        "sustained": {
            "value": false
        },
        "target": {
            "value": "1 creature"
        },
        "time": {
            "value": "2"
        },
        "traditions": {
            "value": []
        },
        "traits": {
            "custom": "",
            "rarity": {
                "value": "uncommon"
            },
            "value": [
                "abjuration",
                "cleric"
            ]
        }
    },
    "effects": [],
    "flags": {},
    "img": "systems/pf2e/icons/spells/dutiful-challenge.webp",
    "name": "Dutiful Challenge",
    "permission": {
        "default": 0
    },
    "type": "spell"
}
