{
    "_id": "rVhHaWqUsVUO4GuY",
    "data": {
        "ability": {
            "value": ""
        },
        "area": {
            "areaType": "",
            "value": null
        },
        "areasize": {
            "value": ""
        },
        "category": {
            "value": "focus"
        },
        "components": {
            "value": "somatic, verbal"
        },
        "cost": {
            "value": ""
        },
        "damage": {
            "applyMod": false,
            "value": ""
        },
        "damageType": {
            "value": ""
        },
        "description": {
            "chat": "",
            "unidentified": "",
            "value": "<p>Your touch disrupts the connection between body and soul, possibly forcing the soul out of the body altogether. The target must attempt a Fortitude save. You can allow allies to choose the degree of success instead of rolling a saving throw.</p>\n<hr />\n<p><strong>Success</strong> The target is unaffected.</p>\n<p><strong>Failure</strong> The target is @Compendium[pf2e.conditionitems.Stunned]{Stunned 1} as its soul briefly loses its connection to its body.</p>\n<p><strong>Critical Failure</strong> The target's soul exits its body for 1 round. The target's body becomes Stunned. While its body is stunned in this way, the target remains fully aware in soul form; it simply can't consciously move its body (though the body makes basic instinctual defensive movements). The target's soul has the incorporeal trait, is @Compendium[pf2e.conditionitems.Invisible]{Invisible}, and has a fly Speed of 60 feet. It can't attack, cast spells, or attempt any skill checks that require a physical body, and it must always maintain line of effect to its body. When the target's body ceases being stunned, the target's soul instantly returns to its body as the target wakes.</p>\n<hr />\n<p><strong>Heightened (+3)</strong> If a willing ally chooses to critically fail, it can stay in soul form for 1 additional round.</p>"
        },
        "duration": {
            "value": ""
        },
        "hasCounteractCheck": {
            "value": false
        },
        "level": {
            "value": 1
        },
        "location": {
            "value": ""
        },
        "materials": {
            "value": ""
        },
        "prepared": {
            "value": ""
        },
        "primarycheck": {
            "value": ""
        },
        "range": {
            "value": "touch"
        },
        "rules": [],
        "save": {
            "basic": "",
            "value": "fortitude"
        },
        "scaling": {
            "formula": "",
            "mode": "none"
        },
        "school": {
            "value": "necromancy"
        },
        "secondarycasters": {
            "value": ""
        },
        "secondarycheck": {
            "value": ""
        },
        "source": {
            "value": ""
        },
        "spellType": {
            "value": "save"
        },
        "sustained": {
            "value": false
        },
        "target": {
            "value": "1 living creature that has a soul"
        },
        "time": {
            "value": "2"
        },
        "traditions": {
            "custom": "",
            "value": []
        },
        "traits": {
            "custom": "",
            "rarity": {
                "value": "uncommon"
            },
            "value": [
                "cleric",
                "incapacitation",
                "necromancy"
            ]
        }
    },
    "effects": [],
    "flags": {},
    "img": "systems/pf2e/icons/spells/eject-soul.webp",
    "name": "Eject Soul",
    "permission": {
        "default": 0
    },
    "type": "spell"
}
