{
    "_id": "IkS3lDGUpIOMug7v",
    "data": {
        "ability": {
            "value": ""
        },
        "area": {
            "areaType": "burst",
            "value": "5"
        },
        "areasize": {
            "value": "5-foot burst or more"
        },
        "category": {
            "value": "focus"
        },
        "components": {
            "value": "somatic, verbal"
        },
        "cost": {
            "value": ""
        },
        "damage": {
            "applyMod": false,
            "value": ""
        },
        "damageType": {
            "value": "mental"
        },
        "description": {
            "chat": "",
            "unidentified": "",
            "value": "<p>You sprinkle magical dust in the spell's area, making those within easier to trick. Each creature in the area must attempt a Will save. For each additional action you use Casting the Spell, the burst's radius increases by 5 feet.</p>\n<hr />\n<p><strong>Success</strong> The creature is unaffected.</p>\n<p><strong>Failure</strong> The creature can't use reactions and takes a -2 status penalty to Perception checks and Will saves.</p>\n<p><strong>Critical Failure</strong> As failure, and the creature also takes a -1 status penalty to Perception checks and Will saves for 1 minute.</p>\n<hr />\n<p><strong>Heightened (+3)</strong> The initial radius increases by 5 feet.</p>"
        },
        "duration": {
            "value": "1 round"
        },
        "hasCounteractCheck": {
            "value": false
        },
        "level": {
            "value": 1
        },
        "location": {
            "value": ""
        },
        "materials": {
            "value": ""
        },
        "prepared": {
            "value": ""
        },
        "primarycheck": {
            "value": ""
        },
        "range": {
            "value": "30 feet"
        },
        "rules": [],
        "save": {
            "basic": "",
            "value": "will"
        },
        "scaling": {
            "formula": "",
            "mode": "none"
        },
        "school": {
            "value": "enchantment"
        },
        "secondarycasters": {
            "value": ""
        },
        "secondarycheck": {
            "value": ""
        },
        "source": {
            "value": ""
        },
        "spellType": {
            "value": "save"
        },
        "sustained": {
            "value": false
        },
        "target": {
            "value": ""
        },
        "time": {
            "value": "1 to 3"
        },
        "traditions": {
            "value": []
        },
        "traits": {
            "custom": "",
            "rarity": {
                "value": "uncommon"
            },
            "value": [
                "uncommon",
                "mental",
                "enchantment",
                "sorcerer"
            ]
        }
    },
    "effects": [],
    "flags": {},
    "img": "systems/pf2e/icons/spells/faerie-dust.webp",
    "name": "Faerie Dust",
    "permission": {
        "default": 0
    },
    "type": "spell"
}
