{
    "_id": "0qA4MfMkFklOz2Lk",
    "data": {
        "ability": {
            "value": ""
        },
        "area": {
            "value": ""
        },
        "areasize": {
            "value": ""
        },
        "category": {
            "value": "focus"
        },
        "components": {
            "value": "somatic"
        },
        "cost": {
            "value": ""
        },
        "damage": {
            "applyMod": false,
            "value": "6d4"
        },
        "damageType": {
            "value": "mental"
        },
        "description": {
            "value": "<p><strong>Trigger</strong> A creature within range becomes frightened.</p>\n<hr />\n<p>You open your mouth wide and inhale sharply; you draw in the bravery, self-confidence, and hope to which the frightened target clings and then strip away the target’s false assumption that these fragile emotions can save them from the oblivion of terror.</p>\n<p>You deal [[/r 6d4 #mental]] mental damage to the creature, which must attempt a Will saving throw.</p>\n<hr />\n<p><strong>Critical Success</strong> The creature is unaffected.</p>\n<p><strong>Success</strong> The creature’s frightened condition increases by 1, and it takes half damage.</p>\n<p><strong>Failure</strong> The creature’s frightened condition increases by 2, and it takes full damage; you regain Hit Points equal to half the damage the target takes.</p>\n<p><strong>Critical Failure</strong> The creature’s frightened condition increases by 3 and it takes double damage; you regain Hit Points equal to half the damage the target takes.</p>\n<hr />\n<p>Heightened (+1) The damage increases by 2d4.</p>"
        },
        "duration": {
            "value": "varies"
        },
        "hasCounteractCheck": {
            "value": false
        },
        "level": {
            "value": 4
        },
        "location": {
            "value": ""
        },
        "materials": {
            "value": ""
        },
        "prepared": {
            "value": ""
        },
        "range": {
            "value": "30 feet"
        },
        "rules": [],
        "save": {
            "basic": "",
            "value": "will"
        },
        "scaling": {
            "formula": "2d4",
            "mode": "level2"
        },
        "school": {
            "value": "necromancy"
        },
        "source": {
            "value": ""
        },
        "spellType": {
            "value": "utility"
        },
        "sustained": {
            "value": false
        },
        "target": {
            "value": "the triggering creature"
        },
        "time": {
            "value": "Reaction"
        },
        "traditions": {
            "custom": "",
            "value": []
        },
        "traits": {
            "custom": "",
            "rarity": {
                "value": "uncommon"
            },
            "value": [
                "fear",
                "mental"
            ]
        }
    },
    "effects": [],
    "flags": {},
    "img": "systems/pf2e/icons/spells/fearful-feast.webp",
    "name": "Fearful Feast",
    "permission": {
        "default": 0
    },
    "type": "spell"
}
