{
    "_id": "kF0rs9mCPvJGfAZE",
    "data": {
        "ability": {
            "value": ""
        },
        "area": {
            "areaType": "",
            "value": null
        },
        "areasize": {
            "value": ""
        },
        "category": {
            "value": "focus"
        },
        "components": {
            "value": "verbal"
        },
        "cost": {
            "value": ""
        },
        "damage": {
            "applyMod": false,
            "value": ""
        },
        "damageType": {
            "value": ""
        },
        "description": {
            "chat": "",
            "unidentified": "",
            "value": "<p>You call upon your muse to greatly increase the benefits you provide with your @Compendium[pf2e.spells-srd.Inspire Courage]{Inspire Courage} or @Compendium[pf2e.spells-srd.Inspire Defense]{Inspire Defense} composition. If your next action is to cast inspire courage or inspire defense, attempt a Performance check. The DC is usually a very hard DC of a level equal to that of the highest-level target of your composition, but the GM can assign a different DC based on the circumstances. The effect of your inspire courage or inspire defense composition depends on the result of your check.</p>\n<hr />\n<p><strong>Critical Success</strong> The status bonus from your inspire courage or inspire defense increases to +3.</p>\n<p>@Compendium[pf2e.spell-effects.Spell Effect: Inspire Heroics (Courage, +3)]{Critical Success on Inspire Courage}, @Compendium[pf2e.spell-effects.Spell Effect: Inspire Heroics (Defense, +3)]{Critical Success on Inspire Defense}</p>\n<p><strong>Success</strong> The status bonus from inspire courage or inspire defense increases to +2.</p>\n<p>@Compendium[pf2e.spell-effects.Spell Effect: Inspire Heroics (Courage, +2)]{Success on Inspire Courage}, @Compendium[pf2e.spell-effects.Spell Effect: Inspire Heroics (Defense, +2)]{Success on Inspire Defense}</p>\n<p><strong>Failure</strong> Your inspire courage or inspire defense provides only its normal bonus of +1, but you don't spend the Focus Point for casting this spell.</p>"
        },
        "duration": {
            "value": ""
        },
        "hasCounteractCheck": {
            "value": false
        },
        "level": {
            "value": 4
        },
        "location": {
            "value": ""
        },
        "materials": {
            "value": ""
        },
        "prepared": {
            "value": ""
        },
        "primarycheck": {
            "value": ""
        },
        "range": {
            "value": ""
        },
        "rules": [],
        "save": {
            "basic": "",
            "value": ""
        },
        "scaling": {
            "formula": "",
            "mode": "none"
        },
        "school": {
            "value": "enchantment"
        },
        "secondarycasters": {
            "value": ""
        },
        "secondarycheck": {
            "value": ""
        },
        "source": {
            "value": ""
        },
        "spellType": {
            "value": "utility"
        },
        "sustained": {
            "value": false
        },
        "target": {
            "value": ""
        },
        "time": {
            "value": "free"
        },
        "traditions": {
            "value": []
        },
        "traits": {
            "custom": "",
            "rarity": {
                "value": "uncommon"
            },
            "value": [
                "bard",
                "enchantment"
            ]
        }
    },
    "effects": [],
    "flags": {},
    "img": "systems/pf2e/icons/spells/inspire-heroics.webp",
    "name": "Inspire Heroics",
    "permission": {
        "default": 0
    },
    "type": "spell"
}
