{
    "_id": "vhMCd15ZwNJn0zen",
    "data": {
        "ability": {
            "value": ""
        },
        "area": {
            "value": ""
        },
        "areasize": {
            "value": ""
        },
        "category": {
            "value": "focus"
        },
        "components": {
            "value": "Somatic, Verbal"
        },
        "cost": {
            "value": ""
        },
        "damage": {
            "applyMod": true,
            "value": "1d10"
        },
        "damageType": {
            "value": ""
        },
        "description": {
            "chat": "",
            "unidentified": "",
            "value": "<p>You reshape the target's shadow into a deadly form, such as strangling hands, a dangerous weapon, harrying runes, or the like, and command it to attack the target. When you @Compendium[pf2e.actionspf2e.Cast a Spell]{Cast the Spell}, and each time you @Compendium[pf2e.actionspf2e.Sustain a Spell]{Sustain the Spell}, the shadow makes a @Compendium[pf2e.actionspf2e.Strike]{Strike} against the target. The shadow moves along with the foe, always remaining within reach. If you Sustain the Spell multiple times in a round, you gain this effect each time. The shadow uses and contributes to your multiple attack penalty.</p>\n<p>The shadow's Strikes are melee spell attacks. Regardless of its shape, the shadow's Strikes deal damage equal to 1d10 plus your spellcasting ability modifier. You choose the type of damage when you Cast the Spell, choosing from bludgeoning, piercing, or slashing damage. The shadow doesn't take up space, grant flanking, or have any other attributes a creature would. The shadow can't make any attacks other than its Strike.</p>\n<p>The shadow vanishes if the target moves into an area of complete darkness or enters an area with light from all directions such that the target doesn't cast a shadow. If another effect is controlling the target's shadow when you cast malicious shadow, you can attempt to counteract that effect to temporarily take control of the shadow, but the original effect resumes when malicious shadow ends.</p>\n<hr />\n<p><strong>Heightened (+2)</strong> The Strike damage increases by 1d10.</p>"
        },
        "duration": {
            "value": "Sustained up to 1 minute"
        },
        "hasCounteractCheck": {
            "value": true
        },
        "level": {
            "value": 3
        },
        "location": {
            "value": "gj8uSdGt5Fbk1fGz"
        },
        "materials": {
            "value": ""
        },
        "prepared": {
            "value": ""
        },
        "primarycheck": {
            "value": ""
        },
        "range": {
            "value": "30 feet"
        },
        "rules": [],
        "save": {
            "basic": "",
            "value": ""
        },
        "scaling": {
            "formula": "1d10",
            "mode": "level2"
        },
        "school": {
            "value": "evocation"
        },
        "secondarycasters": {
            "value": ""
        },
        "secondarycheck": {
            "value": ""
        },
        "source": {
            "value": ""
        },
        "spellType": {
            "value": "attack"
        },
        "sustained": {
            "value": false
        },
        "target": {
            "value": "1 creature"
        },
        "time": {
            "value": "2"
        },
        "traditions": {
            "custom": "",
            "value": []
        },
        "traits": {
            "custom": "",
            "rarity": {
                "value": "uncommon"
            },
            "selected": {
                "custom": "Hex",
                "evocation": "Evocation",
                "shadow": "Shadow",
                "witch": "Witch"
            },
            "value": [
                "evocation",
                "shadow",
                "witch",
                "hex"
            ]
        }
    },
    "effects": [],
    "flags": {},
    "img": "systems/pf2e/icons/spells/malicious-shadow.webp",
    "name": "Malicious Shadow",
    "permission": {
        "default": 0
    },
    "type": "spell"
}
