{
    "_id": "skvgOWNTitLehL0b",
    "data": {
        "ability": {
            "value": ""
        },
        "area": {
            "areaType": "",
            "value": null
        },
        "areasize": {
            "value": ""
        },
        "category": {
            "value": "focus"
        },
        "components": {
            "value": "somatic, verbal"
        },
        "cost": {
            "value": ""
        },
        "damage": {
            "applyMod": false,
            "value": ""
        },
        "damageType": {
            "value": ""
        },
        "description": {
            "chat": "",
            "unidentified": "",
            "value": "<p>Merging minds with the target, you swap disorienting visions from one another's nightmares. One of you will become @Compendium[pf2e.conditionitems.Confused]{Confused}, but which it'll be depends on the target's Will save.</p>\n<hr />\n<p><strong>Critical Success</strong> You are Confused for 1 round.</p>\n<p><strong>Success</strong> At the start of your next turn, you spend your first action with the Confused condition, then act normally.</p>\n<p><strong>Failure</strong> As success, but the target is affected instead of you, spending its first action each turn Confused. The duration is 1 minute.</p>\n<p><strong>Critical Failure</strong> The target is Confused for 1 minute.</p>"
        },
        "duration": {
            "value": "varies"
        },
        "hasCounteractCheck": {
            "value": false
        },
        "level": {
            "value": 4
        },
        "location": {
            "value": ""
        },
        "materials": {
            "value": ""
        },
        "prepared": {
            "value": ""
        },
        "primarycheck": {
            "value": ""
        },
        "range": {
            "value": "30 feet"
        },
        "rules": [],
        "save": {
            "basic": "",
            "value": "will"
        },
        "scaling": {
            "formula": "",
            "mode": "none"
        },
        "school": {
            "value": "enchantment"
        },
        "secondarycasters": {
            "value": ""
        },
        "secondarycheck": {
            "value": ""
        },
        "source": {
            "value": ""
        },
        "spellType": {
            "value": "save"
        },
        "sustained": {
            "value": false
        },
        "target": {
            "value": "1 creature"
        },
        "time": {
            "value": "2"
        },
        "traditions": {
            "value": []
        },
        "traits": {
            "custom": "",
            "rarity": {
                "value": "uncommon"
            },
            "value": [
                "cleric",
                "emotion",
                "enchantment",
                "incapacitation",
                "mental"
            ]
        }
    },
    "effects": [],
    "flags": {},
    "img": "systems/pf2e/icons/spells/shared-nightmare.webp",
    "name": "Shared Nightmare",
    "permission": {
        "default": 0
    },
    "type": "spell"
}
