{
    "_id": "LTUaK3smfm5eDiFK",
    "data": {
        "ability": {
            "value": ""
        },
        "area": {
            "value": ""
        },
        "areasize": {
            "value": "60-foot emanation"
        },
        "category": {
            "value": "focus"
        },
        "components": {
            "value": "verbal"
        },
        "cost": {
            "value": ""
        },
        "damage": {
            "applyMod": false,
            "value": ""
        },
        "damageType": {
            "value": ""
        },
        "description": {
            "chat": "",
            "unidentified": "",
            "value": "<p>You maintain a brisk performance that keeps allies on the move. You and your allies in the area can @Compendium[pf2e.actionspf2e.Hustle]{Hustle} for the spell's duration, even though you are also @Compendium[pf2e.actionspf2e.Sustain a Spell]{Sustaining the Spell}. You and your allies then become temporarily immune for 1 day.</p>\n<hr />\n<p><strong>Heightened (6th)</strong> You can Sustain the Spell for up to 2 hours.</p>\n<p><strong>Heightened (9th)</strong> You can Sustain the Spell for up to 4 hours.</p>"
        },
        "duration": {
            "value": "sustained up to 1 hour"
        },
        "hasCounteractCheck": {
            "value": false
        },
        "level": {
            "value": 0
        },
        "location": {
            "value": ""
        },
        "materials": {
            "value": ""
        },
        "prepared": {
            "value": ""
        },
        "primarycheck": {
            "value": ""
        },
        "range": {
            "value": ""
        },
        "rules": [],
        "save": {
            "basic": "",
            "value": ""
        },
        "scaling": {
            "formula": "",
            "mode": "none"
        },
        "school": {
            "value": "enchantment"
        },
        "secondarycasters": {
            "value": ""
        },
        "secondarycheck": {
            "value": ""
        },
        "source": {
            "value": ""
        },
        "spellType": {
            "value": "utility"
        },
        "sustained": {
            "value": false
        },
        "target": {
            "value": ""
        },
        "time": {
            "value": "1"
        },
        "traditions": {
            "value": []
        },
        "traits": {
            "custom": "",
            "rarity": {
                "value": "uncommon"
            },
            "value": [
                "bard",
                "cantrip",
                "composition",
                "enchantment",
                "mental"
            ]
        }
    },
    "effects": [],
    "flags": {},
    "img": "systems/pf2e/icons/spells/song-of-marching.webp",
    "name": "Song of Marching",
    "permission": {
        "default": 0
    },
    "type": "spell"
}
