{
    "_id": "xTpp8dHZsNMDm75B",
    "data": {
        "ability": {
            "value": ""
        },
        "area": {
            "areaType": "",
            "value": ""
        },
        "areasize": {
            "value": "5-foot burst"
        },
        "category": {
            "value": "focus"
        },
        "components": {
            "value": "somatic, verbal"
        },
        "cost": {
            "value": ""
        },
        "damage": {
            "applyMod": false,
            "value": ""
        },
        "damageType": {
            "value": ""
        },
        "description": {
            "chat": "",
            "unidentified": "",
            "value": "<p>A deluge of colorful illusory paint, tools, or other symbols of art and artisanship drift down in the area. Roll 1d4 to determine the color of the illusion. Each creature in the area must attempt a Will save. A creature is unaffected on a success. On a failure or critical failure, the creature takes the results listed on the table relevant to the color.</p>\n<h3 style=\"box-sizing: border-box; user-select: text; color: #191813;\"><strong style=\"box-sizing: border-box; user-select: text;\">Splash of Art</strong></h3>\n<table class=\"pf2-table\">\n<thead>\n<tr>\n<th>1d4</th>\n<th>Color</th>\n<th>Failure</th>\n<th>Critical Failure</th>\n</tr>\n</thead>\n<tbody>\n<tr>\n<td>1</td>\n<td>White</td>\n<td>@Compendium[pf2e.conditionitems.Dazzled]{Dazzled 1} round</td>\n<td>Dazzled 1 minute</td>\n</tr>\n<tr>\n<td>2</td>\n<td>Red</td>\n<td>@Compendium[pf2e.conditionitems.Enfeebled]{Enfeebled 1} for 1 round</td>\n<td>@Compendium[pf2e.conditionitems.Enfeebled]{Enfeebled 2} for 1 round</td>\n</tr>\n<tr>\n<td>3</td>\n<td>Yellow</td>\n<td>@Compendium[pf2e.conditionitems.Frightened]{Frightened 1}</td>\n<td>@Compendium[pf2e.conditionitems.Frightened]{Frightened 2}</td>\n</tr>\n<tr>\n<td>4</td>\n<td>Blue</td>\n<td>@Compendium[pf2e.conditionitems.Clumsy]{Clumsy 1} for 1 round</td>\n<td>@Compendium[pf2e.conditionitems.Clumsy]{Clumsy 2} for 1 round</td>\n</tr>\n</tbody>\n</table>\n<p style=\"box-sizing: border-box; user-select: text; color: #191813; font-size: 13px;\"></p>"
        },
        "duration": {
            "value": "varies"
        },
        "hasCounteractCheck": {
            "value": false
        },
        "level": {
            "value": 1
        },
        "location": {
            "value": ""
        },
        "materials": {
            "value": ""
        },
        "prepared": {
            "value": ""
        },
        "primarycheck": {
            "value": ""
        },
        "range": {
            "value": "30 feet"
        },
        "rules": [],
        "save": {
            "basic": "",
            "value": "will"
        },
        "scaling": {
            "formula": "",
            "mode": "none"
        },
        "school": {
            "value": "illusion"
        },
        "secondarycasters": {
            "value": ""
        },
        "secondarycheck": {
            "value": ""
        },
        "source": {
            "value": ""
        },
        "spellType": {
            "value": "save"
        },
        "sustained": {
            "value": false
        },
        "target": {
            "value": ""
        },
        "time": {
            "value": "2"
        },
        "traditions": {
            "value": []
        },
        "traits": {
            "custom": "",
            "rarity": {
                "value": "uncommon"
            },
            "value": [
                "cleric",
                "illusion",
                "visual"
            ]
        }
    },
    "effects": [],
    "flags": {},
    "img": "systems/pf2e/icons/spells/splash-of-art.webp",
    "name": "Splash of Art",
    "permission": {
        "default": 0
    },
    "type": "spell"
}
