{
    "_id": "GeUbPvwdZ4B4l0up",
    "data": {
        "ability": {
            "value": ""
        },
        "area": {
            "value": ""
        },
        "areasize": {
            "value": ""
        },
        "category": {
            "value": "focus"
        },
        "components": {
            "value": "Verbal"
        },
        "cost": {
            "value": ""
        },
        "damage": {
            "applyMod": false,
            "value": ""
        },
        "damageType": {
            "value": ""
        },
        "description": {
            "chat": "",
            "unidentified": "",
            "value": "<p>Intense fervor fills the target creature, empowering their blows. The target gains a +2 status bonus to damage rolls. Once this spell ends, the target becomes temporarily immune for 1 minute.</p>\n<hr />\n<p><strong>Heightened (+2)</strong> The status bonus to damage increases by 1.</p>"
        },
        "duration": {
            "value": "Sustained up to 1 minute"
        },
        "hasCounteractCheck": {
            "value": false
        },
        "level": {
            "value": 0
        },
        "location": {
            "value": "gj8uSdGt5Fbk1fGz"
        },
        "materials": {
            "value": ""
        },
        "prepared": {
            "value": ""
        },
        "primarycheck": {
            "value": ""
        },
        "range": {
            "value": "30 feet"
        },
        "rules": [],
        "save": {
            "basic": "",
            "value": ""
        },
        "scaling": {
            "formula": "",
            "mode": "none"
        },
        "school": {
            "value": "enchantment"
        },
        "secondarycasters": {
            "value": ""
        },
        "secondarycheck": {
            "value": ""
        },
        "source": {
            "value": ""
        },
        "spellType": {
            "value": "utility"
        },
        "sustained": {
            "value": false
        },
        "target": {
            "value": "1 creature"
        },
        "time": {
            "value": "1"
        },
        "traditions": {
            "value": []
        },
        "traits": {
            "custom": "",
            "rarity": {
                "value": "uncommon"
            },
            "selected": {
                "cantrip": "Cantrip",
                "custom": "Hex",
                "emotion": "Emotion",
                "enchantment": "Enchantment",
                "witch": "Witch"
            },
            "value": [
                "cantrip",
                "emotion",
                "enchantment",
                "witch",
                "hex"
            ]
        }
    },
    "effects": [],
    "flags": {},
    "img": "systems/pf2e/icons/spells/stoke-the-heart.webp",
    "name": "Stoke the Heart",
    "permission": {
        "default": 0
    },
    "type": "spell"
}
