{
    "_id": "uuoPmbjEtqzWZs0v",
    "data": {
        "ability": {
            "value": ""
        },
        "area": {
            "value": ""
        },
        "areasize": {
            "value": "100 feet × 100 feet, up to 20 feet high"
        },
        "category": {
            "value": "ritual"
        },
        "components": {
            "value": ""
        },
        "cost": {
            "value": "rare oils, salts, and herbs worth a total value  of 15 gp"
        },
        "damage": {
            "applyMod": false,
            "value": ""
        },
        "damageType": {
            "value": ""
        },
        "description": {
            "chat": "",
            "unidentified": "",
            "value": "<p>You create a site-bound, long-lasting @Compendium[pf2e.spells-srd.Unseen Servant]{Unseen Servant} spell effect, forming entities of pure force to carry out basic tasks at a fixed location.</p>\n<hr />\n<p><strong>Critical Success</strong> The ritual creates six unseen servants. You don't need to concentrate on them, and they aren't summoned minions. You can spend an action, which has the concentrate trait, to command one to perform a basic task; it continues to perform the task until commanded again.</p>\n<p><strong>Success</strong> As critical success, but the ritual creates three unseen servants.</p>\n<p><strong>Failure</strong> The ritual fails to create any servants.</p>\n<p><strong>Critical Failure</strong> The ritual creates six unseen servants, but these creatures are hostile and capable of making fist @Compendium[pf2e.actionspf2e.Strike]{Strikes} with an attack bonus equal to your skill modifier for the primary skill check, dealing [[/r 1d6 #force]] force damage. They attack you and your allies and attempt to break objects belonging to you and your allies within the area.</p>\n<hr />\n<p><strong>Heightened (6th)</strong> If destroyed, the unseen servants reform the next morning. The cost increases to 30 gp.</p>"
        },
        "duration": {
            "value": "1 year"
        },
        "hasCounteractCheck": {
            "value": false
        },
        "level": {
            "value": 3
        },
        "location": {
            "value": ""
        },
        "materials": {
            "value": ""
        },
        "prepared": {
            "value": ""
        },
        "primarycheck": {
            "value": "Arcana or Occultism (expert)"
        },
        "range": {
            "value": ""
        },
        "rules": [],
        "save": {
            "basic": "",
            "value": ""
        },
        "scaling": {
            "formula": "",
            "mode": "none"
        },
        "school": {
            "value": "conjuration"
        },
        "secondarycasters": {
            "value": "2"
        },
        "secondarycheck": {
            "value": "Arcana or Occultism (whichever isn't used for the  primary check), Diplomacy"
        },
        "source": {
            "value": ""
        },
        "spellType": {
            "value": "utility"
        },
        "sustained": {
            "value": false
        },
        "target": {
            "value": ""
        },
        "time": {
            "value": "1 day"
        },
        "traditions": {
            "value": []
        },
        "traits": {
            "custom": "",
            "rarity": {
                "value": "uncommon"
            },
            "value": [
                "conjuration"
            ]
        }
    },
    "effects": [],
    "flags": {},
    "img": "systems/pf2e/icons/spells/unseen-custodians.webp",
    "name": "Unseen Custodians",
    "permission": {
        "default": 0
    },
    "type": "spell"
}
