{
    "_id": "kRDsVbhdBVeSlpBa",
    "data": {
        "actionCategory": {
            "value": ""
        },
        "actionType": {
            "value": "passive"
        },
        "actions": {
            "value": ""
        },
        "description": {
            "chat": "",
            "unidentified": "",
            "value": "<p>You are a descendant of a famed crafter and have your own amazing talent. Other dwarves might consider this a blessing from your ancestors or from the Forgefather himself, depending on where you grew up. You become trained in Crafting (or another skill if you were already trained in Crafting) and gain the Specialty Crafting skill feat, but you can pick two different specialties instead of one.</p>\n<hr />\n<ul>\n<li>@Compendium[pf2e.feats-srd.Specialty Crafting (Alchemy)]{Specialty Crafting (Alchemy)}</li>\n<li>@Compendium[pf2e.feats-srd.Specialty Crafting (Artistry)]{Specialty Crafting (Artistry)}</li>\n<li>@Compendium[pf2e.feats-srd.Specialty Crafting (Blacksmithing)]{Specialty Crafting (Blacksmithing)}</li>\n<li>@Compendium[pf2e.feats-srd.Specialty Crafting (Bookmaking)]{Specialty Crafting (Bookmaking)}</li>\n<li>@Compendium[pf2e.feats-srd.Specialty Crafting (Glassmaking)]{Specialty Crafting (Glassmaking)}</li>\n<li>@Compendium[pf2e.feats-srd.Specialty Crafting (Leatherworking)]{Specialty Crafting (Leatherworking)}</li>\n<li>@Compendium[pf2e.feats-srd.Specialty Crafting (Pottery)]{Specialty Crafting (Pottery)}</li>\n<li>@Compendium[pf2e.feats-srd.Specialty Crafting (Shipbuilding)]{Specialty Crafting (Shipbuilding)}</li>\n<li>@Compendium[pf2e.feats-srd.Specialty Crafting (Stonemasonry)]{Specialty Crafting (Stonemasonry)}</li>\n<li>@Compendium[pf2e.feats-srd.Specialty Crafting (Tailoring)]{Specialty Crafting (Tailoring)}</li>\n<li>@Compendium[pf2e.feats-srd.Specialty Crafting (Weaving)]{Specialty Crafting (Weaving)}</li>\n<li>@Compendium[pf2e.feats-srd.Specialty Crafting (Woodworking)]{Specialty Crafting (Woodworking)}</li>\n</ul>"
        },
        "featType": {
            "value": "heritage"
        },
        "level": {
            "value": 1
        },
        "prerequisites": {
            "value": []
        },
        "rules": [],
        "source": {
            "value": ""
        },
        "traits": {
            "custom": "",
            "rarity": {
                "value": "common"
            },
            "value": [
                "dwarf"
            ]
        }
    },
    "effects": [],
    "flags": {},
    "img": "systems/pf2e/icons/features/ancestry/anvil-dwarf.webp",
    "name": "Anvil Dwarf",
    "permission": {
        "default": 0
    },
    "type": "feat"
}
