{
    "_id": "IFg2tqmAFFnU8UNU",
    "data": {
        "actionCategory": {
            "value": ""
        },
        "actionType": {
            "value": "passive"
        },
        "actions": {
            "value": ""
        },
        "description": {
            "value": "<p>Whether due to Daikitsu’s grace or faithful forebears, you have a strong connection to the divine, affording you certain protections. You gain the @Compendium[pf2e.actionspf2e.Invoke Celestial Privilege]{Invoke Celestial Privilege} reaction. Your alternate form is a common Medium humanoid ancestry prevalent where you grew up (typically human), called a tailless form.</p>"
        },
        "featType": {
            "value": "heritage"
        },
        "level": {
            "value": null
        },
        "location": "",
        "prerequisites": {
            "value": []
        },
        "rules": [],
        "source": {
            "value": ""
        },
        "traits": {
            "custom": "",
            "rarity": {
                "value": "common"
            },
            "value": [
                "kitsune"
            ]
        }
    },
    "effects": [],
    "flags": {},
    "img": "systems/pf2e/icons/default-icons/feat.svg",
    "name": "Celestial Envoy Kitsune",
    "permission": {
        "default": 0
    },
    "type": "feat"
}
