{
    "_id": "VvEAFoxuddYNBmNc",
    "data": {
        "actionCategory": {
            "value": ""
        },
        "actionType": {
            "value": "passive"
        },
        "actions": {
            "value": ""
        },
        "description": {
            "value": "<p>You were exposed to powerful necromantic energies that should have killed you—but you survived. Your skin is cold, clammy, and gray. You gain resistance to negative damage equal to half your level (minimum 1). You also gain a +1 circumstance bonus to saving throws against necromancy effects.</p>"
        },
        "featType": {
            "value": "heritage"
        },
        "level": {
            "value": 1
        },
        "location": "",
        "prerequisites": {
            "value": []
        },
        "rules": [],
        "source": {
            "value": ""
        },
        "traits": {
            "custom": "",
            "rarity": {
                "value": "common"
            },
            "value": [
                "orc"
            ]
        }
    },
    "effects": [],
    "flags": {},
    "img": "systems/pf2e/icons/default-icons/feat.svg",
    "name": "Grave Orc",
    "permission": {
        "default": 0
    },
    "type": "feat"
}
