{
    "_id": "TRw4oBZBFZG96jKO",
    "data": {
        "actionCategory": {
            "value": ""
        },
        "actionType": {
            "value": "passive"
        },
        "actions": {
            "value": ""
        },
        "description": {
            "value": "<p>Your inherent magic pervades your entire being. All your Strikes are magical, whether with unarmed attacks or weapons.</p>"
        },
        "featType": {
            "value": "ancestryfeature"
        },
        "level": {
            "value": 1
        },
        "location": "",
        "prerequisites": {
            "value": []
        },
        "rules": [],
        "source": {
            "value": ""
        },
        "traits": {
            "custom": "",
            "rarity": {
                "value": "common"
            },
            "value": [
                "sprite"
            ]
        }
    },
    "effects": [],
    "flags": {},
    "img": "systems/pf2e/icons/default-icons/feat.svg",
    "name": "Magical Strikes",
    "permission": {
        "default": 0
    },
    "type": "feat"
}
