{
    "_id": "7vHLPleFpSqKAjWG",
    "data": {
        "actionCategory": {
            "value": ""
        },
        "actionType": {
            "value": "passive"
        },
        "actions": {
            "value": ""
        },
        "description": {
            "chat": "",
            "unidentified": "",
            "value": "<p><span id=\"docs-internal-guid-86da5438-7fff-95ca-40da-9c43890897f2\"></span></p>\n<p dir=\"ltr\">Whether due to a blessing from Hei Feng or hatching from your egg during a squall, you are resistant to storms. You gain electricity resistance equal to half your level (minimum 1).</p>\n<p dir=\"ltr\">You automatically succeed at the flat check to target a @Compendium[pf2e.conditionitems.Concealed]{Concealed} creature if that creature is concealed only by rain or fog.</p>"
        },
        "featType": {
            "value": "heritage"
        },
        "level": {
            "value": 1
        },
        "prerequisites": {
            "value": []
        },
        "rules": [],
        "source": {
            "value": ""
        },
        "traits": {
            "custom": "",
            "rarity": {
                "value": "common"
            },
            "value": [
                "tengu"
            ]
        }
    },
    "effects": [],
    "flags": {},
    "img": "systems/pf2e/icons/features/ancestry/stormtossed-tengu.webp",
    "name": "Stormtossed Tengu",
    "permission": {
        "default": 0
    },
    "type": "feat"
}
