{
    "_id": "giyLRNefaC3IsFay",
    "data": {
        "actionCategory": {
            "value": ""
        },
        "actionType": {
            "value": "passive"
        },
        "actions": {
            "value": ""
        },
        "description": {
            "chat": "",
            "unidentified": "",
            "value": "<p><strong>[Generic]</strong></p>\n<p><strong>Effect</strong>: You are a champion of the Balgirdtrek, which earns you special privileges throughout the Lands of the Linnorm Kings. While playing in an adventure that takes place primarily in the Lands of the Linnorm Kings, you can stay for free at any Ulfen or Varki inn or similar establishment, and you gain a 10% on all non-magical goods bought in Ulfen or Varki settlements (this does not stack with any other discount or reduction in price). In addition, you gain a +1 circumstance bonus on all Diplomacy checks to @Compendium[pf2e.actionspf2e.Request]{Make a Request} while playing in an adventure that takes place primarily in the Lands of the Linnorm Kings.</p>"
        },
        "featType": {
            "value": "pfsboon"
        },
        "level": {
            "value": "0"
        },
        "prerequisites": {
            "value": []
        },
        "rules": [],
        "source": {
            "value": ""
        },
        "traits": {
            "custom": "",
            "rarity": {
                "value": "common"
            },
            "selected": {},
            "value": []
        }
    },
    "effects": [],
    "flags": {},
    "img": "systems/pf2e/icons/default-icons/mystery-man.webp",
    "name": "S1-10 - Tarnbreaker Champions",
    "permission": {
        "default": 0
    },
    "type": "feat"
}
