{
    "_id": "rJfATB750MbndGeP",
    "data": {
        "actionCategory": {
            "value": ""
        },
        "actionType": {
            "value": "passive"
        },
        "actions": {
            "value": ""
        },
        "description": {
            "chat": "",
            "unidentified": "",
            "value": "<p>After journeying into Irrisen, you attracted the attention of Baba Yaga, who has decided to teach you a lesson or two - either in thanks for your conduct or in the belief that only through her harsh tutelage will you learn some respect for the Land of Eternal Winter. Choose one of your characters to receive one of the following benefits; keep a copy of this boon with that character's records.</p>\n<p><strong>Option 1:</strong> That character gains access to the rare @Compendium[pf2e.classfeatures.Baba Yaga Patron]{Baba Yaga witch patron}, as well as the character options that she grants: the @Compendium[pf2e.spells-srd.Spirit Object]{Spirit Object} hex, lesson of the frozen queen major lesson, the @Compendium[pf2e.spells-srd.Glacial Heart]{Glacial Heart} hex, and inanimate object familiars.</p>\n<p><strong>Option 2:</strong> The character can also elect not to take Baba Yaga as a patron, in which case they still gain access to the lesson of the frozen queen major lesson and the @Compendium[pf2e.spells-srd.Glacial Heart]{Glacial Heart} hex.</p>\n<p>These options are described on pages 32-33 of Lost Omens Legends.</p>\n<p><strong>Character chosen:</strong> -20_________</p>"
        },
        "featType": {
            "value": "pfsboon"
        },
        "identified": {
            "value": true
        },
        "level": {
            "value": 0
        },
        "prerequisites": {
            "value": []
        },
        "rules": [],
        "source": {
            "value": ""
        },
        "traits": {
            "custom": "",
            "rarity": {
                "value": "common"
            },
            "selected": {},
            "value": []
        }
    },
    "effects": [],
    "flags": {},
    "img": "systems/pf2e/icons/default-icons/mystery-man.webp",
    "name": "S2-08 - Baba Yaga's Tutelage",
    "permission": {
        "default": 0
    },
    "type": "feat"
}
