{
    "_id": "4O3qxD3I4LUjl2Vq",
    "data": {
        "actionCategory": {
            "value": ""
        },
        "actionType": {
            "value": "free"
        },
        "actions": {
            "value": ""
        },
        "description": {
            "chat": "",
            "unidentified": "",
            "value": "<p><strong>[Item]</strong></p>\n<p><strong>Prerequisites</strong>: Tier 2 with the Envoy's Alliance; You own a @Compendium[pf2e.equipment-srd.Wayfinder]{Wayfinder}</p>\n<p><strong>Cost</strong>: 2 Fame</p>\n<p><strong>Action</strong>: Free action</p>\n<p><strong>Effect</strong>: You have modified your @Compendium[pf2e.equipment-srd.Wayfinder]{Wayfinder} to resonate with your allies' actions, allowing you to better help them in times of need. When you slot this boon, you apply its benefits to one @Compendium[pf2e.equipment-srd.Wayfinder]{Wayfinder} in your possession, granting you a special free action ability when the @Compendium[pf2e.equipment-srd.Wayfinder]{Wayfinder} is invested and in your possession.</p>\n<p>You can activate this ability as a free action before you @Compendium[pf2e.actionspf2e.Aid]{Aid} an ally. If you roll a success on the check to @Compendium[pf2e.actionspf2e.Aid]{Aid}, you instead get a critical success.</p>\n<p>You can safely use this benefit once per adventure.You can attempt to use it a second time, overcharging the wayfinder at the risk of destroying it. When you do so, roll a DC 10 flat check. On a success, the wayfinder is @Compendium[pf2e.conditionitems.Broken]{Broken}. On a failure, the wayfinder is destroyed. Trying to overcharge it twice destroys it.</p>"
        },
        "featType": {
            "value": "pfsboon"
        },
        "level": {
            "value": "0"
        },
        "prerequisites": {
            "value": []
        },
        "rules": [],
        "source": {
            "value": ""
        },
        "traits": {
            "custom": "",
            "rarity": {
                "value": "common"
            },
            "selected": {},
            "value": []
        }
    },
    "effects": [],
    "flags": {},
    "img": "systems/pf2e/icons/default-icons/mystery-man.webp",
    "name": "Wayfinder, Harmonic",
    "permission": {
        "default": 0
    },
    "type": "feat"
}
