{
    "_id": "svVczVV174KfJRDf",
    "data": {
        "description": {
            "value": "<p>Granted by @Compendium[pf2e.feats-srd.Shared Avoidance]{Shared Avoidance}.</p>\n<p>Allies within 15 feet of you who are rolling the same saving throw against the same hazard also gain a +2 circumstance bonus to their saving throws.</p>"
        },
        "duration": {
            "expiry": "turn-start",
            "sustained": false,
            "unit": "unlimited",
            "value": -1
        },
        "level": {
            "value": 10
        },
        "rules": [
            {
                "key": "PF2E.RuleElement.TokenEffectIcon"
            },
            {
                "key": "PF2E.RuleElement.FlatModifier",
                "predicate": {
                    "all": [
                        "premonition-of-avoidance",
                        "target:hazard"
                    ]
                },
                "selector": "saving-throw",
                "type": "circumstance",
                "value": 2
            }
        ],
        "source": {
            "value": ""
        },
        "start": {
            "initiative": null,
            "value": 0
        },
        "target": null,
        "traits": {
            "custom": "",
            "rarity": {
                "value": "common"
            },
            "value": []
        }
    },
    "effects": [],
    "flags": {},
    "img": "systems/pf2e/icons/spells/freedom-of-movement.webp",
    "name": "Effect: Shared Avoidance",
    "permission": {
        "default": 0
    },
    "type": "effect"
}
