{
    "_id": "Lt5iSfx8fxHSdYXz",
    "data": {
        "description": {
            "value": "<p>Granted when a ranger shares their @Compendium[pf2e.classfeatures.Masterful Hunter (Precision)]{Masterful Hunter (Precision)} with you.</p>\n<p>The second time in a round you hit your hunted prey, you also deal 1d8 precision damage.</p>\n<p>At 19th level, your second hit in a round against your hunted prey deals 2d8 precision damage, and your third hit in a round against your hunted prey deals 1d8 precision damage.</p>"
        },
        "duration": {
            "expiry": "turn-start",
            "sustained": false,
            "unit": "unlimited",
            "value": -1
        },
        "level": {
            "value": 17
        },
        "rules": [
            {
                "key": "PF2E.RuleElement.ToggleProperty",
                "label": "Target is your Hunted Prey",
                "property": "flags.pf2e.rollOptions.all.hunted-prey"
            },
            {
                "key": "PF2E.RuleElement.FlatModifier",
                "label": "To Track hunted prey (Masterful Hunter)",
                "predicate": {
                    "all": [
                        "action:track",
                        "hunted-prey"
                    ]
                },
                "roll-options": [
                    "all"
                ],
                "selector": "survival",
                "type": "circumstance",
                "value": {
                    "brackets": [
                        {
                            "end": 4,
                            "start": 3,
                            "value": 4
                        },
                        {
                            "end": 2,
                            "start": 1,
                            "value": 2
                        }
                    ],
                    "field": "actor|data.skills.sur.rank"
                }
            },
            {
                "key": "PF2E.RuleElement.FlatModifier",
                "label": "To Seek hunted prey (Masterful Hunter)",
                "predicate": {
                    "all": [
                        "action:seek",
                        "hunted-prey"
                    ]
                },
                "roll-options": [
                    "all"
                ],
                "selector": "perception",
                "type": "circumstance",
                "value": {
                    "brackets": [
                        {
                            "end": 4,
                            "start": 3,
                            "value": 4
                        },
                        {
                            "end": 2,
                            "start": 1,
                            "value": 2
                        }
                    ],
                    "field": "actor|data.attributes.perception.rank"
                }
            },
            {
                "key": "PF2E.RuleElement.ToggleProperty",
                "label": "Second attack on hunted prey this round",
                "property": "flags.pf2e.rollOptions.all.second-attack"
            },
            {
                "damageType": "precision",
                "dieSize": "d8",
                "key": "PF2E.RuleElement.DamageDice",
                "predicate": {
                    "all": [
                        "second-attack"
                    ]
                },
                "roll-options": [
                    "all"
                ],
                "selector": "damage",
                "value": {
                    "brackets": [
                        {
                            "end": 18,
                            "value": {
                                "diceNumber": 1
                            }
                        },
                        {
                            "start": 19,
                            "value": {
                                "diceNumber": 2
                            }
                        }
                    ]
                }
            },
            {
                "key": "PF2E.RuleElement.ToggleProperty",
                "label": "Third attack on hunted prey this round",
                "property": "flags.pf2e.rollOptions.all.third-attack"
            },
            {
                "damageType": "precision",
                "dieSize": "d8",
                "key": "PF2E.RuleElement.DamageDice",
                "predicate": {
                    "all": [
                        "third-attack"
                    ]
                },
                "roll-options": [
                    "all"
                ],
                "selector": "damage",
                "value": {
                    "brackets": [
                        {
                            "start": 19,
                            "value": {
                                "diceNumber": 1
                            }
                        }
                    ]
                }
            }
        ],
        "source": {
            "value": ""
        },
        "start": {
            "initiative": null,
            "value": 0
        },
        "target": null,
        "tokenIcon": {
            "show": true
        },
        "traits": {
            "custom": "",
            "rarity": {
                "value": "common"
            },
            "value": []
        }
    },
    "effects": [],
    "flags": {},
    "img": "systems/pf2e/icons/features/classes/precision.webp",
    "name": "Effect: Masterful Hunter's Edge, Precision",
    "permission": {
        "default": 0
    },
    "type": "effect"
}
