{
    "_id": "eeAlh6edygcZIz9c",
    "data": {
        "description": {
            "chat": "",
            "unidentified": "",
            "value": "<p>Granted by @Compendium[pf2e.spells-srd.Wild Winds Stance]{Wild Winds Stance}</p>\n<p>You take on the stance of the flowing winds, sending out waves of energy at a distance.</p>\n<p>You can make wind crash unarmed Strikes as ranged Strikes against targets within 30 feet. These deal 1d6 bludgeoning damage, use the brawling group, and have the agile, nonlethal, propulsive, and unarmed traits. Wind crash Strikes ignore concealment and all cover.</p>\n<p>While in wild winds stance, you gain a +2 circumstance bonus to AC against ranged attacks.</p>"
        },
        "duration": {
            "expiry": "turn-start",
            "sustained": false,
            "unit": "unlimited",
            "value": -1
        },
        "level": {
            "value": 0
        },
        "rules": [
            {
                "ability": "dex",
                "category": "unarmed",
                "damage": {
                    "base": {
                        "damageType": "bludgeoning",
                        "dice": 1,
                        "die": "d6"
                    }
                },
                "group": "brawling",
                "key": "PF2E.RuleElement.Strike",
                "label": "Wind Crash",
                "range": "range",
                "traits": [
                    "agile",
                    "propulsive",
                    "unarmed",
                    "nonlethal"
                ]
            },
            {
                "key": "PF2E.RuleElement.ToggleProperty",
                "label": "Wild Wind Stance (vs. ranged attack)",
                "property": "flags.pf2e.rollOptions.all.wild-wind"
            },
            {
                "key": "PF2E.RuleElement.FlatModifier",
                "label": "Wild Winds Stance (vs. ranged attacks)",
                "predicate": {
                    "all": [
                        "wild-wind"
                    ]
                },
                "roll-options": [
                    "all"
                ],
                "selector": "ac",
                "type": "circumstance",
                "value": 2
            },
            {
                "key": "PF2E.RuleElement.Note",
                "selector": "wind-crash-attack",
                "text": "<p class='compact-text'><strong>Wild Wind Stance</strong> Wind crash strikes ignore concealment and all cover</p>"
            },
            {
                "key": "PF2E.RuleElement.TokenEffectIcon"
            }
        ],
        "source": {
            "value": ""
        },
        "start": {
            "initiative": null,
            "value": 0
        },
        "target": null,
        "traits": {
            "custom": "",
            "rarity": {
                "value": "common"
            },
            "value": []
        }
    },
    "effects": [],
    "flags": {},
    "img": "systems/pf2e/icons/spells/wild-winds-stance.webp",
    "name": "Stance: Wild Winds Stance",
    "permission": {
        "default": 0
    },
    "type": "effect"
}
