{
    "_id": "Qcl0FPQS2Ovr179p",
    "data": {
        "attributes": {
            "ac": {
                "value": 10
            },
            "hardness": 5,
            "hasHealth": true,
            "hp": {
                "details": "",
                "max": 1,
                "temp": 0,
                "tempmax": 0,
                "value": 1
            },
            "stealth": {
                "details": "(trained)",
                "value": 20
            }
        },
        "creatureType": "",
        "customModifiers": {},
        "details": {
            "description": "The damaged ceiling is the only thing stopping the centipedes lairing above from falling through.",
            "disable": "Crafting DC 22 (trained) to reinforce the ceiling with boards from the broken door.",
            "isComplex": false,
            "level": 3,
            "reset": "",
            "routine": ""
        },
        "flavourText": "",
        "recallKnowledgeText": "",
        "saves": {
            "fortitude": {
                "rank": 0,
                "saveDetail": "",
                "value": 1
            },
            "reflex": {
                "rank": 0,
                "saveDetail": "",
                "value": 1
            },
            "will": {
                "rank": 0,
                "saveDetail": "",
                "value": 0
            }
        },
        "schema": {
            "version": {
                "value": ""
            }
        },
        "sidebarText": "",
        "source": {
            "value": ""
        },
        "statusEffects": [],
        "traits": {
            "ci": [],
            "di": {
                "custom": "",
                "selected": {},
                "value": [
                    "critical-hits",
                    "object-immunities",
                    "precision"
                ]
            },
            "dr": [],
            "dv": [],
            "rarity": {
                "value": "common"
            },
            "size": {
                "value": "med"
            },
            "traits": {
                "custom": "",
                "value": [
                    "mechanical"
                ]
            }
        }
    },
    "effects": [],
    "flags": {},
    "img": "systems/pf2e/icons/default-icons/hazard.svg",
    "items": [
        {
            "_id": "MQ3CKYIdF6zrMg0x",
            "data": {
                "actionCategory": {
                    "value": ""
                },
                "actionType": {
                    "value": "reaction"
                },
                "actions": {
                    "value": ""
                },
                "description": {
                    "chat": "",
                    "unidentified": "",
                    "value": "<p><strong>Trigger</strong> A creature walks into the area beneath the centipede lair. <strong>Effect</strong> Hearing potential prey, the centipedes begin scrabbling above, causing the ceiling to collapse and centipedes to rain down, dealing [[/r 3d8+4 #bludgeoning]] bludgeoning damage to each creature in the area; each creature in the area must attempt a <span data-pf2-saving-throw=\"reflex\" data-pf2-dc=\"19\" data-pf2-traits=\"damaging-effect\" data-pf2-label=\"Collapse DC\" data-pf2-show-dc=\"gm\">Reflex</span> save. <strong>Critical Success</strong> The creature is unaffected. <strong>Success</strong> The creature takes half damage. <strong>Failure</strong> The creature takes full damage. <strong>Critical Failure</strong> The creature takes double damage and is knocked @Compendium[pf2e.conditionitems.Prone]{Prone}.</p>"
                },
                "requirements": {
                    "value": ""
                },
                "rules": [],
                "slug": null,
                "source": {
                    "value": ""
                },
                "traits": {
                    "custom": "",
                    "rarity": {
                        "value": "common"
                    },
                    "value": []
                },
                "trigger": {
                    "value": ""
                },
                "usage": {
                    "value": "held-in-one-hand"
                },
                "weapon": {
                    "value": ""
                }
            },
            "effects": [],
            "flags": {},
            "img": "systems/pf2e/icons/actions/Reaction.webp",
            "name": "Collapse",
            "sort": 100000,
            "type": "action"
        }
    ],
    "name": "Collapsing Ceiling (3-4)",
    "permission": {
        "default": 0
    },
    "token": {
        "actorId": "Qcl0FPQS2Ovr179p",
        "actorLink": false,
        "bar1": {
            "attribute": "attributes.hp"
        },
        "bar2": {
            "attribute": ""
        },
        "brightLight": 0,
        "brightSight": 0,
        "dimLight": 0,
        "dimSight": 0,
        "displayBars": 20,
        "displayName": 20,
        "disposition": 0,
        "flags": {
            "perfect-vision": {
                "monoVisionColor": "",
                "visionRules": "default"
            }
        },
        "height": 1,
        "img": "systems/pf2e/icons/default-icons/hazard.svg",
        "lightAlpha": 1,
        "lightAngle": 360,
        "lightAnimation": {
            "intensity": 5,
            "speed": 5,
            "type": ""
        },
        "lightColor": "",
        "lockRotation": false,
        "mirrorX": false,
        "mirrorY": false,
        "name": "Collapsing Ceiling (3-4)",
        "randomImg": false,
        "rotation": 0,
        "scale": 1,
        "sightAngle": 360,
        "tint": "",
        "vision": false,
        "width": 1
    },
    "type": "hazard"
}
