{
    "_id": "k76O7wKWMJrycd9i",
    "data": {
        "attributes": {
            "ac": {
                "value": 21
            },
            "hardness": 10,
            "hasHealth": true,
            "hp": {
                "details": "",
                "max": 40,
                "temp": 0,
                "value": 40
            },
            "stealth": {
                "details": "<p>(trained)</p>",
                "value": 10
            }
        },
        "creatureType": "",
        "details": {
            "description": "<p>A tunnel through this steep barricade is rigged to collapse. If a kobold spends one action to throw a lever, the tunnel collapses on the next creature to pass through.</p>",
            "disable": "<p>Thievery DC 18 (trained) to carefully trigger the collapse without entering the tunnel or DC 22 (trained) to brace the tunnel so it is safe to pass through.</p>",
            "isComplex": false,
            "level": 3,
            "reset": "",
            "routine": ""
        },
        "flavourText": "",
        "recallKnowledgeText": "",
        "saves": {
            "fortitude": {
                "rank": 0,
                "saveDetail": "",
                "value": 12
            },
            "reflex": {
                "rank": 0,
                "saveDetail": "",
                "value": 6
            },
            "will": {
                "rank": 0,
                "saveDetail": "",
                "value": null
            }
        },
        "schema": {
            "version": {
                "value": ""
            }
        },
        "sidebarText": "",
        "source": {
            "value": ""
        },
        "statusEffects": [],
        "traits": {
            "ci": [],
            "di": {
                "custom": "",
                "selected": {},
                "value": [
                    "precision",
                    "critical-hits",
                    "object-immunities"
                ]
            },
            "dr": [],
            "dv": [],
            "rarity": {
                "value": "common"
            },
            "size": {
                "value": "med"
            },
            "traits": {
                "custom": "",
                "value": [
                    "mechanical",
                    "trap"
                ]
            }
        }
    },
    "effects": [],
    "flags": {},
    "img": "systems/pf2e/icons/default-icons/hazard.svg",
    "items": [
        {
            "_id": "HSuWYcm6naeQXv38",
            "data": {
                "actionCategory": {
                    "value": ""
                },
                "actionType": {
                    "value": "reaction"
                },
                "actions": {
                    "value": ""
                },
                "description": {
                    "value": "<p><strong>Trigger</strong> A creature crawls into the tunnel in the collapsing barricade after the trap is activated with the lever;</p>\n<p><strong>Effect</strong> The barricade collapses on the creature, who must attempt a <span data-pf2-saving-throw=\"reflex\" data-pf2-dc=\"22\" data-pf2-traits=\"damaging-effect\"><strong data-visibility=\"gm\">DC 22</strong> Reflex save.</span>.</p>\n<hr />\n<p><strong>Critical Success</strong> The creature takes no damage and escapes the barricade, emerging into a safe space on either side of it.</p>\n<p><strong>Success</strong> The creature takes [[/r 1d6+2 #bludgeoning]] bludgeoning damage from collapsing debris and [[/r 1d6+2 #slashing]] slashing damage from broken glass before emerging on the opposite side of the barricade from the one they entered.</p>\n<p><strong>Failure</strong> The creature takes [[/r 2d6+4 #bludgeoning]] bludgeoning damage from collapsing debris and [[/r 2d6+4 #slashing]] slashing damage from broken glass before emerging on the opposite side of the barricade from the one they entered.</p>\n<p><strong>Critical Failure</strong> As a failure, and the creature is @Compendium[pf2e.conditionitems.Immobilized]{Immobilized} beneath the barricade until they or another creature succeed at a DC 22 Athletics check to pull them free. They can still be targeted, touched, and otherwise interacted with by creatures on either side of the barrier.</p>"
                },
                "requirements": {
                    "value": ""
                },
                "rules": [],
                "slug": null,
                "source": {
                    "value": ""
                },
                "traits": {
                    "custom": "",
                    "rarity": {
                        "value": "common"
                    },
                    "value": []
                },
                "trigger": {
                    "value": ""
                },
                "weapon": {
                    "value": ""
                }
            },
            "effects": [],
            "flags": {},
            "img": "systems/pf2e/icons/actions/Reaction.webp",
            "name": "Collapse",
            "sort": 100000,
            "type": "action"
        }
    ],
    "name": "Collapsing Barricade (1-2)",
    "permission": {
        "default": 0
    },
    "token": {
        "actorId": "k76O7wKWMJrycd9i",
        "actorLink": false,
        "bar1": {
            "attribute": "attributes.hp"
        },
        "bar2": {},
        "brightLight": 0,
        "brightSight": 0,
        "dimLight": 0,
        "dimSight": 0,
        "displayBars": 20,
        "displayName": 20,
        "disposition": 0,
        "flags": {},
        "height": 1,
        "img": "systems/pf2e/icons/default-icons/hazard.svg",
        "lightAlpha": 1,
        "lightAngle": 360,
        "lightAnimation": {
            "intensity": 5,
            "speed": 5
        },
        "lockRotation": false,
        "name": "Collapsing Barricade (1-2)",
        "randomImg": false,
        "rotation": 0,
        "scale": 1,
        "sightAngle": 360,
        "tint": null,
        "vision": false,
        "width": 1
    },
    "type": "hazard"
}
