{
    "_id": "vg6fEjWSj4jilXRn",
    "data": {
        "attributes": {
            "ac": {
                "value": 22
            },
            "hardness": 12,
            "hasHealth": true,
            "hp": {
                "details": "",
                "max": 14,
                "temp": 0,
                "tempmax": 0,
                "value": 14
            },
            "stealth": {
                "details": "DC 22 Perception check to spot the magical energies reverberating in the pillars",
                "value": 12
            }
        },
        "creatureType": "",
        "customModifiers": {},
        "details": {
            "description": "Starknife symbols on the six pillars glow and shoot across the room.",
            "disable": "DC 21 Thievery (expert) or dispel magic on any four of the six pillars disables the entire trap (the trap is a 2nd-level spell  and the DC to dispel it is 21). Destroying any four of the six pillars also disables the trap.",
            "isComplex": true,
            "level": 5,
            "reset": "The trap deactivates 1 round after it has no target creatures and resets each day at sundown.",
            "routine": "(3 actions) For each of its actions on its turn, a carving on a different pillar glows and makes a magical starknife Ranged Strike against a random creature within range. Creatures might have cover from this Strike, such as from one of the pillars in the room."
        },
        "flavourText": "",
        "recallKnowledgeText": "",
        "saves": {
            "fortitude": {
                "rank": 0,
                "saveDetail": "",
                "value": 15
            },
            "reflex": {
                "rank": 0,
                "saveDetail": "",
                "value": 9
            },
            "will": {
                "rank": 0,
                "saveDetail": "",
                "value": 0
            }
        },
        "schema": {
            "version": {
                "value": ""
            }
        },
        "sidebarText": "",
        "source": {
            "value": ""
        },
        "statusEffects": [],
        "traits": {
            "ci": [],
            "di": {
                "custom": "sneak attack",
                "selected": {},
                "value": [
                    "critical-hits"
                ]
            },
            "dr": [],
            "dv": [],
            "rarity": {
                "value": "common"
            },
            "size": {
                "value": "med"
            },
            "traits": {
                "custom": "",
                "value": [
                    "magical"
                ]
            }
        }
    },
    "effects": [],
    "flags": {},
    "img": "systems/pf2e/icons/default-icons/mystery-man.svg",
    "items": [
        {
            "_id": "dwvQyKJ9gUWC4S3f",
            "data": {
                "actionCategory": {
                    "value": ""
                },
                "actionType": {
                    "value": "reaction"
                },
                "actions": {
                    "value": ""
                },
                "description": {
                    "chat": "",
                    "unidentified": "",
                    "value": "<p>(arcane, evocation) If a creature passes the middle pair of pillars, both doors leading out of the room slam shut and lock; while the trap is active, the doors must be battered open with a successful DC 23 Athletics check or sufficient damage (Hardness 12; HP 48 [BT 24]). One of the starknife carvings glows with light, detaches from the pillar, and then flies outward, making a magical starknife Ranged Strike against a random creature within range. The trap then rolls initiative with its Stealth modifier of +12.</p>"
                },
                "requirements": {
                    "value": ""
                },
                "rules": [],
                "slug": null,
                "source": {
                    "value": ""
                },
                "traits": {
                    "custom": "",
                    "rarity": {
                        "value": "common"
                    },
                    "value": []
                },
                "trigger": {
                    "value": ""
                },
                "usage": {
                    "value": "held-in-one-hand"
                },
                "weapon": {
                    "value": ""
                }
            },
            "effects": [],
            "flags": {},
            "img": "systems/pf2e/icons/actions/Reaction.webp",
            "name": "Starknife Attack",
            "sort": 100000,
            "type": "action"
        },
        {
            "_id": "O9himtaJvrfCALhE",
            "data": {
                "attack": {
                    "value": ""
                },
                "attackEffects": {
                    "value": []
                },
                "baseItem": null,
                "bonus": {
                    "value": 15
                },
                "brokenThreshold": {
                    "value": 0
                },
                "bulkCapacity": {
                    "value": ""
                },
                "collapsed": {
                    "value": false
                },
                "containerId": {
                    "value": ""
                },
                "damageRolls": {
                    "suquqxt663j73c6ijrk6t3": {
                        "damage": "1d4+3",
                        "damageType": "force"
                    }
                },
                "description": {
                    "chat": "",
                    "unidentified": "",
                    "value": ""
                },
                "equipped": {
                    "value": false
                },
                "equippedBulk": {
                    "value": ""
                },
                "hardness": {
                    "value": 0
                },
                "hp": {
                    "value": 0
                },
                "invested": {
                    "value": false
                },
                "maxHp": {
                    "value": 0
                },
                "negateBulk": {
                    "value": "0"
                },
                "preciousMaterial": {
                    "value": ""
                },
                "preciousMaterialGrade": {
                    "value": ""
                },
                "price": {
                    "value": 0
                },
                "property1": {
                    "critDamage": "",
                    "critDamageType": "",
                    "critDice": 0,
                    "critDie": "",
                    "damageType": "",
                    "dice": 0,
                    "die": "",
                    "value": ""
                },
                "property2": {
                    "critDamage": "",
                    "critDamageType": "",
                    "critDice": 0,
                    "critDie": "",
                    "damageType": "",
                    "dice": 0,
                    "die": "",
                    "value": ""
                },
                "property3": {
                    "critDamage": "",
                    "critDamageType": "",
                    "critDice": 0,
                    "critDie": "",
                    "damageType": "",
                    "dice": 0,
                    "die": "",
                    "value": ""
                },
                "quantity": {
                    "value": 1
                },
                "rules": [],
                "size": {
                    "value": "med"
                },
                "slug": null,
                "source": {
                    "value": ""
                },
                "stackGroup": {
                    "value": ""
                },
                "traits": {
                    "custom": "",
                    "rarity": {
                        "value": "common"
                    },
                    "value": [
                        "agile",
                        "deadly-d6",
                        "magical",
                        "range-increment-40"
                    ]
                },
                "usage": {
                    "value": "held-in-one-hand"
                },
                "weaponType": {
                    "value": "ranged"
                },
                "weight": {
                    "value": 0
                }
            },
            "effects": [],
            "flags": {},
            "img": "systems/pf2e/icons/equipment/weapons/starknife.webp",
            "name": "Magical Starknife",
            "sort": 200000,
            "type": "melee"
        }
    ],
    "name": "Magic Starknives Trap",
    "permission": {
        "default": 0
    },
    "token": {
        "actorId": "vg6fEjWSj4jilXRn",
        "actorLink": false,
        "bar1": {
            "attribute": "attributes.hp"
        },
        "bar2": {},
        "brightLight": 0,
        "brightSight": 0,
        "dimLight": 0,
        "dimSight": 0,
        "displayBars": 20,
        "displayName": 20,
        "disposition": 0,
        "flags": {},
        "height": 1,
        "img": "systems/pf2e/icons/default-icons/mystery-man.svg",
        "lightAlpha": 1,
        "lightAngle": 360,
        "lightAnimation": {
            "intensity": 5,
            "speed": 5
        },
        "lockRotation": false,
        "name": "Magic Starknives Trap",
        "randomImg": false,
        "rotation": 0,
        "scale": 1,
        "sightAngle": 360,
        "tint": null,
        "vision": false,
        "width": 1
    },
    "type": "hazard"
}
